{
    "_id": null,
    "tags": [
        "mod",
        "common"
    ],
    "icon": "remote://https://vignette.wikia.nocookie.net/warframe/images/4/4d/SecurityOverrideMod.png/revision/latest?cb=20190308104950",
    "thumb": null,
    "icon_format": null,
    "sub_icon": null,
    "url_name": "security_override",
    "tradable": true,
    "part_of_set": null,
    "set_root": null,
    "en": {
        "item_name": "Security Override",
        "description": "<p>Auto-hacks consoles over 12s. 5% chance to mind control basic robotic enemies and turrets in 30m for 4s after Hacking.</p>",
        "wiki_link": null,
        "drop": []
    },
    "ru": {
        "item_name": "Security Override",
        "description": "<p>Auto-hacks consoles over 12s. 5% chance to mind control basic robotic enemies and turrets in 30m for 4s after Hacking.</p>",
        "wiki_link": null,
        "drop": []
    },
    "ko": {
        "item_name": "Security Override",
        "description": "<p>Auto-hacks consoles over 12s. 5% chance to mind control basic robotic enemies and turrets in 30m for 4s after Hacking.</p>",
        "wiki_link": null,
        "drop": []
    },
    "rarity": "common",
    "mod_max_rank": 5,
    "mastery_level": null,
    "ducats": null,
    "trading_tax": 2000,
    "ready": true
}