{
    "_id": "5c5ca81a96e8d2003834fe6e",
    "url_name": "base_damage_/_melee_damage",
    "group": "default",
    "prefix": "Visi",
    "suffix": "Ata",
    "positive_is_negative": false,
    "exclusive_to": null,
    "en": {
        "effect": "Base Damage / Melee Damage"
    },
    "ru": {
        "effect": "Base Damage / Melee Damage"
    },
    "ko": {
        "effect": "Base Damage / Melee Damage"
    }
}