{
    "_id": "5c5ca81a96e8d2003834fe65",
    "url_name": "damage_vs_grineer",
    "group": "default",
    "prefix": "Argi",
    "suffix": "Con",
    "positive_is_negative": false,
    "exclusive_to": null,
    "en": {
        "effect": "Damage vs. Grineer"
    },
    "ru": {
        "effect": "Damage vs. Grineer"
    },
    "ko": {
        "effect": "Damage vs. Grineer"
    }
}