{
    "_id": "5c5ca81a96e8d2003834fe66",
    "url_name": "damage_vs_infested",
    "group": "default",
    "prefix": "Pura",
    "suffix": "Ada",
    "positive_is_negative": false,
    "exclusive_to": null,
    "en": {
        "effect": "Damage vs. Infested"
    },
    "ru": {
        "effect": "Damage vs. Infested"
    },
    "ko": {
        "effect": "Damage vs. Infested"
    }
}