{
    "_id": "5c5ca81a96e8d2003834fe70",
    "url_name": "heat_damage",
    "group": "default",
    "prefix": "Igni",
    "suffix": "Pha",
    "icon": "static/assets/icons/Heat_b.6a9abc546eb332a89e26b3ac5588c385.png",
    "positive_is_negative": false,
    "exclusive_to": null,
    "en": {
        "effect": "Heat Damage"
    },
    "ru": {
        "effect": "Heat Damage"
    },
    "ko": {
        "effect": "Heat Damage"
    }
}