{
    "_id": "5c5ca81a96e8d2003834fe75",
    "url_name": "magazine_capacity",
    "group": "default",
    "prefix": "Arma",
    "suffix": "Tin",
    "positive_is_negative": false,
    "exclusive_to": null,
    "en": {
        "effect": "Magazine Capacity"
    },
    "ru": {
        "effect": "Magazine Capacity"
    },
    "ko": {
        "effect": "Magazine Capacity"
    }
}