{
    "_id": "5c5ca81a96e8d2003834fe7f",
    "url_name": "recoil",
    "group": "default",
    "prefix": "Zeti",
    "suffix": "Mag",
    "positive_is_negative": true,
    "exclusive_to": null,
    "en": {
        "effect": "Recoil"
    },
    "ru": {
        "effect": "Recoil"
    },
    "ko": {
        "effect": "Recoil"
    }
}