{
    "_id": "5c5ca81a96e8d2003834fe7a",
    "url_name": "reload_speed",
    "group": "default",
    "prefix": "Feva",
    "suffix": "Tak",
    "positive_is_negative": false,
    "exclusive_to": null,
    "en": {
        "effect": "Reload Speed"
    },
    "ru": {
        "effect": "Reload Speed"
    },
    "ko": {
        "effect": "Reload Speed"
    }
}