{
    "_id": "54a73e65e779893a797fff22",
    "tags": [
        "blueprint",
        "prime"
    ],
    "icon": "icons/en/Akbronco_Prime_Set.34b5a7f99e5f8c15cc2039a76c725069.png",
    "thumb": "icons/en/thumbs/Akbronco_Prime_Set.34b5a7f99e5f8c15cc2039a76c725069.128x128.png",
    "icon_format": "land",
    "sub_icon": "sub_icons/blueprint_128x128.png",
    "url_name": "akbronco_prime_blueprint",
    "tradable": true,
    "part_of_set": [
        "56783f24cbfa8f0432dd898d",
        "54a73e65e779893a797fff22",
        "54a73e65e779893a797fff23"
    ],
    "set_root": false,
    "en": {
        "item_name": "Akbronco Prime Blueprint",
        "description": "<p>The Akbronco Prime lowers  Impact damage to increase  Slash damage, while gaining increased firing rate, critical damage, status chance and magazine size. The Akbronco Prime was added into the game in Update 12.4.</p>",
        "wiki_link": "http://warframe.wikia.com/wiki/Akbronco_Prime",
        "drop": [
            {
                "name": "Lith S2 Common",
                "link": null
            },
            {
                "name": "Lith S3 Common",
                "link": null
            }
        ]
    },
    "ru": {
        "item_name": "Акбронко прайм Чертеж",
        "description": "<p>Используемые в паре, эти пистолеты Орокин дополняют друг друга, нанося высокий урон с увеличенным шансом наложения элементального эффекта.</p>",
        "wiki_link": "http://ru.warframe.wikia.com/wiki/%D0%90%D0%BA%D0%B1%D1%80%D0%BE%D0%BD%D0%BA%D0%BE_%D0%BF%D1%80%D0%B0%D0%B9%D0%BC/Прайм",
        "drop": [
            {
                "name": "Lith S2 Common",
                "link": null
            },
            {
                "name": "Lith S3 Common",
                "link": null
            }
        ]
    },
    "ko": {
        "item_name": "아크브롱코 프라임 설계도",
        "description": "<p>The Akbronco Prime lowers  Impact damage to increase  Slash damage, while gaining increased firing rate, critical damage, status chance and magazine size. The Akbronco Prime was added into the game in Update 12.4.</p>",
        "wiki_link": "http://warframe.wikia.com/wiki/Akbronco_Prime",
        "drop": [
            {
                "name": "Lith S2 Common",
                "link": null
            },
            {
                "name": "Lith S3 Common",
                "link": null
            }
        ]
    },
    "mastery_level": 0,
    "ducats": 15,
    "trading_tax": 2000
}