{
    "_id": "5bebf1713ffcc704caf38cf7",
    "tags": [
        "parts",
        "prime",
        "link"
    ],
    "icon": "icons/en/Akvasto_Prime_Set.029887bbd387510ffec1debd81f65dab.png",
    "thumb": "icons/en/thumbs/Akvasto_Prime_Set.029887bbd387510ffec1debd81f65dab.128x128.png",
    "icon_format": "land",
    "sub_icon": "sub_icons/link_128x128.png",
    "url_name": "akvasto_prime_link",
    "tradable": true,
    "part_of_set": [
        "5bebf1713ffcc704caf38cf4",
        "5bebf1713ffcc704caf38cf6",
        "5bebf1713ffcc704caf38cf7"
    ],
    "set_root": false,
    "en": {
        "item_name": "Akvasto Prime Link",
        "description": "<p>The Akvasto Prime is the primed version of the Akvasto revolver, sporting higher offensive stats at some expense to fire rate.</p>",
        "wiki_link": "https://warframe.fandom.com/wiki/Akvasto_Prime",
        "drop": [
            {
                "name": "Axi A5 Uncommon",
                "link": null
            }
        ]
    },
    "ru": {
        "item_name": "Аквасто Прайм Связь",
        "description": "<p>Прайм версия револьверов Аквасто.</p>",
        "wiki_link": "https://warframe.fandom.com/wiki/Akvasto_Prime",
        "drop": [
            {
                "name": "Акси A5 Необычный",
                "link": null
            }
        ]
    },
    "ko": {
        "item_name": "아크바스토 프라임 링크",
        "description": "<p>The Akvasto Prime is the primed version of the Akvasto revolver, sporting higher offensive stats at some expense to fire rate.</p>",
        "wiki_link": "https://warframe.fandom.com/wiki/Akvasto_Prime",
        "drop": [
            {
                "name": "Axi A5 Uncommon",
                "link": null
            }
        ]
    },
    "mastery_level": 12,
    "ducats": 45,
    "trading_tax": 2000
}