{
    "_id": "55108594e77989728d5100c6",
    "tags": [
        "arcane enhancements"
    ],
    "icon": "icons/en/Arcane_Agility.2274fd115d389b990a55f5a4ff864773.png",
    "thumb": "icons/en/thumbs/Arcane_Agility.2274fd115d389b990a55f5a4ff864773.128x128.png",
    "icon_format": "land",
    "url_name": "arcane_agility",
    "tradable": true,
    "en": {
        "item_name": "Arcane Agility",
        "description": "<p>Arcane Agility is an Arcane Enhancement that provides a chance whenever the player receives damage to increase Warframe sprint speed for a short time.</p>",
        "wiki_link": "http://warframe.wikia.com/wiki/Arcane_Agility",
        "drop": []
    },
    "ru": {
        "item_name": "Мистическая Ловкость",
        "description": "<p>Мистическая Ловкость - необычный мистификатор, который увеличивает скорость передвижения на 5% в течение 2-ух секунд при получении урона с шансом 1%. На максимальном ранге мистификатора скорость передвижения составляет 20% в течение 8 секунд, а шанс срабатывания 4%.</p>",
        "wiki_link": "http://ru.warframe.wikia.com/wiki/%D0%9C%D0%B8%D1%81%D1%82%D0%B8%D1%87%D0%B5%D1%81%D0%BA%D0%B0%D1%8F_%D0%9B%D0%BE%D0%B2%D0%BA%D0%BE%D1%81%D1%82%D1%8C",
        "drop": []
    },
    "ko": {
        "item_name": "아케인 어질리티",
        "description": "<p>Arcane Agility is an Arcane Enhancement that provides a chance whenever the player receives damage to increase Warframe sprint speed for a short time.</p>",
        "wiki_link": "http://warframe.wikia.com/wiki/Arcane_Agility",
        "drop": []
    },
    "rarity": "uncommon",
    "mod_max_rank": 3,
    "trading_tax": 4000
}