{
    "_id": "55a46c61e779890338bfadd8",
    "tags": [
        "arcane enhancements"
    ],
    "icon": "icons/en/Arcane_Resistance.267b09428a472d2624ac6eb47a61ac0a.png",
    "thumb": "icons/en/thumbs/Arcane_Resistance.267b09428a472d2624ac6eb47a61ac0a.128x128.png",
    "icon_format": "land",
    "url_name": "arcane_resistance",
    "tradable": true,
    "en": {
        "item_name": "Arcane Resistance",
        "description": "<p>Arcane Resistance is an Arcane Enhancement that provides a chance to resist an  Electric damage effect entirely.</p>",
        "wiki_link": "http://warframe.wikia.com/wiki/Arcane_Resistance",
        "drop": []
    },
    "ru": {
        "item_name": "Мистическое Сопротивление",
        "description": "<p>Мистическое Сопротивление - редкий мистификатор, который пассивно увеличивает сопротивление к  электричеству на 10%. На максимальном ранге мистификатора бонус сопротивления к  электричеству составляет 40%.</p>",
        "wiki_link": "http://ru.warframe.wikia.com/wiki/%D0%9C%D0%B8%D1%81%D1%82%D0%B8%D1%87%D0%B5%D1%81%D0%BA%D0%BE%D0%B5_%D0%A1%D0%BE%D0%BF%D1%80%D0%BE%D1%82%D0%B8%D0%B2%D0%BB%D0%B5%D0%BD%D0%B8%D0%B5",
        "drop": []
    },
    "ko": {
        "item_name": "아케인 레지스턴스",
        "description": "<p>Arcane Resistance is an Arcane Enhancement that provides a chance to resist an  Electric damage effect entirely.</p>",
        "wiki_link": "http://warframe.wikia.com/wiki/Arcane_Resistance",
        "drop": []
    },
    "rarity": "uncommon",
    "mod_max_rank": 3,
    "trading_tax": 4000
}