{
    "_id": "5667516b5dcbc186f0536bd2",
    "tags": [
        "arcane enhancements"
    ],
    "icon": "icons/en/Arcane_Momentum.f551dd91689f3169160aafecddeede24.png",
    "thumb": "icons/en/thumbs/Arcane_Momentum.f551dd91689f3169160aafecddeede24.128x128.png",
    "icon_format": "land",
    "url_name": "arcane_momentum",
    "tradable": true,
    "en": {
        "item_name": "Arcane Momentum",
        "description": "<p>Arcane Momentum is an Arcane Enhancement that provides a chance to increase the Fire Rate on Sniper-type weapons whenever the player achieves a critical Hit.</p>",
        "wiki_link": "http://warframe.wikia.com/wiki/Arcane_Momentum",
        "drop": []
    },
    "ru": {
        "item_name": "Мистический Момент",
        "description": "<p>При критических попаданиях шанс увеличить скорость снайперских винтовок.</p>",
        "wiki_link": "http://ru.warframe.wikia.com/wiki/%D0%9C%D0%B8%D1%81%D1%82%D0%B8%D1%87%D0%B5%D1%81%D0%BA%D0%B8%D0%B9_%D0%9C%D0%BE%D0%BC%D0%B5%D0%BD%D1%82",
        "drop": []
    },
    "ko": {
        "item_name": "아케인 모멘텀",
        "description": "<p>Arcane Momentum is an Arcane Enhancement that provides a chance to increase the Fire Rate on Sniper-type weapons whenever the player achieves a critical Hit.</p>",
        "wiki_link": "http://warframe.wikia.com/wiki/Arcane_Momentum",
        "drop": []
    },
    "rarity": "common",
    "mod_max_rank": 3,
    "trading_tax": 2000
}