{
    "_id": "566751295dcbc186f0536bd1",
    "tags": [
        "arcane enhancements"
    ],
    "icon": "icons/en/Arcane_Energize.e5f85590ceb29db89c6753dfdf823485.png",
    "thumb": "icons/en/thumbs/Arcane_Energize.e5f85590ceb29db89c6753dfdf823485.128x128.png",
    "icon_format": "land",
    "url_name": "arcane_energize",
    "tradable": true,
    "en": {
        "item_name": "Arcane Energize",
        "description": "<p>Arcane Energize is an Arcane Enhancement that provides a chance to replenish additional energy for you and nearby allies whenever an Energy Orb is picked up.</p>",
        "wiki_link": "http://warframe.wikia.com/wiki/Arcane_Energize",
        "drop": []
    },
    "ru": {
        "item_name": "Мистическая Зарядка",
        "description": "<p>Мистическая Зарядка - редкий мистификатор, который с вероятностью 10% при поднятии сферы энергии восстанавливает варфрейму дополнительно 25 энергии и столько же раздаёт всем союзникам в радиусе 5 метров. На максимальном ранге мистификатора вероятность срабатывания составляет 40%, радиус раздачи 20 метров, а кол-во дополнительной энергии с одной поднятой сферы энергии достигает 100.</p>",
        "wiki_link": "http://ru.warframe.wikia.com/wiki/%D0%9C%D0%B8%D1%81%D1%82%D0%B8%D1%87%D0%B5%D1%81%D0%BA%D0%B0%D1%8F_%D0%97%D0%B0%D1%80%D1%8F%D0%B4%D0%BA%D0%B0",
        "drop": []
    },
    "ko": {
        "item_name": "아케인 에너자이즈",
        "description": "<p>Arcane Energize is an Arcane Enhancement that provides a chance to replenish additional energy for you and nearby allies whenever an Energy Orb is picked up.</p>",
        "wiki_link": "http://warframe.wikia.com/wiki/Arcane_Energize",
        "drop": []
    },
    "rarity": "legendary",
    "mod_max_rank": 3,
    "trading_tax": 1000000
}