{
    "_id": "566751d35dcbc186f0536bd6",
    "tags": [
        "arcane enhancements"
    ],
    "icon": "icons/en/Arcane_Velocity.ea37edd24f8212ce4bb283205658829b.png",
    "thumb": "icons/en/thumbs/Arcane_Velocity.ea37edd24f8212ce4bb283205658829b.128x128.png",
    "icon_format": "land",
    "url_name": "arcane_velocity",
    "tradable": true,
    "en": {
        "item_name": "Arcane Velocity",
        "description": "<p>Arcane Velocity is an Arcane Enhancement that provides a chance whenever the player upon achieving a critical Hit to increase Fire Rate on Secondaries for a short time. </p>",
        "wiki_link": "http://warframe.wikia.com/wiki/Arcane_Velocity",
        "drop": []
    },
    "ru": {
        "item_name": "Мистическая Скорость",
        "description": "<p>При критических попаданиях шанс увеличить скорость атаки для пистолетов.</p>",
        "wiki_link": "http://ru.warframe.wikia.com/wiki/%D0%9C%D0%B8%D1%81%D1%82%D0%B8%D1%87%D0%B5%D1%81%D0%BA%D0%B0%D1%8F_%D0%A1%D0%BA%D0%BE%D1%80%D0%BE%D1%81%D1%82%D1%8C",
        "drop": []
    },
    "ko": {
        "item_name": "아케인 벨로서티",
        "description": "<p>Arcane Velocity is an Arcane Enhancement that provides a chance whenever the player upon achieving a critical Hit to increase Fire Rate on Secondaries for a short time. </p>",
        "wiki_link": "http://warframe.wikia.com/wiki/Arcane_Velocity",
        "drop": []
    },
    "rarity": "uncommon",
    "mod_max_rank": 3,
    "trading_tax": 4000
}