{
    "_id": "5c1bda0a14a8e4006b1dad67",
    "tags": [
        "mod"
    ],
    "icon": "icons/en/Arch-Gun_Ace.b18c4e461e441c105586d717be639ec8.png",
    "thumb": "icons/en/thumbs/Arch-Gun_Ace.b18c4e461e441c105586d717be639ec8.128x128.png",
    "icon_format": "port",
    "url_name": "arch_gun_ace",
    "tradable": true,
    "en": {
        "item_name": "Arch-Gun Ace",
        "description": "<p>Arch-Gun Ace increases fire/charge rate and reload speed for a brief time upon a headshot kill.</p>",
        "wiki_link": "https://warframe.fandom.com/wiki/Arch-Gun_Ace",
        "drop": []
    },
    "ru": {
        "item_name": "Ас Оружия Арчвинга",
        "description": "<p>Ас Оружия Арчвинга — редкий мод для основного оружия арчвинга, который при убийстве с попаданием в голову на небольшой промежуток времени увеличивает скорострельность и скорость выполнения заряженного выстрела, а также ускоряет перезарядку оружия.</p>",
        "wiki_link": "https://warframe.fandom.com/ru/wiki/%D0%90%D1%81_%D0%9E%D1%80%D1%83%D0%B6%D0%B8%D1%8F_%D0%90%D1%80%D1%87%D0%B2%D0%B8%D0%BD%D0%B3%D0%B0",
        "icon": "icons/ru/Arch-Gun_Ace.a17eb746369ddac90fc62f3aecfd150c.png",
        "thumb": "icons/ru/thumbs/Arch-Gun_Ace.a17eb746369ddac90fc62f3aecfd150c.128x128.png",
        "drop": []
    },
    "ko": {
        "item_name": "아크-건 에이스",
        "description": "<p>Arch-Gun Ace increases fire/charge rate and reload speed for a brief time upon a headshot kill.</p>",
        "wiki_link": "https://warframe.fandom.com/wiki/Arch-Gun_Ace",
        "drop": []
    },
    "rarity": "rare",
    "mod_max_rank": 5,
    "trading_tax": 8000
}