{
    "_id": "56783f24cbfa8f0432dd898f",
    "tags": [
        "set",
        "prime",
        "warframe"
    ],
    "icon": "icons/en/Ash_Prime_Set.9f3f82bee82a9741531857cf76eb6594.png",
    "thumb": "icons/en/thumbs/Ash_Prime_Set.9f3f82bee82a9741531857cf76eb6594.128x128.png",
    "icon_format": "port",
    "url_name": "ash_prime_set",
    "tradable": true,
    "part_of_set": [
        "56783f24cbfa8f0432dd898f",
        "559daa9fe779897b3263c2c7",
        "559daaa7e779897b35d626c6",
        "559daab7e779897b3d86cb8f",
        "559daaafe779897b399db0fd"
    ],
    "set_root": true,
    "en": {
        "item_name": "Ash Prime Set",
        "description": "<p>Release Date: July 7, 2015</p><p>Ash Prime is the primed variant of the Ash Warframe featuring more powerful stats, possessing a higher shield capacity, armor and sprint speed, as well as an additional  polarity.</p>",
        "wiki_link": "http://warframe.wikia.com/wiki/Ash/Prime",
        "drop": []
    },
    "ru": {
        "item_name": "Эш Прайм Комплект",
        "description": "<p>Отвлекающие маневры и смертельные уловки стали смертоносным оружием для Эша прайм. Содержит измененные полярности для лучшей конфигурации.</p>",
        "wiki_link": "http://ru.warframe.wikia.com/wiki/%D0%AD%D1%88/Прайм",
        "drop": []
    },
    "ko": {
        "item_name": "애쉬 프라임 세트",
        "description": "<p>Release Date: July 7, 2015</p><p>Ash Prime is the primed variant of the Ash Warframe featuring more powerful stats, possessing a higher shield capacity, armor and sprint speed, as well as an additional  polarity.</p>",
        "wiki_link": "http://warframe.wikia.com/wiki/Ash/Prime",
        "drop": []
    },
    "trading_tax": 4000
}