{
    "_id": "59a5cd4d5cd9938cfede7046",
    "tags": [
        "blueprint",
        "crossbow"
    ],
    "icon": "icons/en/Ballistica_Prime_Set.4ed33348008ace40406d0383f692ecac.png",
    "thumb": "icons/en/thumbs/Ballistica_Prime_Set.4ed33348008ace40406d0383f692ecac.128x128.png",
    "icon_format": "port",
    "sub_icon": "sub_icons/receiver_128x128.png",
    "url_name": "ballistica_prime_receiver",
    "tradable": true,
    "part_of_set": [
        "59a5c2565cd9938cfede703e",
        "59a5c2565cd9938cfede703d",
        "59a5cd4d5cd9938cfede7044",
        "59a5cd4d5cd9938cfede7046",
        "59a5cd4d5cd9938cfede7045",
        "59a5cd4d5cd9938cfede7043"
    ],
    "set_root": false,
    "en": {
        "item_name": "Ballistica Prime Receiver",
        "description": "<p>The Ballistica Prime is the Prime variant of the Ballistica. It was released in Update 21.6 alongside Hydroid Prime and Nami Skyla Prime.</p>",
        "wiki_link": "http://warframe.wikia.com/wiki/Ballistica_Prime",
        "drop": []
    },
    "ru": {
        "item_name": "Баллистика Прайм Приемник",
        "description": "<p>Красота этого роскошного позолоченного арбалета не может преуменьшить его смертоносное призвание.</p>",
        "wiki_link": "http://ru.warframe.wikia.com/wiki/%D0%91%D0%B0%D0%BB%D0%BB%D0%B8%D1%81%D1%82%D0%B8%D0%BA%D0%B0_%D0%9F%D1%80%D0%B0%D0%B9%D0%BC",
        "drop": []
    },
    "ko": {
        "item_name": "발리스티카 프라임 리시버",
        "description": "<p>The Ballistica Prime is the Prime variant of the Ballistica. It was released in Update 21.6 alongside Hydroid Prime and Nami Skyla Prime.</p>",
        "wiki_link": "http://warframe.wikia.com/wiki/Ballistica_Prime",
        "drop": []
    },
    "mastery_level": 14,
    "ducats": 45,
    "trading_tax": 2000
}