{
    "_id": "58b57068eb26db5c3119210a",
    "tags": [
        "blueprint",
        "warframe"
    ],
    "icon": "icons/en/Banshee_Prime_Set.a0956816beb733841bce57e69a568cd6.png",
    "thumb": "icons/en/thumbs/Banshee_Prime_Set.a0956816beb733841bce57e69a568cd6.128x128.png",
    "icon_format": "port",
    "sub_icon": "sub_icons/blueprint_128x128.png",
    "url_name": "banshee_prime_blueprint",
    "tradable": true,
    "part_of_set": [
        "58b57068eb26db5c3119210e",
        "58b57068eb26db5c3119210a",
        "58b57068eb26db5c3119210c",
        "58b57068eb26db5c3119210b",
        "58b57068eb26db5c3119210d"
    ],
    "set_root": false,
    "en": {
        "item_name": "Banshee Prime Blueprint",
        "description": "<p>Release date: 28 February 2017</p><p>Banshee Prime is the Prime variant of the Banshee Warframe featuring higher armor, sprint speed, and power values, as well as an additional Naramon Pol polarity.</p>",
        "wiki_link": "http://warframe.wikia.com/wiki/Banshee/Prime",
        "drop": [
            {
                "name": "Neo H1 Uncommon",
                "link": null
            },
            {
                "name": "Neo N7 Uncommon",
                "link": null
            },
            {
                "name": "Neo T1 Uncommon",
                "link": null
            }
        ]
    },
    "ru": {
        "item_name": "Банши Прайм Чертеж",
        "description": "<p>Банши Прайм представляет из себя легкобронированного и быстрого Варфрейма, который властвует акустикой. Банши ориентированна на нанесение колоссального урона по противнику и поддержки команды. У самой Банши нет способностей, наносящих высокий прямой урон по противнику, однако она может создавать слабые точки противника, попадание по которым будет наносить сверхвысокий урон.</p>",
        "wiki_link": "http://ru.warframe.wikia.com/wiki/%D0%91%D0%B0%D0%BD%D1%88%D0%B8/%D0%9F%D1%80%D0%B0%D0%B9%D0%BC",
        "drop": [
            {
                "name": "Neo H1 Uncommon",
                "link": null
            },
            {
                "name": "Neo N7 Uncommon",
                "link": null
            },
            {
                "name": "Neo T1 Uncommon",
                "link": null
            }
        ]
    },
    "ko": {
        "item_name": "밴쉬 프라임 설계도",
        "description": "<p>Release date: 28 February 2017</p><p>Banshee Prime is the Prime variant of the Banshee Warframe featuring higher armor, sprint speed, and power values, as well as an additional Naramon Pol polarity.</p>",
        "wiki_link": "http://warframe.wikia.com/wiki/Banshee/Prime",
        "drop": [
            {
                "name": "Neo H1 Uncommon",
                "link": null
            },
            {
                "name": "Neo N7 Uncommon",
                "link": null
            },
            {
                "name": "Neo T1 Uncommon",
                "link": null
            }
        ]
    },
    "ducats": 45,
    "trading_tax": 4000
}