{
    "_id": "54a73e65e779893a797fff27",
    "tags": [
        "blueprint",
        "prime"
    ],
    "icon": "icons/en/Bo_Prime_Set.fad65cfb95d62a4275be60be30375846.png",
    "thumb": "icons/en/thumbs/Bo_Prime_Set.fad65cfb95d62a4275be60be30375846.128x128.png",
    "icon_format": "land",
    "sub_icon": "sub_icons/blueprint_128x128.png",
    "url_name": "bo_prime_blueprint",
    "tradable": true,
    "part_of_set": [
        "56783f24cbfa8f0432dd8990",
        "54a73e65e779893a797fff27",
        "54a73e65e779893a797fff28",
        "54a73e65e779893a797fff29"
    ],
    "set_root": false,
    "en": {
        "item_name": "Bo Prime Blueprint",
        "description": "<p>The Bo Prime is the primed variant of the Bo staff. It was added in Update 13.7, featuring higher damage and an additional  polarity.</p>",
        "wiki_link": "http://warframe.wikia.com/wiki/Bo_Prime",
        "drop": []
    },
    "ru": {
        "item_name": "Бо прайм Чертеж",
        "description": "<p>Классическое оружие Орокин, Бо Прайм выплескивает свою прекрасную ярость на поле боя.</p>",
        "wiki_link": "http://ru.warframe.wikia.com/wiki/%D0%91%D0%BE_%D0%BF%D1%80%D0%B0%D0%B9%D0%BC/Прайм",
        "drop": []
    },
    "ko": {
        "item_name": "보 프라임 블루프린트",
        "description": "<p>The Bo Prime is the primed variant of the Bo staff. It was added in Update 13.7, featuring higher damage and an additional  polarity.</p>",
        "wiki_link": "http://warframe.wikia.com/wiki/Bo_Prime",
        "drop": []
    },
    "mastery_level": 5,
    "ducats": 15,
    "trading_tax": 2000
}