{
    "_id": "559daad8e779897b4f59525f",
    "tags": [
        "parts",
        "prime",
        "systems"
    ],
    "icon": "icons/en/Carrier_Prime_Set.1f39e6e9ecef0225b0755dd5c89f3cc8.png",
    "thumb": "icons/en/thumbs/Carrier_Prime_Set.1f39e6e9ecef0225b0755dd5c89f3cc8.128x128.png",
    "icon_format": "port",
    "sub_icon": "sub_icons/systems_128x128.png",
    "url_name": "carrier_prime_systems",
    "tradable": true,
    "part_of_set": [
        "56783f24cbfa8f0432dd8996",
        "559daac1e779897b4253a85e",
        "559daad1e779897b4be73862",
        "559daacae779897b47b74c13",
        "559daad8e779897b4f59525f"
    ],
    "set_root": false,
    "en": {
        "item_name": "Carrier Prime Systems",
        "description": "<p>The Primed version of the Carrier Sentinel, the Carrier Prime features increased health and armor, and comes with the enhanced Sweeper Prime weapon. </p>",
        "wiki_link": "http://warframe.wikia.com/wiki/Carrier_Prime",
        "drop": [
            {
                "name": "Lith S2 Common",
                "link": null
            },
            {
                "name": "Lith S3 Common",
                "link": null
            },
            {
                "name": "Neo V3 Common",
                "link": null
            },
            {
                "name": "Axi V1 Common",
                "link": null
            }
        ]
    },
    "ru": {
        "item_name": "Носитель Прайм Система",
        "description": "<p>Этот украшенный страж - прекрасный образец мастерства и стиля последних разработок Орокин.</p>",
        "wiki_link": "http://ru.warframe.wikia.com/wiki/%D0%9D%D0%BE%D1%81%D0%B8%D1%82%D0%B5%D0%BB%D1%8C_%D0%9F%D1%80%D0%B0%D0%B9%D0%BC/Прайм",
        "drop": [
            {
                "name": "Lith S2 Common",
                "link": null
            },
            {
                "name": "Lith S3 Common",
                "link": null
            },
            {
                "name": "Neo V3 Common",
                "link": null
            },
            {
                "name": "Axi V1 Common",
                "link": null
            }
        ]
    },
    "ko": {
        "item_name": "캐리어 프라임 시스템",
        "description": "<p>The Primed version of the Carrier Sentinel, the Carrier Prime features increased health and armor, and comes with the enhanced Sweeper Prime weapon. </p>",
        "wiki_link": "http://warframe.wikia.com/wiki/Carrier_Prime",
        "drop": [
            {
                "name": "Lith S2 Common",
                "link": null
            },
            {
                "name": "Lith S3 Common",
                "link": null
            },
            {
                "name": "Neo V3 Common",
                "link": null
            },
            {
                "name": "Axi V1 Common",
                "link": null
            }
        ]
    },
    "ducats": 15,
    "trading_tax": 4000
}