{
    "_id": "54a74454e779892d5e51564d",
    "tags": [
        "mod",
        "pistol",
        "uncommon"
    ],
    "icon": "icons/en/Convulsion.c353854f9c1c5514d241c43277810834.png",
    "thumb": "icons/en/thumbs/Convulsion.c353854f9c1c5514d241c43277810834.128x128.png",
    "icon_format": "port",
    "url_name": "convulsion",
    "tradable": true,
    "en": {
        "item_name": "Convulsion",
        "description": "<p>Convulsion  increases  Electricity damage on secondary weapons.</p>",
        "wiki_link": "http://warframe.wikia.com/wiki/Convulsion",
        "drop": [
            {
                "name": "CorpusDrone",
                "link": null
            },
            {
                "name": "CorpusNemes",
                "link": null
            },
            {
                "name": "CorpusOxium Osprey",
                "link": null
            },
            {
                "name": "GrineerCarabus",
                "link": null
            },
            {
                "name": "GrineerFrontier Regulator",
                "link": null
            },
            {
                "name": "GrineerRegulator",
                "link": null
            },
            {
                "name": "InfestedCharger",
                "link": null
            },
            {
                "name": "InfestedJuggernaut",
                "link": null
            },
            {
                "name": "InfestedJuggernaut Behemoth",
                "link": null
            },
            {
                "name": "Orokin Void Containers",
                "link": null
            },
            {
                "name": "Corpus Tier 3Defense Reward",
                "link": null
            }
        ]
    },
    "ru": {
        "item_name": "Конвульсия",
        "description": "<p>Конвульсия — необычный мод для вторичного оружия, который увеличивает  электрический урон.</p>",
        "wiki_link": "http://ru.warframe.wikia.com/wiki/%D0%9A%D0%BE%D0%BD%D0%B2%D1%83%D0%BB%D1%8C%D1%81%D0%B8%D1%8F",
        "icon": "icons/ru/Convulsion.acf58af37e8374dbbef0805c8e0c37ae.png",
        "thumb": "icons/ru/thumbs/Convulsion.acf58af37e8374dbbef0805c8e0c37ae.128x128.png",
        "drop": [
            {
                "name": "CorpusDrone",
                "link": null
            },
            {
                "name": "CorpusNemes",
                "link": null
            },
            {
                "name": "CorpusOxium Osprey",
                "link": null
            },
            {
                "name": "GrineerCarabus",
                "link": null
            },
            {
                "name": "GrineerFrontier Regulator",
                "link": null
            },
            {
                "name": "GrineerRegulator",
                "link": null
            },
            {
                "name": "InfestedCharger",
                "link": null
            },
            {
                "name": "InfestedJuggernaut",
                "link": null
            },
            {
                "name": "InfestedJuggernaut Behemoth",
                "link": null
            },
            {
                "name": "Orokin Void Containers",
                "link": null
            },
            {
                "name": "Corpus Tier 3Defense Reward",
                "link": null
            }
        ]
    },
    "ko": {
        "item_name": "컨벌젼",
        "description": "<p>Convulsion  increases  Electricity damage on secondary weapons.</p>",
        "wiki_link": "http://warframe.wikia.com/wiki/Convulsion",
        "drop": [
            {
                "name": "CorpusDrone",
                "link": null
            },
            {
                "name": "CorpusNemes",
                "link": null
            },
            {
                "name": "CorpusOxium Osprey",
                "link": null
            },
            {
                "name": "GrineerCarabus",
                "link": null
            },
            {
                "name": "GrineerFrontier Regulator",
                "link": null
            },
            {
                "name": "GrineerRegulator",
                "link": null
            },
            {
                "name": "InfestedCharger",
                "link": null
            },
            {
                "name": "InfestedJuggernaut",
                "link": null
            },
            {
                "name": "InfestedJuggernaut Behemoth",
                "link": null
            },
            {
                "name": "Orokin Void Containers",
                "link": null
            },
            {
                "name": "Corpus Tier 3Defense Reward",
                "link": null
            }
        ]
    },
    "rarity": "uncommon",
    "mod_max_rank": 5,
    "trading_tax": 4000
}