{
    "_id": "56675641f9001cd2824a6824",
    "tags": [
        "blueprint",
        "weapons"
    ],
    "icon": "icons/en/Dera_Vandal_Set.15c5a1f8b62ab0520cf7394563f73aea.png",
    "thumb": "icons/en/thumbs/Dera_Vandal_Set.15c5a1f8b62ab0520cf7394563f73aea.128x128.png",
    "icon_format": "land",
    "sub_icon": "sub_icons/blueprint_128x128.png",
    "url_name": "dera_vandal_blueprint",
    "tradable": true,
    "part_of_set": [
        "56783f24cbfa8f0432dd8998",
        "56675652f9001cd2824a6825",
        "56675641f9001cd2824a6824",
        "56675652f9001cd2824a6826",
        "56675653f9001cd2824a6827"
    ],
    "set_root": false,
    "en": {
        "item_name": "Dera Vandal Blueprint",
        "description": "<p>The Dera Vandal is the Vandal version of the Dera assault rifle, offered as a possible reward to players who participated in the Operation: Tubemen of Regor Event, had Nef Anyo been victorious on PC or XB1. Its blueprint and components can also occur as Invasion rewards.</p>",
        "wiki_link": "http://warframe.wikia.com/wiki/Dera_Vandal",
        "drop": [
            {
                "name": "Invasions",
                "link": null
            }
        ]
    },
    "ru": {
        "item_name": "Дера вандал Чертеж",
        "description": "<p>Особая версия Деры, отличающаяся металлическим покрытием и символом Лотос.</p>",
        "wiki_link": "http://ru.warframe.wikia.com/wiki/%D0%94%D0%B5%D1%80%D0%B0_%D0%B2%D0%B0%D0%BD%D0%B4%D0%B0%D0%BB",
        "drop": [
            {
                "name": "Invasions",
                "link": null
            }
        ]
    },
    "ko": {
        "item_name": "데라 반달 설계도",
        "description": "<p>The Dera Vandal is the Vandal version of the Dera assault rifle, offered as a possible reward to players who participated in the Operation: Tubemen of Regor Event, had Nef Anyo been victorious on PC or XB1. Its blueprint and components can also occur as Invasion rewards.</p>",
        "wiki_link": "http://warframe.wikia.com/wiki/Dera_Vandal",
        "drop": [
            {
                "name": "Invasions",
                "link": null
            }
        ]
    },
    "trading_tax": 2000
}