{
    "_id": "566759c8db7c7a568a8d45c7",
    "tags": [
        "mod",
        "exilus",
        "rare"
    ],
    "icon": "icons/en/Endurance_Drift.7c38374c134f389eec209d13183fdde4.png",
    "thumb": "icons/en/thumbs/Endurance_Drift.7c38374c134f389eec209d13183fdde4.128x128.png",
    "icon_format": "port",
    "url_name": "endurance_drift",
    "tradable": true,
    "en": {
        "item_name": "Endurance Drift",
        "description": "<p>Endurance Drift is a rare dual-stat Exilus mod that increases Maximum Energy and parkour velocity.</p>",
        "wiki_link": "http://warframe.wikia.com/wiki/Endurance_Drift",
        "drop": [
            {
                "name": "Orokin Moon Test",
                "link": null
            }
        ]
    },
    "ru": {
        "item_name": "Стойкое течение",
        "description": "<p>Стойкое течение — эксилус мод для варфреймов, который увеличивает максимальное количество энергии и скорость паркура.</p>",
        "wiki_link": "http://ru.warframe.wikia.com/wiki/%D0%A1%D1%82%D0%BE%D0%B9%D0%BA%D0%BE%D0%B5_%D1%82%D0%B5%D1%87%D0%B5%D0%BD%D0%B8%D0%B5",
        "icon": "icons/ru/Endurance_Drift.68570de70e71f2718aff4dfba72764a0.png",
        "thumb": "icons/ru/thumbs/Endurance_Drift.68570de70e71f2718aff4dfba72764a0.128x128.png",
        "drop": [
            {
                "name": "Orokin Moon Test",
                "link": null
            }
        ]
    },
    "ko": {
        "item_name": "엔듀런스 드리프트",
        "description": "<p>Endurance Drift is a rare dual-stat Exilus mod that increases Maximum Energy and parkour velocity.</p>",
        "wiki_link": "http://warframe.wikia.com/wiki/Endurance_Drift",
        "drop": [
            {
                "name": "Orokin Moon Test",
                "link": null
            }
        ]
    },
    "rarity": "rare",
    "mod_max_rank": 5,
    "trading_tax": 8000
}