{
    "_id": "5ca28670fc2db2035eae05a1",
    "tags": [
        "prime",
        "parts",
        "chassis",
        "warframe"
    ],
    "icon": "icons/en/Equinox_Prime_Set.1163c3dad7a8ffce02af7d475fc0ccd4.png",
    "thumb": "icons/en/thumbs/Equinox_Prime_Set.1163c3dad7a8ffce02af7d475fc0ccd4.128x128.png",
    "icon_format": "port",
    "sub_icon": "sub_icons/chassis_128x128.png",
    "url_name": "equinox_prime_chassis",
    "tradable": true,
    "part_of_set": [
        "5ca28670fc2db2035eae059e",
        "5ca28670fc2db2035eae05a0",
        "5ca28670fc2db2035eae05a1",
        "5ca28670fc2db2035eae05a5",
        "5ca28670fc2db2035eae05a6"
    ],
    "set_root": false,
    "en": {
        "item_name": "Equinox Prime Chassis",
        "description": "<p>Release Date: April 2, 2019</p><p>Equinox Prime is the Primed variant of Equinox, possessing increased armor, health, and energy capacity over the regular counterpart.</p>",
        "wiki_link": "https://warframe.fandom.com/wiki/Equinox/Prime",
        "drop": [
            {
                "name": "Lith M4 Uncommon (25.3%)",
                "link": null
            }
        ]
    },
    "ru": {
        "item_name": "Эквинокс Прайм Каркас",
        "description": "<p>Release Date: April 2, 2019</p><p>Equinox Prime is the Primed variant of Equinox, possessing increased armor, health, and energy capacity over the regular counterpart.</p>",
        "wiki_link": "https://warframe.fandom.com/wiki/Equinox/Prime",
        "drop": [
            {
                "name": "Lith M4 Uncommon (25.3%)",
                "link": null
            }
        ]
    },
    "ko": {
        "item_name": "이쿼녹스 프라임 섀시",
        "description": "<p>Release Date: April 2, 2019</p><p>Equinox Prime is the Primed variant of Equinox, possessing increased armor, health, and energy capacity over the regular counterpart.</p>",
        "wiki_link": "https://warframe.fandom.com/wiki/Equinox/Prime",
        "drop": [
            {
                "name": "Lith M4 Uncommon (25.3%)",
                "link": null
            }
        ]
    },
    "ducats": 15,
    "trading_tax": 4000
}