{
    "_id": "56783f24cbfa8f0432dd899b",
    "tags": [
        "set",
        "prime"
    ],
    "icon": "icons/en/Fang_Prime_Set.13b0c690a76382d0fbdebe84e4c509db.png",
    "thumb": "icons/en/thumbs/Fang_Prime_Set.13b0c690a76382d0fbdebe84e4c509db.128x128.png",
    "icon_format": "land",
    "url_name": "fang_prime_set",
    "tradable": true,
    "part_of_set": [
        "56783f24cbfa8f0432dd899b",
        "54a73e65e779893a797fff40",
        "54a73e65e779893a797fff41",
        "54a73e65e779893a797fff42"
    ],
    "set_root": true,
    "en": {
        "item_name": "Fang Prime Set",
        "description": "<p>Fang Prime features a higher base damage than Fang as well as a faster attack speed. The Fang Prime was added into the game in Update 9.0. </p>",
        "wiki_link": "http://warframe.wikia.com/wiki/Fang_Prime",
        "drop": []
    },
    "ru": {
        "item_name": "Клыки прайм Комплект",
        "description": "<p>Набор ритуальных кинжалов из эры Орокин, Клыки Прайм сильно вибрирует с каждым ударом. Это позволяет им с легкостью пробивать любую броню.</p>",
        "wiki_link": "http://ru.warframe.wikia.com/wiki/%D0%9A%D0%BB%D1%8B%D0%BA%D0%B8_%D0%BF%D1%80%D0%B0%D0%B9%D0%BC/Прайм",
        "drop": []
    },
    "ko": {
        "item_name": "팽 프라임 세트",
        "description": "<p>Fang Prime features a higher base damage than Fang as well as a faster attack speed. The Fang Prime was added into the game in Update 9.0. </p>",
        "wiki_link": "http://warframe.wikia.com/wiki/Fang_Prime",
        "drop": []
    },
    "mastery_level": 0,
    "trading_tax": 2000
}