{
    "_id": "54e0c9eee7798903744178ae",
    "tags": [
        "mod",
        "pve",
        "rare"
    ],
    "icon": "icons/en/Fire_Fright.7cd71a53543fdc9c251338c76a3216b6.png",
    "thumb": "icons/en/thumbs/Fire_Fright.7cd71a53543fdc9c251338c76a3216b6.128x128.png",
    "icon_format": "port",
    "url_name": "fire_fright",
    "tradable": true,
    "en": {
        "item_name": "Fire Fright",
        "description": "<p>Fire Fright is a Warframe Augment Mod for Ember that adds a chance to cause enemies hit by the ring of fire to become panicked.</p>",
        "wiki_link": "http://warframe.wikia.com/wiki/Fire_Fright",
        "drop": [
            {
                "name": "Steel Meridian",
                "link": null
            },
            {
                "name": "Red Veil",
                "link": null
            }
        ]
    },
    "ru": {
        "item_name": "Огненный страх",
        "description": "<p>Огненный Страх — мод-аугмент для варфрейма Эмбер и Эмбер Прайм, улучшающий её способность Огненный Взрыв. Урон, нанесенный способностью, с некоторым шансом может напугать противника.</p>",
        "wiki_link": "http://ru.warframe.wikia.com/wiki/%D0%9E%D0%B3%D0%BD%D0%B5%D0%BD%D0%BD%D1%8B%D0%B9_%D1%81%D1%82%D1%80%D0%B0%D1%85",
        "icon": "icons/ru/Fire_Fright.ffc8abf810234d4a9cb397cb1846cea2.png",
        "thumb": "icons/ru/thumbs/Fire_Fright.ffc8abf810234d4a9cb397cb1846cea2.128x128.png",
        "drop": [
            {
                "name": "Steel Meridian",
                "link": null
            },
            {
                "name": "Red Veil",
                "link": null
            }
        ]
    },
    "ko": {
        "item_name": "파이어 프라이트",
        "description": "<p>Fire Fright is a Warframe Augment Mod for Ember that adds a chance to cause enemies hit by the ring of fire to become panicked.</p>",
        "wiki_link": "http://warframe.wikia.com/wiki/Fire_Fright",
        "drop": [
            {
                "name": "Steel Meridian",
                "link": null
            },
            {
                "name": "Red Veil",
                "link": null
            }
        ]
    },
    "rarity": "rare",
    "mod_max_rank": 3,
    "trading_tax": 8000
}