{
    "_id": "57c73be094b4b0f159ab5e15",
    "tags": [
        "mod",
        "warframe",
        "rare"
    ],
    "icon": "icons/en/Flash_Accelerant.5768923fddff345be036e464fdd71cc0.png",
    "thumb": "icons/en/thumbs/Flash_Accelerant.5768923fddff345be036e464fdd71cc0.128x128.png",
    "icon_format": "port",
    "url_name": "flash_accelerant",
    "tradable": true,
    "en": {
        "item_name": "Flash Accelerant",
        "description": "<p>Flash Accelerant is a Warframe Augment Mod for Ember that allows Accelerant to affect friendly players within range, increasing their casting speed and giving them bonus  Heat damage.</p>",
        "wiki_link": "http://warframe.wikia.com/wiki/Flash_Accelerant",
        "drop": []
    },
    "ru": {
        "item_name": "Молниеносный катализатор",
        "description": "<p>Молниеносный катализатор — мод-аугмент для варфрейма Эмбер и Эмбер прайм, улучшающий её способность катализатор. Применение катализатора также даст всем союзникам дополнительно 50%  огненного урона и увеличит скорость применения их способностей.</p>",
        "wiki_link": "http://ru.warframe.wikia.com/wiki/%D0%9C%D0%BE%D0%BB%D0%BD%D0%B8%D0%B5%D0%BD%D0%BE%D1%81%D0%BD%D1%8B%D0%B9_%D0%BA%D0%B0%D1%82%D0%B0%D0%BB%D0%B8%D0%B7%D0%B0%D1%82%D0%BE%D1%80",
        "icon": "icons/ru/Flash_Accelerant.d1f21c93fbddbd27e0d3a94a9909671b.png",
        "thumb": "icons/ru/thumbs/Flash_Accelerant.d1f21c93fbddbd27e0d3a94a9909671b.128x128.png",
        "drop": []
    },
    "ko": {
        "item_name": "플래쉬 엑셀러런트",
        "description": "<p>Flash Accelerant is a Warframe Augment Mod for Ember that allows Accelerant to affect friendly players within range, increasing their casting speed and giving them bonus  Heat damage.</p>",
        "wiki_link": "http://warframe.wikia.com/wiki/Flash_Accelerant",
        "drop": []
    },
    "rarity": "rare",
    "mod_max_rank": 3,
    "trading_tax": 8000
}