{
    "_id": "54a73e65e779893a797fff48",
    "tags": [
        "parts",
        "prime",
        "stars"
    ],
    "icon": "icons/en/Hikou_Prime_Set.cd5cefce60a4e85c15614139a8ee9400.png",
    "thumb": "icons/en/thumbs/Hikou_Prime_Set.cd5cefce60a4e85c15614139a8ee9400.128x128.png",
    "icon_format": "land",
    "sub_icon": "sub_icons/stars_128x128.png",
    "url_name": "hikou_prime_stars",
    "tradable": true,
    "part_of_set": [
        "56783f24cbfa8f0432dd899e",
        "54a73e65e779893a797fff46",
        "54a73e65e779893a797fff47",
        "54a73e65e779893a797fff48"
    ],
    "set_root": false,
    "en": {
        "item_name": "Hikou Prime Stars",
        "description": "<p>The Hikou Prime is the primed version of the Hikou throwing stars, released in Update 14.8.</p>",
        "wiki_link": "http://warframe.wikia.com/wiki/Hikou_Prime",
        "drop": [
            {
                "name": "Lith F2 Common",
                "link": null
            },
            {
                "name": "Neo N1 Common",
                "link": null
            }
        ]
    },
    "ru": {
        "item_name": "Хико прайм Сюрикены",
        "description": "<p>Так же смертельны, как пули, но без шума и хаоса.</p>",
        "wiki_link": "http://ru.warframe.wikia.com/wiki/%D0%A5%D0%B8%D0%BA%D0%BE_%D0%BF%D1%80%D0%B0%D0%B9%D0%BC/Прайм",
        "drop": [
            {
                "name": "Lith F2 Common",
                "link": null
            },
            {
                "name": "Neo N1 Common",
                "link": null
            }
        ]
    },
    "ko": {
        "item_name": "히코우 프라임 스타즈",
        "description": "<p>The Hikou Prime is the primed version of the Hikou throwing stars, released in Update 14.8.</p>",
        "wiki_link": "http://warframe.wikia.com/wiki/Hikou_Prime",
        "drop": [
            {
                "name": "Lith F2 Common",
                "link": null
            },
            {
                "name": "Neo N1 Common",
                "link": null
            }
        ]
    },
    "mastery_level": 4,
    "ducats": 15,
    "trading_tax": 2000
}