{
    "_id": "57dbdc825e334907aa8edb65",
    "tags": [
        "parts",
        "archwing",
        "harness"
    ],
    "icon": "icons/en/Itzal_Set.0010e4eeee847edd082019f488da2fc2.png",
    "thumb": "icons/en/thumbs/Itzal_Set.0010e4eeee847edd082019f488da2fc2.128x128.png",
    "icon_format": "land",
    "sub_icon": "sub_icons/harness_128x128.png",
    "url_name": "itzal_harness",
    "tradable": true,
    "part_of_set": [
        "57dbdc825e334907aa8edb66",
        "57dbdc825e334907aa8edb65",
        "57dbdc825e334907aa8edb63",
        "57dbdc825e334907aa8edb64"
    ],
    "set_root": false,
    "en": {
        "item_name": "Itzal Harness",
        "description": "<p>The Itzal is a stealth and support Archwing utilizing technologies that can hide it from enemy attention while it attacks with powerful disruptive abilities, sacrificing durability for a high amount of energy capacity.</p>",
        "wiki_link": "http://warframe.wikia.com/wiki/Itzal",
        "drop": []
    },
    "ru": {
        "item_name": "Итзал Упряжь",
        "description": "<p>Спроектированные для быстрых и скрытых атак, Арчвинг Итзал идеален для ударов из тьмы космоса.</p>",
        "wiki_link": "http://ru.warframe.wikia.com/wiki/%D0%98%D1%82%D0%B7%D0%B0%D0%BB",
        "drop": []
    },
    "ko": {
        "item_name": "잇잘 하네스",
        "description": "<p>The Itzal is a stealth and support Archwing utilizing technologies that can hide it from enemy attention while it attacks with powerful disruptive abilities, sacrificing durability for a high amount of energy capacity.</p>",
        "wiki_link": "http://warframe.wikia.com/wiki/Itzal",
        "drop": []
    },
    "trading_tax": 4000
}