{
    "_id": "5a311f85c2c9e90dfff475f6",
    "tags": [
        "parts",
        "prime",
        "gauntlet",
        "melee"
    ],
    "icon": "icons/en/Kogake_Prime_Set.456b865463108d6f6ff51da978f839cd.png",
    "thumb": "icons/en/thumbs/Kogake_Prime_Set.456b865463108d6f6ff51da978f839cd.128x128.png",
    "icon_format": "land",
    "sub_icon": "sub_icons/gauntlet_128x128.png",
    "url_name": "kogake_prime_gauntlet",
    "tradable": true,
    "part_of_set": [
        "5a311f84c2c9e90dfff475f0",
        "5a311f84c2c9e90dfff475e4",
        "5a311f84c2c9e90dfff475e5",
        "5a311f85c2c9e90dfff475f6"
    ],
    "set_root": false,
    "en": {
        "item_name": "Kogake Prime Gauntlet",
        "description": "<p>Kogake Prime are the Prime variant of the Kogake.</p>",
        "wiki_link": "http://warframe.wikia.com/wiki/Kogake_Prime",
        "drop": [
            {
                "name": "Meso K1 Rare",
                "link": null
            }
        ]
    },
    "ru": {
        "item_name": "Когаке Прайм Перчатка",
        "description": "<p>Отправьте врагов в золотой нокаут с помощью этого прайм оружия.</p>",
        "wiki_link": "http://ru.warframe.wikia.com/wiki/%D0%9A%D0%BE%D0%B3%D0%B0%D0%BA%D0%B5_%D0%9F%D1%80%D0%B0%D0%B9%D0%BC",
        "drop": [
            {
                "name": "Мезо K1 Редкая",
                "link": null
            }
        ]
    },
    "ko": {
        "item_name": "코가케 프라임 건틀렛",
        "description": "<p>Kogake Prime are the Prime variant of the Kogake.</p>",
        "wiki_link": "http://warframe.wikia.com/wiki/Kogake_Prime",
        "drop": [
            {
                "name": "Meso K1 Rare",
                "link": null
            }
        ]
    },
    "mastery_level": 10,
    "ducats": 100,
    "trading_tax": 2000
}