{
    "_id": "54a73e65e779893a797fff49",
    "tags": [
        "parts",
        "prime",
        "barrel"
    ],
    "icon": "icons/en/Latron_Prime_Set.5c8b8009acbdb97fd49177ba155ecfbe.png",
    "thumb": "icons/en/thumbs/Latron_Prime_Set.5c8b8009acbdb97fd49177ba155ecfbe.128x128.png",
    "icon_format": "land",
    "sub_icon": "sub_icons/barrel_128x128.png",
    "url_name": "latron_prime_barrel",
    "tradable": true,
    "part_of_set": [
        "56783f24cbfa8f0432dd89a1",
        "54a73e65e779893a797fff49",
        "54a73e65e779893a797fff4a",
        "54a73e65e779893a797fff4b",
        "54a73e65e779893a797fff4c"
    ],
    "set_root": false,
    "en": {
        "item_name": "Latron Prime Barrel",
        "description": "<p>The Latron Prime is an ancient Orokin semi-automatic rifle that serves as an upgrade to the Latron, that features higher base damage in the form of more  Puncture damage and critical chance. </p>",
        "wiki_link": "http://warframe.wikia.com/wiki/Latron_Prime",
        "drop": []
    },
    "ru": {
        "item_name": "Латрон прайм Ствол",
        "description": "<p>Искусно украшенный Латрон Прайм использует древнюю технологию Орокин, для небольшого увеличения наносимого урона, по сравнению со стандартным Латроном.</p>",
        "wiki_link": "http://ru.warframe.wikia.com/wiki/%D0%9B%D0%B0%D1%82%D1%80%D0%BE%D0%BD_%D0%BF%D1%80%D0%B0%D0%B9%D0%BC/Прайм",
        "drop": []
    },
    "ko": {
        "item_name": "래트론 프라임 배럴",
        "description": "<p>The Latron Prime is an ancient Orokin semi-automatic rifle that serves as an upgrade to the Latron, that features higher base damage in the form of more  Puncture damage and critical chance. </p>",
        "wiki_link": "http://warframe.wikia.com/wiki/Latron_Prime",
        "drop": []
    },
    "mastery_level": 10,
    "ducats": 15,
    "trading_tax": 2000
}