{
    "_id": "54a73e65e779893a797fff4d",
    "tags": [
        "parts",
        "prime",
        "barrel"
    ],
    "icon": "icons/en/Lex_Prime_Set.13776cf63dfd68968067b517184a6ac0.png",
    "thumb": "icons/en/thumbs/Lex_Prime_Set.13776cf63dfd68968067b517184a6ac0.128x128.png",
    "icon_format": "land",
    "sub_icon": "sub_icons/barrel_128x128.png",
    "url_name": "lex_prime_barrel",
    "tradable": true,
    "part_of_set": [
        "56783f24cbfa8f0432dd89a2",
        "54a73e65e779893a797fff4d",
        "54a73e65e779893a797fff4e",
        "54a73e65e779893a797fff4f"
    ],
    "set_root": false,
    "en": {
        "item_name": "Lex Prime Barrel",
        "description": "<p>The Lex Prime is the primed version of the Lex heavy pistol, featuring improved stats.</p>",
        "wiki_link": "http://warframe.wikia.com/wiki/Lex_Prime",
        "drop": [
            {
                "name": "Neo N3 Common",
                "link": null
            },
            {
                "name": "Neo S1 Common",
                "link": null
            },
            {
                "name": "Axi K1 Common",
                "link": null
            }
        ]
    },
    "ru": {
        "item_name": "Лекс прайм Ствол",
        "description": "<p>Лекс Прайм - это мощный и точный пистолет с низкой скорострельностью и малым размером обоймы. Очень эффективен на дальних дистанциях.</p>",
        "wiki_link": "http://ru.warframe.wikia.com/wiki/%D0%9B%D0%B5%D0%BA%D1%81_%D0%BF%D1%80%D0%B0%D0%B9%D0%BC/Прайм",
        "drop": [
            {
                "name": "Neo N3 Common",
                "link": null
            },
            {
                "name": "Neo S1 Common",
                "link": null
            },
            {
                "name": "Axi K1 Common",
                "link": null
            }
        ]
    },
    "ko": {
        "item_name": "렉스 프라임 배럴",
        "description": "<p>The Lex Prime is the primed version of the Lex heavy pistol, featuring improved stats.</p>",
        "wiki_link": "http://warframe.wikia.com/wiki/Lex_Prime",
        "drop": [
            {
                "name": "Neo N3 Common",
                "link": null
            },
            {
                "name": "Neo S1 Common",
                "link": null
            },
            {
                "name": "Axi K1 Common",
                "link": null
            }
        ]
    },
    "mastery_level": 8,
    "ducats": 15,
    "trading_tax": 2000
}