{
    "_id": "55c153bfe779895d7c52cd96",
    "tags": [
        "mod",
        "parkour",
        "rare"
    ],
    "icon": "icons/en/Lightning_Dash.12ae8ab9206050f20aec9ffcd8f83aeb.png",
    "thumb": "icons/en/thumbs/Lightning_Dash.12ae8ab9206050f20aec9ffcd8f83aeb.128x128.png",
    "icon_format": "port",
    "url_name": "lightning_dash",
    "tradable": true,
    "en": {
        "item_name": "Lightning Dash",
        "description": "<p>The Lightning Dash mod increases the speed of Bullet Jump, lengthens the duration of Aim Glide and Wall Latching, and adds  Electric damage to Bullet Jump.  </p>",
        "wiki_link": "http://warframe.wikia.com/wiki/Lightning_Dash",
        "drop": [
            {
                "name": "Sabotage ,Uranus",
                "link": null
            }
        ]
    },
    "ru": {
        "item_name": "Молниеносный бросок",
        "description": "<p>Молниеносный бросок — эксилус мод для варфреймов, который увеличивает скорость стремительного прыжка, длительность полета и фиксации на стене, также даёт бонусный  электрический урон стремительному прыжку.</p>",
        "wiki_link": "http://ru.warframe.wikia.com/wiki/%D0%9C%D0%BE%D0%BB%D0%BD%D0%B8%D0%B5%D0%BD%D0%BE%D1%81%D0%BD%D1%8B%D0%B9_%D0%B1%D1%80%D0%BE%D1%81%D0%BE%D0%BA",
        "icon": "icons/ru/Lightning_Dash.b76d9ef14109748858677a458e1078de.png",
        "thumb": "icons/ru/thumbs/Lightning_Dash.b76d9ef14109748858677a458e1078de.128x128.png",
        "drop": [
            {
                "name": "Sabotage ,Uranus",
                "link": null
            }
        ]
    },
    "ko": {
        "item_name": "라이트닝 대시",
        "description": "<p>The Lightning Dash mod increases the speed of Bullet Jump, lengthens the duration of Aim Glide and Wall Latching, and adds  Electric damage to Bullet Jump.  </p>",
        "wiki_link": "http://warframe.wikia.com/wiki/Lightning_Dash",
        "drop": [
            {
                "name": "Sabotage ,Uranus",
                "link": null
            }
        ]
    },
    "rarity": "rare",
    "mod_max_rank": 10,
    "trading_tax": 8000
}