{
    "_id": "54a73e65e779893a797fff70",
    "tags": [
        "blueprint",
        "prime",
        "neuroptics",
        "warframe"
    ],
    "icon": "icons/en/Loki_Prime_Set.abc05c280f92196bcb688643873fbf95.png",
    "thumb": "icons/en/thumbs/Loki_Prime_Set.abc05c280f92196bcb688643873fbf95.128x128.png",
    "icon_format": "port",
    "sub_icon": "sub_icons/neuroptics_128x128.png",
    "url_name": "loki_prime_neuroptics",
    "tradable": true,
    "part_of_set": [
        "56783f24cbfa8f0432dd89a3",
        "54a73e65e779893a797fff7c",
        "54a73e65e779893a797fff75",
        "54a73e65e779893a797fff70",
        "54a73e65e779893a797fff74"
    ],
    "set_root": false,
    "en": {
        "item_name": "Loki Prime Neuroptics",
        "description": "<p>Release Date: June 11th, 2014</p><p>Loki Prime is the Primed variant of the Loki. Featuring a higher energy capacity, as well as an additional polarities.</p>",
        "wiki_link": "http://warframe.wikia.com/wiki/Loki/Prime",
        "drop": []
    },
    "ru": {
        "item_name": "Локи Прайм Нейроптика",
        "description": "<p>Вносите смущение, обман и уничтожение в ряды противника при помощи Локи прайм. Имеет улучшенные ячейки поляризации для более расширенных возможностей.</p>",
        "wiki_link": "http://ru.warframe.wikia.com/wiki/%D0%9B%D0%BE%D0%BA%D0%B8/Прайм",
        "drop": []
    },
    "ko": {
        "item_name": "로키 프라임 뉴로옵틱스",
        "description": "<p>Release Date: June 11th, 2014</p><p>Loki Prime is the Primed variant of the Loki. Featuring a higher energy capacity, as well as an additional polarities.</p>",
        "wiki_link": "http://warframe.wikia.com/wiki/Loki/Prime",
        "drop": []
    },
    "ducats": 15,
    "trading_tax": 4000
}