{
    "_id": "54a73e65e779893a797fff82",
    "tags": [
        "blueprint",
        "prime",
        "warframe"
    ],
    "icon": "icons/en/Mag_Prime_Set.2afb45373319b966737bd91cf05a813c.png",
    "thumb": "icons/en/thumbs/Mag_Prime_Set.2afb45373319b966737bd91cf05a813c.128x128.png",
    "icon_format": "port",
    "sub_icon": "sub_icons/blueprint_128x128.png",
    "url_name": "mag_prime_blueprint",
    "tradable": true,
    "part_of_set": [
        "56783f24cbfa8f0432dd89a4",
        "54a73e65e779893a797fff82",
        "54a73e65e779893a797fff83",
        "54a73e65e779893a797fff6e",
        "54a73e65e779893a797fff7b"
    ],
    "set_root": false,
    "en": {
        "item_name": "Mag Prime Blueprint",
        "description": "<p>Release Date: September 13th, 2013</p><p>Mag Prime is the primed variant of the Mag Warframe featuring more powerful stats: possessing increased health, as well as an additional  polarity.</p>",
        "wiki_link": "http://warframe.wikia.com/wiki/Mag/Prime",
        "drop": [
            {
                "name": "Lith M1 Rare",
                "link": null
            }
        ]
    },
    "ru": {
        "item_name": "Мэг Прайм Чертеж",
        "description": "<p>Изящная Мэг прайм обладает теми же способностями, что и Мэг, но имеет уникальные полярности для больших возможностей улучшения.</p>",
        "wiki_link": "http://ru.warframe.wikia.com/wiki/%D0%9C%D1%8D%D0%B3/Прайм",
        "drop": [
            {
                "name": "Lith M1 Rare",
                "link": null
            }
        ]
    },
    "ko": {
        "item_name": "매그 프라임 설계도",
        "description": "<p>Release Date: September 13th, 2013</p><p>Mag Prime is the primed variant of the Mag Warframe featuring more powerful stats: possessing increased health, as well as an additional  polarity.</p>",
        "wiki_link": "http://warframe.wikia.com/wiki/Mag/Prime",
        "drop": [
            {
                "name": "Lith M1 Rare",
                "link": null
            }
        ]
    },
    "ducats": 100,
    "trading_tax": 4000
}