{
    "_id": "54a74454e779892d5e5155d3",
    "tags": [
        "mod",
        "pistol",
        "rare"
    ],
    "icon": "icons/en/Magnum_Force.fe3fe64c3f25669b162ebe177544ffff.png",
    "thumb": "icons/en/thumbs/Magnum_Force.fe3fe64c3f25669b162ebe177544ffff.128x128.png",
    "icon_format": "port",
    "url_name": "magnum_force",
    "tradable": true,
    "en": {
        "item_name": "Magnum Force",
        "description": "<p>Magnum Force increases damage of secondary weapons at the cost of reduced accuracy by 6% and -3% per rank, at a maximum of 66% and -33% at rank 10, respectively.</p>",
        "wiki_link": "http://warframe.wikia.com/wiki/Magnum_Force",
        "drop": [
            {
                "name": "Orokin Vault",
                "link": null
            }
        ]
    },
    "ru": {
        "item_name": "Магнум",
        "description": "<p>Магнум — повреждённый мод для вторичного оружия, который увеличивает урон, взамен уменьшая точность.</p>",
        "wiki_link": "http://ru.warframe.wikia.com/wiki/%D0%9C%D0%B0%D0%B3%D0%BD%D1%83%D0%BC",
        "icon": "icons/ru/Magnum_Force.9838e54ab6ada80e8af0218ace7c9860.png",
        "thumb": "icons/ru/thumbs/Magnum_Force.9838e54ab6ada80e8af0218ace7c9860.128x128.png",
        "drop": [
            {
                "name": "Orokin Vault",
                "link": null
            }
        ]
    },
    "ko": {
        "item_name": "매그넘 포스",
        "description": "<p>Magnum Force increases damage of secondary weapons at the cost of reduced accuracy by 6% and -3% per rank, at a maximum of 66% and -33% at rank 10, respectively.</p>",
        "wiki_link": "http://warframe.wikia.com/wiki/Magnum_Force",
        "drop": [
            {
                "name": "Orokin Vault",
                "link": null
            }
        ]
    },
    "rarity": "rare",
    "mod_max_rank": 10,
    "trading_tax": 8000
}