{
    "_id": "59385f6716efa3a742b15f5f",
    "tags": [
        "mod",
        "mag"
    ],
    "icon": "icons/en/Magnetized_Discharge.7d1a9ccf555181e42039f7f1c1ba26b0.png",
    "thumb": "icons/en/thumbs/Magnetized_Discharge.7d1a9ccf555181e42039f7f1c1ba26b0.128x128.png",
    "icon_format": "port",
    "url_name": "magnetized_discharge",
    "tradable": true,
    "en": {
        "item_name": "Magnetized Discharge",
        "description": "<p>Magnetized Discharge is a Warframe Augment Mod for Mag's Magnetize that allows manual detonation by recasting the ability on an active Magnetize bubble. Enemies hit by the detonation have a chance to be disarmed.</p>",
        "wiki_link": "http://warframe.wikia.com/wiki/Magnetized_Discharge",
        "drop": [
            {
                "name": "The Perrin Sequence",
                "link": null
            },
            {
                "name": "New Loka",
                "link": null
            }
        ]
    },
    "ru": {
        "item_name": "Намагниченное Разоружение",
        "description": "<p>Намагниченное Разоружение — мод-аугмент для Варфреймов Мэг и Мэг Прайм, улучшающий способность Намагничивание. При повторном использовании способности на противнике вызывает взрыв сферы намагничивания. Задетые взрывом противники имеют 50% шанс оказаться обезоруженными.</p>",
        "wiki_link": "http://ru.warframe.wikia.com/wiki/%D0%9D%D0%B0%D0%BC%D0%B0%D0%B3%D0%BD%D0%B8%D1%87%D0%B5%D0%BD%D0%BD%D0%BE%D0%B5_%D0%A0%D0%B0%D0%B7%D0%BE%D1%80%D1%83%D0%B6%D0%B5%D0%BD%D0%B8%D0%B5",
        "drop": [
            {
                "name": "The Perrin Sequence",
                "link": null
            },
            {
                "name": "New Loka",
                "link": null
            }
        ]
    },
    "ko": {
        "item_name": "마그네타이즈드 디스차지",
        "description": "<p>Magnetized Discharge is a Warframe Augment Mod for Mag's Magnetize that allows manual detonation by recasting the ability on an active Magnetize bubble. Enemies hit by the detonation have a chance to be disarmed.</p>",
        "wiki_link": "http://warframe.wikia.com/wiki/Magnetized_Discharge",
        "drop": [
            {
                "name": "The Perrin Sequence",
                "link": null
            },
            {
                "name": "New Loka",
                "link": null
            }
        ]
    },
    "rarity": "rare",
    "mod_max_rank": 3,
    "trading_tax": 8000
}