{
    "_id": "5c1bda2414a8e4006b1dada6",
    "tags": [
        "arcane enhancements",
        "operator"
    ],
    "icon": "icons/en/Magus_Destruct.5d566d3caf8a4d577f3316224757d24f.png",
    "thumb": "icons/en/thumbs/Magus_Destruct.5d566d3caf8a4d577f3316224757d24f.128x128.png",
    "icon_format": "land",
    "url_name": "magus_destruct",
    "tradable": true,
    "en": {
        "item_name": "Magus Destruct",
        "description": "<p>ON VOID BLAST: Reduce enemy resistance to Puncture Damage by 12/25/37/50%.</p>",
        "wiki_link": "http://warframe.wikia.com/wiki/Magus_Destruct",
        "drop": []
    },
    "ru": {
        "item_name": "Распад Волхва",
        "description": "<p>Распад Волхва - мистификатор для Оператора, который снижает сопротивление пронзающему урону противников задетых взрывом бездны.</p>",
        "wiki_link": "http://warframe.wikia.com/wiki/Magus_Destruct",
        "drop": []
    },
    "ko": {
        "item_name": "마구스 디스트럭트",
        "description": "<p>ON VOID BLAST: Reduce enemy resistance to Puncture Damage by 12/25/37/50%.</p>",
        "wiki_link": "http://warframe.wikia.com/wiki/Magus_Destruct",
        "drop": []
    },
    "mod_max_rank": 3
}