{
    "_id": "59a5cd4d5cd9938cfede7042",
    "tags": [
        "blueprint",
        "melee"
    ],
    "icon": "icons/en/Nami_Skyla_Prime_Set.d83bcdd72463d5dd1f78faea07ff02a4.png",
    "thumb": "icons/en/thumbs/Nami_Skyla_Prime_Set.d83bcdd72463d5dd1f78faea07ff02a4.128x128.png",
    "icon_format": "land",
    "sub_icon": "sub_icons/handle_128x128.png",
    "url_name": "nami_skyla_prime_handle",
    "tradable": true,
    "part_of_set": [
        "59a5c2565cd9938cfede7040",
        "59a5cd4d5cd9938cfede7041",
        "59a5c2565cd9938cfede703f",
        "59a5cd4d5cd9938cfede7042"
    ],
    "set_root": false,
    "en": {
        "item_name": "Nami Skyla Prime Handle",
        "description": "<p>The Nami Skyla Prime is the Prime variant to the Nami Skyla. It was released in Update 21.6 alongside Ballistica Prime and Hydroid Prime.</p>",
        "wiki_link": "http://warframe.wikia.com/wiki/Nami_Skyla_Prime",
        "drop": [
            {
                "name": "Lith H1 Uncommon",
                "link": null
            }
        ]
    },
    "ru": {
        "item_name": "Нами Скила Прайм Рукоять",
        "description": "<p>Выкованные забытым мастером, эти клинки - дар давно минувших золотых времен.</p>",
        "wiki_link": "http://ru.warframe.wikia.com/wiki/%D0%9D%D0%B0%D0%BC%D0%B8_%D0%A1%D0%BA%D0%B8%D0%BB%D0%B0_%D0%9F%D1%80%D0%B0%D0%B9%D0%BC",
        "drop": [
            {
                "name": "Lith H1 Uncommon",
                "link": null
            }
        ]
    },
    "ko": {
        "item_name": "나미 스카일라 프라임 핸들",
        "description": "<p>The Nami Skyla Prime is the Prime variant to the Nami Skyla. It was released in Update 21.6 alongside Ballistica Prime and Hydroid Prime.</p>",
        "wiki_link": "http://warframe.wikia.com/wiki/Nami_Skyla_Prime",
        "drop": [
            {
                "name": "Lith H1 Uncommon",
                "link": null
            }
        ]
    },
    "mastery_level": 11,
    "ducats": 45,
    "trading_tax": 2000
}