{
    "_id": "57bc9a40e506eb45ea251454",
    "tags": [
        "parts",
        "warframe",
        "systems",
        "prime"
    ],
    "icon": "icons/en/Nekros_Prime_Set.523943a15c82985ebe7cf14eac98966d.png",
    "thumb": "icons/en/thumbs/Nekros_Prime_Set.523943a15c82985ebe7cf14eac98966d.128x128.png",
    "icon_format": "port",
    "sub_icon": "sub_icons/systems_128x128.png",
    "url_name": "nekros_prime_systems",
    "tradable": true,
    "part_of_set": [
        "57bc9a40e506eb45ea251451",
        "57bcb14ce506eb45ea25145e",
        "57bc9a40e506eb45ea251452",
        "57bc9a40e506eb45ea251453",
        "57bc9a40e506eb45ea251454"
    ],
    "set_root": false,
    "en": {
        "item_name": "Nekros Prime Systems",
        "description": "<p>Release Date: August 23rd, 2016</p><p>Nekros Prime is the Prime variant of the Nekros Warframe featuring higher shields and power values, as well as an additional  polarity.</p>",
        "wiki_link": "http://warframe.wikia.com/wiki/Nekros/Prime",
        "drop": [
            {
                "name": "Lith N2 Rare",
                "link": null
            },
            {
                "name": "Meso N5 Rare",
                "link": null
            },
            {
                "name": "Neo N3 Rare",
                "link": null
            },
            {
                "name": "Neo N7 Rare ",
                "link": null
            }
        ]
    },
    "ru": {
        "item_name": "Некрос Прайм Система",
        "description": "<p>Некрос Прайм — легкобронированный и мобильный Варфрейм, управляющий тёмными силами, которые позволяют ему управлять как живыми, так и мёртвыми. Его способности позволяют вселять страх во врага, призывать павших противников, которые будут бороться на стороне Лотос mТэнно, или осквернять убитых, предоставляя команде дополнительную добычу.</p>",
        "wiki_link": "http://ru.warframe.wikia.com/wiki/%D0%9D%D0%B5%D0%BA%D1%80%D0%BE%D1%81",
        "drop": [
            {
                "name": "Lith N2 Rare",
                "link": null
            },
            {
                "name": "Meso N5 Rare",
                "link": null
            },
            {
                "name": "Neo N3 Rare",
                "link": null
            },
            {
                "name": "Neo N7 Rare ",
                "link": null
            }
        ]
    },
    "ko": {
        "item_name": "네크로스 프라임 시스템",
        "description": "<p>Release Date: August 23rd, 2016</p><p>Nekros Prime is the Prime variant of the Nekros Warframe featuring higher shields and power values, as well as an additional  polarity.</p>",
        "wiki_link": "http://warframe.wikia.com/wiki/Nekros/Prime",
        "drop": [
            {
                "name": "Lith N2 Rare",
                "link": null
            },
            {
                "name": "Meso N5 Rare",
                "link": null
            },
            {
                "name": "Neo N3 Rare",
                "link": null
            },
            {
                "name": "Neo N7 Rare ",
                "link": null
            }
        ]
    },
    "ducats": 100,
    "trading_tax": 4000
}