{
    "_id": "567872b29906166591f69aa1",
    "tags": [
        "set",
        "warframes",
        "warframe"
    ],
    "icon": "icons/en/Nezha_Set.9e1c2b7d93d860506cf7dad8643671fe.png",
    "thumb": "icons/en/thumbs/Nezha_Set.9e1c2b7d93d860506cf7dad8643671fe.128x128.png",
    "icon_format": "port",
    "url_name": "nezha_set",
    "tradable": false,
    "part_of_set": [
        "567872b29906166591f69aa1",
        "5678728f9906166591f69a9e",
        "567872979906166591f69a9f",
        "5678729f9906166591f69aa0"
    ],
    "set_root": true,
    "en": {
        "item_name": "Nezha Set",
        "description": "<p>Release Date: December 16, 2015.</p><p>Nezha invokes sacred fire and blazing weaponry to invigorate friends, ignite foes and insure himself from damage.</p>",
        "wiki_link": "http://warframe.wikia.com/wiki/Nezha",
        "drop": []
    },
    "ru": {
        "item_name": "Нэчжа Комплект",
        "description": "<p>Миниатюрный и игривый внешний вид скрывают за собой грозную силу этого Варфрейма</p>",
        "wiki_link": "http://ru.warframe.wikia.com/wiki/%D0%9D%D1%8D%D1%87%D0%B6%D0%B0",
        "drop": []
    },
    "ko": {
        "item_name": "나타 세트",
        "description": "<p>Release Date: December 16, 2015.</p><p>Nezha invokes sacred fire and blazing weaponry to invigorate friends, ignite foes and insure himself from damage.</p>",
        "wiki_link": "http://warframe.wikia.com/wiki/Nezha",
        "drop": []
    },
    "trading_tax": 4000
}