{
    "_id": "56c3bbf45d2f0202da32e941",
    "tags": [
        "parts",
        "blade",
        "prime"
    ],
    "icon": "icons/en/Nikana_Prime_Set.2daac0807a52385bfcf62f71075f2221.png",
    "thumb": "icons/en/thumbs/Nikana_Prime_Set.2daac0807a52385bfcf62f71075f2221.128x128.png",
    "icon_format": "land",
    "sub_icon": "sub_icons/blade_128x128.png",
    "url_name": "nikana_prime_blade",
    "tradable": true,
    "part_of_set": [
        "56c3bbfc5d2f0202da32e943",
        "56c3bbf45d2f0202da32e941",
        "56c3bbee5d2f0202da32e940",
        "56c3bbf85d2f0202da32e942"
    ],
    "set_root": false,
    "en": {
        "item_name": "Nikana Prime Blade",
        "description": "<p>The Nikana Prime is the primed version of the Nikana, added in Hotfix 18.4.12.</p>",
        "wiki_link": "http://warframe.wikia.com/wiki/Nikana_Prime",
        "drop": [
            {
                "name": "Meso V2 Rare",
                "link": null
            },
            {
                "name": "Neo N4 Rare",
                "link": null
            },
            {
                "name": "Meso N4 Rare",
                "link": null
            }
        ]
    },
    "ru": {
        "item_name": "Никана Прайм Клинок",
        "description": "<p>Древний клинок, предшествующий закату Империи Орокин. Используя техники ковки, утерянные на протяжении веков, лезвие удалось сделать острее, чем у любой современной никаны.</p>",
        "wiki_link": "http://ru.warframe.wikia.com/wiki/%D0%9D%D0%B8%D0%BA%D0%B0%D0%BD%D0%B0_%D0%BF%D1%80%D0%B0%D0%B9%D0%BC",
        "drop": [
            {
                "name": "Meso V2 Rare",
                "link": null
            },
            {
                "name": "Neo N4 Rare",
                "link": null
            },
            {
                "name": "Meso N4 Rare",
                "link": null
            }
        ]
    },
    "ko": {
        "item_name": "니카나 프라임 블레이드",
        "description": "<p>The Nikana Prime is the primed version of the Nikana, added in Hotfix 18.4.12.</p>",
        "wiki_link": "http://warframe.wikia.com/wiki/Nikana_Prime",
        "drop": [
            {
                "name": "Meso V2 Rare",
                "link": null
            },
            {
                "name": "Neo N4 Rare",
                "link": null
            },
            {
                "name": "Meso N4 Rare",
                "link": null
            }
        ]
    },
    "mastery_level": 0,
    "ducats": 65,
    "trading_tax": 2000
}