{
    "_id": "54a73e65e779893a797fff69",
    "tags": [
        "parts",
        "prime",
        "chassis",
        "warframe"
    ],
    "icon": "icons/en/Nova_Prime_Set.639a9222e1cb351cd6dd09ef28155ef0.png",
    "thumb": "icons/en/thumbs/Nova_Prime_Set.639a9222e1cb351cd6dd09ef28155ef0.128x128.png",
    "icon_format": "port",
    "sub_icon": "sub_icons/chassis_128x128.png",
    "url_name": "nova_prime_chassis",
    "tradable": true,
    "part_of_set": [
        "56783f24cbfa8f0432dd89a5",
        "54a73e65e779893a797fff6b",
        "54a73e65e779893a797fff69",
        "54a73e65e779893a797fff68",
        "54a73e65e779893a797fff6a"
    ],
    "set_root": false,
    "en": {
        "item_name": "Nova Prime Chassis",
        "description": "<p>Release Date: December 16, 2014</p><p>Nova Prime is the primed variant of the Nova Warframe featuring more powerful stats: possessing a higher energy capacity and shield capacity, as well as an additional  polarity. </p>",
        "wiki_link": "http://warframe.wikia.com/wiki/Nova_Prime_Chassis",
        "drop": [
            {
                "name": "Lith N1 Rare",
                "link": null
            },
            {
                "name": "Neo V1 Rare",
                "link": null
            }
        ]
    },
    "ru": {
        "item_name": "Нова Прайм Каркас",
        "description": "<p>Благодаря большему количеству щитов и энергии Нова прайм сможет более эффективнo использовать свои способности к управлению антиматерией.</p>",
        "wiki_link": "http://ru.warframe.wikia.com/wiki/%D0%9D%D0%BE%D0%B2%D0%B0/Прайм",
        "drop": [
            {
                "name": "Lith N1 Rare",
                "link": null
            },
            {
                "name": "Neo V1 Rare",
                "link": null
            }
        ]
    },
    "ko": {
        "item_name": "노바 프라임 섀시",
        "description": "<p>Release Date: December 16, 2014</p><p>Nova Prime is the primed variant of the Nova Warframe featuring more powerful stats: possessing a higher energy capacity and shield capacity, as well as an additional  polarity. </p>",
        "wiki_link": "http://warframe.wikia.com/wiki/Nova_Prime_Chassis",
        "drop": [
            {
                "name": "Lith N1 Rare",
                "link": null
            },
            {
                "name": "Neo V1 Rare",
                "link": null
            }
        ]
    },
    "ducats": 100,
    "trading_tax": 4000
}