{
    "_id": "54a73e65e779893a797fff72",
    "tags": [
        "blueprint",
        "prime",
        "warframe"
    ],
    "icon": "icons/en/Nyx_Prime_Set.fd41c04c9e9bcc7e0e6963914f68f880.png",
    "thumb": "icons/en/thumbs/Nyx_Prime_Set.fd41c04c9e9bcc7e0e6963914f68f880.128x128.png",
    "icon_format": "port",
    "sub_icon": "sub_icons/blueprint_128x128.png",
    "url_name": "nyx_prime_blueprint",
    "tradable": true,
    "part_of_set": [
        "56783f24cbfa8f0432dd89a6",
        "54a73e65e779893a797fff72",
        "54a73e65e779893a797fff73",
        "54a73e65e779893a797fff71",
        "54a73e65e779893a797fff76"
    ],
    "set_root": false,
    "en": {
        "item_name": "Nyx Prime Blueprint",
        "description": "<p>Release Date: September 23rd, 2014</p><p>Nyx Prime is the primed variant of the Nyx Warframe featuring more powerful stats: possessing higher armor, sprint speed and shield capacity, as well as an additional  polarity.</p>",
        "wiki_link": "http://warframe.wikia.com/wiki/Nyx/Prime",
        "drop": [
            {
                "name": "Lith S2 Common",
                "link": null
            },
            {
                "name": "Neo V1 Common",
                "link": null
            }
        ]
    },
    "ru": {
        "item_name": "Никс Прайм Чертеж",
        "description": "<p>Атакуйте разум ваших противников с Никс прайм. Обладает дополнительными слотами полярности для большей кастомизации.</p>",
        "wiki_link": "http://ru.warframe.wikia.com/wiki/%D0%9D%D0%B8%D0%BA%D1%81/Прайм",
        "drop": [
            {
                "name": "Lith S2 Common",
                "link": null
            },
            {
                "name": "Neo V1 Common",
                "link": null
            }
        ]
    },
    "ko": {
        "item_name": "닉스 프라임 설계도",
        "description": "<p>Release Date: September 23rd, 2014</p><p>Nyx Prime is the primed variant of the Nyx Warframe featuring more powerful stats: possessing higher armor, sprint speed and shield capacity, as well as an additional  polarity.</p>",
        "wiki_link": "http://warframe.wikia.com/wiki/Nyx/Prime",
        "drop": [
            {
                "name": "Lith S2 Common",
                "link": null
            },
            {
                "name": "Neo V1 Common",
                "link": null
            }
        ]
    },
    "ducats": 15,
    "trading_tax": 4000
}