{
    "_id": "5527a288e77989205f31e525",
    "tags": [
        "parts",
        "prime",
        "systems"
    ],
    "icon": "icons/en/Odonata_Prime_Set.9087f5267b49dee37c38d36f57387753.png",
    "thumb": "icons/en/thumbs/Odonata_Prime_Set.9087f5267b49dee37c38d36f57387753.128x128.png",
    "icon_format": "land",
    "sub_icon": "sub_icons/arch-system_128x128.png",
    "url_name": "odonata_prime_systems",
    "tradable": true,
    "part_of_set": [
        "56783f24cbfa8f0432dd89a7",
        "5527a26de77989205156b2b7",
        "5527a279e77989205639861f",
        "5527a288e77989205f31e525",
        "5527a280e779892059574ca9"
    ],
    "set_root": false,
    "en": {
        "item_name": "Odonata Prime Systems",
        "description": "<p>Release Date: March 24th, 2015</p><p>Comparisons:</p>",
        "wiki_link": "http://warframe.wikia.com/wiki/Odonata/Prime",
        "drop": [
            {
                "name": "Lith F2 Common",
                "link": null
            },
            {
                "name": "Neo N3 Common",
                "link": null
            },
            {
                "name": "Axi V1 Common",
                "link": null
            }
        ]
    },
    "ru": {
        "item_name": "Одоната Прайм Система",
        "description": "<p>Это улучшенная версия первого прототипа Арчвинга развивает свою конструкцию до ее теоретического предела.</p>",
        "wiki_link": "http://ru.warframe.wikia.com/wiki/%D0%9E%D0%B4%D0%BE%D0%BD%D0%B0%D1%82%D0%B0/Прайм",
        "drop": [
            {
                "name": "Lith F2 Common",
                "link": null
            },
            {
                "name": "Neo N3 Common",
                "link": null
            },
            {
                "name": "Axi V1 Common",
                "link": null
            }
        ]
    },
    "ko": {
        "item_name": "오도나타 프라임 시스템",
        "description": "<p>Release Date: March 24th, 2015</p><p>Comparisons:</p>",
        "wiki_link": "http://warframe.wikia.com/wiki/Odonata/Prime",
        "drop": [
            {
                "name": "Lith F2 Common",
                "link": null
            },
            {
                "name": "Neo N3 Common",
                "link": null
            },
            {
                "name": "Axi V1 Common",
                "link": null
            }
        ]
    },
    "ducats": 15,
    "trading_tax": 4000
}