{
    "_id": "54a73e65e779893a797fff50",
    "tags": [
        "parts",
        "prime",
        "blade"
    ],
    "icon": "icons/en/Orthos_Prime_Set.049c8584708b849d1eff500b182825f2.png",
    "thumb": "icons/en/thumbs/Orthos_Prime_Set.049c8584708b849d1eff500b182825f2.128x128.png",
    "icon_format": "land",
    "sub_icon": "sub_icons/blade_128x128.png",
    "url_name": "orthos_prime_blade",
    "tradable": true,
    "part_of_set": [
        "56783f24cbfa8f0432dd89a8",
        "54a73e65e779893a797fff50",
        "54a73e65e779893a797fff51",
        "54a73e65e779893a797fff52"
    ],
    "set_root": false,
    "en": {
        "item_name": "Orthos Prime Blade",
        "description": "<p>The Orthos Prime features a higher base damage, range, and attack speed than the Orthos. The Orthos Prime was added into the game in Update 9.</p>",
        "wiki_link": "http://warframe.wikia.com/wiki/Orthos_Prime",
        "drop": [
            {
                "name": "Meso D1 Uncommon",
                "link": null
            }
        ]
    },
    "ru": {
        "item_name": "Ортос прайм Клинок",
        "description": "<p>Ортос Прайм - древнее оружие ближнего боя Орокин, выкованное из чистейшего рубидия, что делает его крайне легким.</p>",
        "wiki_link": "http://ru.warframe.wikia.com/wiki/%D0%9E%D1%80%D1%82%D0%BE%D1%81_%D0%BF%D1%80%D0%B0%D0%B9%D0%BC/Прайм",
        "drop": [
            {
                "name": "Meso D1 Uncommon",
                "link": null
            }
        ]
    },
    "ko": {
        "item_name": "오르도스 프라임 블레이드",
        "description": "<p>The Orthos Prime features a higher base damage, range, and attack speed than the Orthos. The Orthos Prime was added into the game in Update 9.</p>",
        "wiki_link": "http://warframe.wikia.com/wiki/Orthos_Prime",
        "drop": [
            {
                "name": "Meso D1 Uncommon",
                "link": null
            }
        ]
    },
    "mastery_level": 2,
    "ducats": 45,
    "trading_tax": 2000
}