{
    "_id": "54dd276ee7798934e7afad13",
    "tags": [
        "void trader",
        "mod",
        "prime",
        "legendary"
    ],
    "icon": "icons/en/Primed_Pistol_Mutation.08b99794781324bdb93599b2e949d2c2.png",
    "thumb": "icons/en/thumbs/Primed_Pistol_Mutation.08b99794781324bdb93599b2e949d2c2.128x128.png",
    "icon_format": "port",
    "url_name": "primed_pistol_mutation",
    "tradable": true,
    "en": {
        "item_name": "Primed Pistol Mutation",
        "description": "<p>Primed Pistol Mutation is the Primed version of the Pistol Ammo Mutation mod for pistols, which converts any unused ammo type into Pistol Ammo, or Sniper Ammo in the case of most explosive sidearms. The affected pistol will only convert ammo while equipped, and will not convert any ammo type used by holstered primary weapons until their own ammo is full.</p>",
        "wiki_link": "http://warframe.wikia.com/wiki/Primed_Pistol_Mutation",
        "drop": [
            {
                "name": "Baro Ki'Teer",
                "link": null
            }
        ]
    },
    "ru": {
        "item_name": "Мутатор прайм: пистолет",
        "description": "<p>Мутатор прайм: пистолет  — легендарный мод для вторичного оружия, который превращает лишние подобранные патроны в патроны для вторичного оружия.</p>",
        "wiki_link": "http://ru.warframe.wikia.com/wiki/%D0%9C%D1%83%D1%82%D0%B0%D1%82%D0%BE%D1%80_%D0%BF%D1%80%D0%B0%D0%B9%D0%BC:_%D0%BF%D0%B8%D1%81%D1%82%D0%BE%D0%BB%D0%B5%D1%82",
        "icon": "icons/ru/Primed_Pistol_Mutation.2b4212001d3251cb42b2ed65c7e13359.png",
        "thumb": "icons/ru/thumbs/Primed_Pistol_Mutation.2b4212001d3251cb42b2ed65c7e13359.128x128.png",
        "drop": [
            {
                "name": "Baro Ki'Teer",
                "link": null
            }
        ]
    },
    "ko": {
        "item_name": "프라임드 피스톨 애모 뮤테이션",
        "description": "<p>Primed Pistol Mutation is the Primed version of the Pistol Ammo Mutation mod for pistols, which converts any unused ammo type into Pistol Ammo, or Sniper Ammo in the case of most explosive sidearms. The affected pistol will only convert ammo while equipped, and will not convert any ammo type used by holstered primary weapons until their own ammo is full.</p>",
        "wiki_link": "http://warframe.wikia.com/wiki/Primed_Pistol_Mutation",
        "drop": [
            {
                "name": "Baro Ki'Teer",
                "link": null
            }
        ]
    },
    "rarity": "legendary",
    "mod_max_rank": 10,
    "trading_tax": 1000000
}