{
    "_id": "55e76cf1e779890d4a67ee18",
    "tags": [
        "void trader",
        "melee",
        "special weapons"
    ],
    "icon": "icons/en/Prisma_Skana.84da73ea0e4ee4e1d75c9e2f4763d8bf.png",
    "thumb": "icons/en/thumbs/Prisma_Skana.84da73ea0e4ee4e1d75c9e2f4763d8bf.128x128.png",
    "icon_format": "land",
    "url_name": "prisma_skana",
    "tradable": true,
    "en": {
        "item_name": "Prisma Skana",
        "description": "<p>The Prisma Skana is a special Prisma version of the Skana longsword, featuring enhanced attack speed, critical chance and critical damage.</p>",
        "wiki_link": "http://warframe.wikia.com/wiki/Prisma_Skana",
        "drop": []
    },
    "ru": {
        "item_name": "Скана Призма",
        "description": "<p>Описание отсутствует</p>",
        "wiki_link": "http://ru.warframe.wikia.com/wiki/%D0%9F%D1%80%D0%B8%D0%B7%D0%BC%D0%B0",
        "drop": []
    },
    "ko": {
        "item_name": "프리즈마 스카나",
        "description": "<p>The Prisma Skana is a special Prisma version of the Skana longsword, featuring enhanced attack speed, critical chance and critical damage.</p>",
        "wiki_link": "http://warframe.wikia.com/wiki/Prisma_Skana",
        "drop": []
    },
    "trading_tax": 2000
}