{
    "_id": "55a46992e77989023be347fe",
    "tags": [
        "void trader",
        "special weapons"
    ],
    "icon": "icons/en/Prisma_Grakata.9a7efdc99822c298dc4ad06517450482.png",
    "thumb": "icons/en/thumbs/Prisma_Grakata.9a7efdc99822c298dc4ad06517450482.128x128.png",
    "icon_format": "land",
    "url_name": "prisma_grakata",
    "tradable": true,
    "en": {
        "item_name": "Prisma Grakata",
        "description": "<p>The Prisma Grakata is a Void Trader-exclusive variant of the Grakata assault rifle featuring a unique Prisma finish and enhanced stats.</p>",
        "wiki_link": "http://warframe.wikia.com/wiki/Prisma_Grakata",
        "drop": []
    },
    "ru": {
        "item_name": "Граката призма",
        "description": "<p>Заключённая в пластины, созданные из чистейших Призматических кристаллов, эта штурмовая винтовка стала ослепляюще блестеть.</p>",
        "wiki_link": "http://ru.warframe.wikia.com/wiki/%D0%93%D1%80%D0%B0%D0%BA%D0%B0%D1%82%D0%B0_%D0%BF%D1%80%D0%B8%D0%B7%D0%BC%D0%B0",
        "drop": []
    },
    "ko": {
        "item_name": "프리즈마 그라카타",
        "description": "<p>The Prisma Grakata is a Void Trader-exclusive variant of the Grakata assault rifle featuring a unique Prisma finish and enhanced stats.</p>",
        "wiki_link": "http://warframe.wikia.com/wiki/Prisma_Grakata",
        "drop": []
    },
    "trading_tax": 2000
}