{
    "_id": "5c1bd9fd14a8e4006b1dad50",
    "tags": [
        "mod"
    ],
    "icon": "icons/en/Quick_Reload.fa52a871aab9230ddcd58a85f37ad0a3.png",
    "thumb": "icons/en/thumbs/Quick_Reload.fa52a871aab9230ddcd58a85f37ad0a3.128x128.png",
    "icon_format": "port",
    "url_name": "quick_reload",
    "tradable": true,
    "en": {
        "item_name": "Quick Reload",
        "description": "<p>Quick Reload increases reload speed of Arch-guns by 25% per rank for a maximum of 100% at rank 3.</p>",
        "wiki_link": "https://warframe.fandom.com/wiki/Quick_Reload",
        "drop": []
    },
    "ru": {
        "item_name": "Быстрая Перезарядка",
        "description": "<p>Быстрая Перезарядка — необычный мод для основного оружия арчвинга, который увеличивает скорость перезарядки на 25% за ранг, до максимальных 100% на третьем ранге.</p>",
        "wiki_link": "https://warframe.fandom.com/ru/wiki/%D0%91%D1%8B%D1%81%D1%82%D1%80%D0%B0%D1%8F_%D0%9F%D0%B5%D1%80%D0%B5%D0%B7%D0%B0%D1%80%D1%8F%D0%B4%D0%BA%D0%B0",
        "icon": "icons/ru/Quick_Reload.33eaf3f2c57a0592dec40438c25e748e.png",
        "thumb": "icons/ru/thumbs/Quick_Reload.33eaf3f2c57a0592dec40438c25e748e.128x128.png",
        "drop": []
    },
    "ko": {
        "item_name": "퀵 리로드",
        "description": "<p>Quick Reload increases reload speed.</p>",
        "wiki_link": "https://warframe.fandom.com/wiki/Quick_Reload",
        "drop": []
    },
    "rarity": "uncommon",
    "mod_max_rank": 5,
    "trading_tax": 4000
}