{
    "_id": "5c196fae96037800ddadac16",
    "tags": [
        "parts",
        "prime",
        "blueprint"
    ],
    "icon": "icons/en/Redeemer_Prime_Set.92fcede37c1ab66d22a2287dc2334731.png",
    "thumb": "icons/en/thumbs/Redeemer_Prime_Set.92fcede37c1ab66d22a2287dc2334731.128x128.png",
    "icon_format": "land",
    "sub_icon": "sub_icons/blueprint_128x128.png",
    "url_name": "redeemer_prime_blueprint",
    "tradable": true,
    "part_of_set": [
        "5c196faf96037800ddadac17",
        "5c196fad96037800ddadac14",
        "5c196fae96037800ddadac16",
        "5c196fb096037800ddadac19"
    ],
    "set_root": false,
    "en": {
        "item_name": "Redeemer Prime Blueprint",
        "description": "<p>Redeemer Prime is the Primed variant of the Redeemer.</p>",
        "wiki_link": "https://warframe.fandom.com/wiki/Redeemer_Prime",
        "drop": [
            {
                "name": "Lith B6 Uncommon",
                "link": null
            }
        ]
    },
    "ru": {
        "item_name": "Избавитель Прайм Чертеж",
        "description": "<p>Наносящий удары массивными парными клинками, Избавитель также использует встроенный дробовик.</p>",
        "wiki_link": "https://warframe.fandom.com/ru/wiki/Избавитель_Прайм",
        "drop": [
            {
                "name": "Лит B6 Необычная",
                "link": null
            }
        ]
    },
    "ko": {
        "item_name": "리디머 프라임 설계도",
        "description": "<p>Redeemer Prime is the Primed variant of the Redeemer.</p>",
        "wiki_link": "https://warframe.fandom.com/wiki/Redeemer_Prime",
        "drop": [
            {
                "name": "Lith B6 Uncommon",
                "link": null
            }
        ]
    },
    "mastery_level": 10,
    "ducats": 45,
    "trading_tax": 2000
}