{
    "_id": "56c3bbea5d2f0202da32e93f",
    "tags": [
        "set",
        "prime",
        "warframe"
    ],
    "icon": "icons/en/Saryn_Prime_Set.394094bef0383f954bd38d622bb075e5.png",
    "thumb": "icons/en/thumbs/Saryn_Prime_Set.394094bef0383f954bd38d622bb075e5.128x128.png",
    "icon_format": "port",
    "url_name": "saryn_prime_set",
    "tradable": true,
    "part_of_set": [
        "56c3bbea5d2f0202da32e93f",
        "56c3bbd55d2f0202da32e93b",
        "56c3bbe45d2f0202da32e93e",
        "56c3bbdb5d2f0202da32e93c",
        "56c3bbe05d2f0202da32e93d"
    ],
    "set_root": true,
    "en": {
        "item_name": "Saryn Prime Set",
        "description": "<p>Release Date: February 16th, 2016</p><p>Saryn Prime is the primed variant of the Saryn Warframe featuring higher armor, sprint speed, and power values, as well as an additional  polarity.</p>",
        "wiki_link": "http://warframe.wikia.com/wiki/Saryn/Prime",
        "drop": []
    },
    "ru": {
        "item_name": "Сарина Прайм Комплект",
        "description": "<p>Золотой цветок, содержащий смертоносный нектар. Содержит измененные слоты поляризации для лучшей настройки.</p>",
        "wiki_link": "http://ru.warframe.wikia.com/wiki/%D0%A1%D0%B0%D1%80%D0%B8%D0%BD%D0%B0/%D0%9F%D1%80%D0%B0%D0%B9%D0%BC",
        "drop": []
    },
    "ko": {
        "item_name": "새린 프라임 세트",
        "description": "<p>Release Date: February 16th, 2016</p><p>Saryn Prime is the primed variant of the Saryn Warframe featuring higher armor, sprint speed, and power values, as well as an additional  polarity.</p>",
        "wiki_link": "http://warframe.wikia.com/wiki/Saryn/Prime",
        "drop": []
    },
    "trading_tax": 4000
}