{
    "_id": "54a73e65e779893a797fff5d",
    "tags": [
        "parts",
        "prime",
        "handle"
    ],
    "icon": "icons/en/Scindo_Prime_Set.ae70ac90b811a44f64263394b6410c28.png",
    "thumb": "icons/en/thumbs/Scindo_Prime_Set.ae70ac90b811a44f64263394b6410c28.128x128.png",
    "icon_format": "land",
    "sub_icon": "sub_icons/handle_128x128.png",
    "url_name": "scindo_prime_handle",
    "tradable": true,
    "part_of_set": [
        "56783f24cbfa8f0432dd89ac",
        "54a73e65e779893a797fff5b",
        "54a73e65e779893a797fff5c",
        "54a73e65e779893a797fff5d"
    ],
    "set_root": false,
    "en": {
        "item_name": "Scindo Prime Handle",
        "description": "<p>The primed version of the Scindo, the Scindo Prime offers improved overall statistics to the original, with increased damage, speed, critical chance, and status. Providing a formidable weapon surpassing the original, and many of its peers in the heavy blade category. Like the original, the Scindo Prime is also compatible with the Manticore skin, providing damage at the cost of speed.</p>",
        "wiki_link": "http://warframe.wikia.com/wiki/Scindo_Prime",
        "drop": [
            {
                "name": "Meso C1 Uncommon",
                "link": null
            }
        ]
    },
    "ru": {
        "item_name": "Сциндо прайм Рукоять",
        "description": "<p>Древнее оружие палачей, Сциндо Прайм, дающий гордое право на отсечение голов самым уважаемым врагам Орокин.</p>",
        "wiki_link": "http://ru.warframe.wikia.com/wiki/%D0%A1%D1%86%D0%B8%D0%BD%D0%B4%D0%BE_%D0%BF%D1%80%D0%B0%D0%B9%D0%BC/Прайм",
        "drop": [
            {
                "name": "Meso C1 Uncommon",
                "link": null
            }
        ]
    },
    "ko": {
        "item_name": "신도 프라임 핸들",
        "description": "<p>The primed version of the Scindo, the Scindo Prime offers improved overall statistics to the original, with increased damage, speed, critical chance, and status. Providing a formidable weapon surpassing the original, and many of its peers in the heavy blade category. Like the original, the Scindo Prime is also compatible with the Manticore skin, providing damage at the cost of speed.</p>",
        "wiki_link": "http://warframe.wikia.com/wiki/Scindo_Prime",
        "drop": [
            {
                "name": "Meso C1 Uncommon",
                "link": null
            }
        ]
    },
    "mastery_level": 4,
    "ducats": 45,
    "trading_tax": 2000
}