{
    "_id": "5ce7fd88d23a3b00908c4211",
    "tags": [
        "mod",
        "common"
    ],
    "icon": "icons/en/Shockwave_Actuators.b1a57a13302d02566aa2d64cce77bb7b.png",
    "thumb": "icons/en/thumbs/Shockwave_Actuators.b1a57a13302d02566aa2d64cce77bb7b.128x128.png",
    "icon_format": "port",
    "url_name": "shockwave_actuators",
    "tradable": true,
    "en": {
        "item_name": "Shockwave Actuators",
        "description": "<p>Readies a shockwave every 60s that knocks down nearby enemies.</p>",
        "drop": []
    },
    "ru": {
        "item_name": "Shockwave Actuators",
        "description": "<p>Readies a shockwave every 60s that knocks down nearby enemies.</p>",
        "drop": []
    },
    "ko": {
        "item_name": "Shockwave Actuators",
        "description": "<p>Readies a shockwave every 60s that knocks down nearby enemies.</p>",
        "drop": []
    },
    "rarity": "common",
    "mod_max_rank": 3,
    "trading_tax": 2000
}