{
    "_id": "54a73e65e779893a797fff5e",
    "tags": [
        "parts",
        "prime",
        "barrel"
    ],
    "icon": "icons/en/Sicarus_Prime_Set.e7c07172e6d63d49ae349d508c56fc85.png",
    "thumb": "icons/en/thumbs/Sicarus_Prime_Set.e7c07172e6d63d49ae349d508c56fc85.128x128.png",
    "icon_format": "land",
    "sub_icon": "sub_icons/barrel_128x128.png",
    "url_name": "sicarus_prime_barrel",
    "tradable": true,
    "part_of_set": [
        "56783f24cbfa8f0432dd89ad",
        "54a73e65e779893a797fff5e",
        "54a73e65e779893a797fff5f",
        "54a73e65e779893a797fff60"
    ],
    "set_root": false,
    "en": {
        "item_name": "Sicarus Prime Barrel",
        "description": "<p>The Sicarus Prime is an improved Sicarus that sacrifices nearly half of its  Impact damage to double  Puncture and  Slash damage, and also sports higher accuracy, faster fire rate, and a larger magazine compared to its predecessor.</p>",
        "wiki_link": "http://warframe.wikia.com/wiki/Sicarus_Prime",
        "drop": []
    },
    "ru": {
        "item_name": "Сикарус прайм Ствол",
        "description": "<p>Сикарус Прайм - искусно украшенный пистолет, ведущий огонь сериями по 3 выстрела, что обеспечивает баланс между убойной силой автоматических пистолетов и точностью полу-автоматических.</p>",
        "wiki_link": "http://ru.warframe.wikia.com/wiki/%D0%A1%D0%B8%D0%BA%D0%B0%D1%80%D1%83%D1%81_%D0%BF%D1%80%D0%B0%D0%B9%D0%BC/Прайм",
        "drop": []
    },
    "ko": {
        "item_name": "시카루스 프라임 배럴",
        "description": "<p>The Sicarus Prime is an improved Sicarus that sacrifices a small amount of its Impact damage to triple Puncture and Slash damage, and also sports higher accuracy, faster fire rate, and a larger magazine compared to its predecessor.</p>",
        "wiki_link": "http://warframe.wikia.com/wiki/Sicarus_Prime",
        "drop": []
    },
    "mastery_level": 14,
    "ducats": 15,
    "trading_tax": 2000
}