{
    "_id": "5ca28670fc2db2035eae05a3",
    "tags": [
        "parts",
        "prime",
        "receiver"
    ],
    "icon": "icons/en/Stradavar_Prime_Set.57c042a30996514288dfd70f2ce267ca.png",
    "thumb": "icons/en/thumbs/Stradavar_Prime_Set.57c042a30996514288dfd70f2ce267ca.128x128.png",
    "icon_format": "land",
    "sub_icon": "sub_icons/receiver_128x128.png",
    "url_name": "stradavar_prime_receiver",
    "tradable": true,
    "part_of_set": [
        "5ca2866ffc2db2035eae059c",
        "5ca2866ffc2db2035eae059b",
        "5ca28670fc2db2035eae05a3",
        "5ca28670fc2db2035eae05a4",
        "5ca28670fc2db2035eae05a7"
    ],
    "set_root": false,
    "en": {
        "item_name": "Stradavar Prime Receiver",
        "description": "<p>Never fail to call down a devastating finale.</p>",
        "wiki_link": "https://warframe.fandom.com/wiki/Stradavar_Prime",
        "drop": [
            {
                "name": "Meso Z3 Uncommon (25.3%)",
                "link": null
            }
        ]
    },
    "ru": {
        "item_name": "Страдавар Прайм Приемник",
        "description": "<p>Never fail to call down a devastating finale.</p>",
        "wiki_link": "https://warframe.fandom.com/wiki/Stradavar_Prime",
        "drop": [
            {
                "name": "Meso Z3 Uncommon (25.3%)",
                "link": null
            }
        ]
    },
    "ko": {
        "item_name": "스트라다바 프라임 리시버",
        "description": "<p>Never fail to call down a devastating finale.</p>",
        "wiki_link": "https://warframe.fandom.com/wiki/Stradavar_Prime",
        "drop": [
            {
                "name": "Meso Z3 Uncommon (25.3%)",
                "link": null
            }
        ]
    },
    "ducats": 15,
    "trading_tax": 2000
}