{
    "_id": "592dd262011e88f094afec84",
    "tags": [
        "blueprint",
        "assault rifle"
    ],
    "icon": "icons/en/Sybaris_Prime_Set.39d7dc4a904f7db7e7c78901976aa5fa.png",
    "thumb": "icons/en/thumbs/Sybaris_Prime_Set.39d7dc4a904f7db7e7c78901976aa5fa.128x128.png",
    "icon_format": "land",
    "sub_icon": "sub_icons/receiver_128x128.png",
    "url_name": "sybaris_prime_receiver",
    "tradable": true,
    "part_of_set": [
        "592dd262011e88f094afec86",
        "592dd262011e88f094afec85",
        "592dd262011e88f094afec82",
        "592dd262011e88f094afec84",
        "592dd262011e88f094afec83"
    ],
    "set_root": false,
    "en": {
        "item_name": "Sybaris Prime Receiver",
        "description": "<p>The Sybaris Prime is the Prime variant of the Sybaris burst-fire rifle. Released alongside Oberon Prime and Silva & Aegis Prime, it features the highest base damage of all the Sybaris variants and is geared towards inflicting Status Effects.</p>",
        "wiki_link": "http://warframe.wikia.com/wiki/Sybaris_Prime",
        "drop": [
            {
                "name": "Neo S7 Uncommon",
                "link": null
            },
            {
                "name": "Neo N6 Uncommon",
                "link": null
            }
        ]
    },
    "ru": {
        "item_name": "Сибарис Прайм Приемник",
        "description": "<p>Холеный и грациозный, золотой символ превосходства Тенно.</p>",
        "wiki_link": "http://ru.warframe.wikia.com/wiki/%D0%A1%D0%B8%D0%B1%D0%B0%D1%80%D0%B8%D1%81_%D0%9F%D1%80%D0%B0%D0%B9%D0%BC",
        "drop": [
            {
                "name": "Neo S7 Uncommon",
                "link": null
            },
            {
                "name": "Neo N6 Uncommon",
                "link": null
            }
        ]
    },
    "ko": {
        "item_name": "시바리스 프라임 리시버",
        "description": "<p>The Sybaris Prime is the Prime variant of the Sybaris burst-fire rifle. Released alongside Oberon Prime and Silva & Aegis Prime, it features the highest base damage of all the Sybaris variants and is geared towards inflicting Status Effects.</p>",
        "wiki_link": "http://warframe.wikia.com/wiki/Sybaris_Prime",
        "drop": [
            {
                "name": "Neo S7 Uncommon",
                "link": null
            },
            {
                "name": "Neo N6 Uncommon",
                "link": null
            }
        ]
    },
    "mastery_level": 12,
    "ducats": 45,
    "trading_tax": 2000
}