{
    "_id": "54aae283e779897f276a5768",
    "tags": [
        "syndicate",
        "special weapons"
    ],
    "icon": "icons/en/Synoid_Gammacor.16811422b2fab432718fd630acbf5358.png",
    "thumb": "icons/en/thumbs/Synoid_Gammacor.16811422b2fab432718fd630acbf5358.128x128.png",
    "icon_format": "land",
    "url_name": "synoid_gammacor",
    "tradable": true,
    "en": {
        "item_name": "Synoid Gammacor",
        "description": "<p>The Synoid Gammacor is an exclusive version of the Gammacor available only from Cephalon Suda, possessing better stats as well as innate Entropy effect.</p>",
        "wiki_link": "http://warframe.wikia.com/wiki/Synoid_Gammacor",
        "drop": []
    },
    "ru": {
        "item_name": "Синоидальный гаммакор",
        "description": "<p>Развертываемый Цефалоном Суда, этот разрушительный аналитический инструмент распыляет свою цель ради получения важных данных.</p>",
        "wiki_link": "http://ru.warframe.wikia.com/wiki/%D0%A1%D0%B8%D0%BD%D0%BE%D0%B8%D0%B4%D0%B0%D0%BB%D1%8C%D0%BD%D1%8B%D0%B9_%D0%B3%D0%B0%D0%BC%D0%BC%D0%B0%D0%BA%D0%BE%D1%80",
        "drop": []
    },
    "ko": {
        "item_name": "사이노이드 감마코어",
        "description": "<p>The Synoid Gammacor is an exclusive version of the Gammacor available only from Cephalon Suda, possessing better stats as well as innate Entropy effect.</p>",
        "wiki_link": "http://warframe.wikia.com/wiki/Synoid_Gammacor",
        "drop": []
    },
    "mastery_level": 6,
    "trading_tax": 2000
}