{
    "_id": "54a74454e779892d5e5155cd",
    "tags": [
        "mod",
        "pve",
        "rare"
    ],
    "icon": "icons/en/Target_Fixation.4651302c5910e67f10731cdde76ca53c.png",
    "thumb": "icons/en/thumbs/Target_Fixation.4651302c5910e67f10731cdde76ca53c.128x128.png",
    "icon_format": "port",
    "url_name": "target_fixation",
    "tradable": true,
    "en": {
        "item_name": "Target Fixation",
        "description": "<p>Target Fixation is a Warframe Augment Mod for Zephyr that increases Tail Wind's damage for every enemy hit while airborne.</p>",
        "wiki_link": "http://warframe.wikia.com/wiki/Target_Fixation",
        "drop": [
            {
                "name": "Red Veil",
                "link": null
            },
            {
                "name": "New Loka",
                "link": null
            }
        ]
    },
    "ru": {
        "item_name": "Target Fixation",
        "description": "<p>Target Fixation is a Warframe Augment Mod for Zephyr that increases Tail Wind's damage for every enemy hit while airborne.</p>",
        "wiki_link": "http://ru.warframe.wikia.com/wiki/%D0%9F%D0%B8%D0%BA%D0%B8%D1%80%D1%83%D1%8E%D1%89%D0%B0%D1%8F_%D0%B2%D0%BE%D1%80%D0%BE%D0%BD%D0%BA%D0%B0",
        "icon": "icons/ru/Target_Fixation.4651302c5910e67f10731cdde76ca53c.png",
        "thumb": "icons/ru/thumbs/Target_Fixation.4651302c5910e67f10731cdde76ca53c.128x128.png",
        "drop": [
            {
                "name": "Red Veil",
                "link": null
            },
            {
                "name": "New Loka",
                "link": null
            }
        ]
    },
    "ko": {
        "item_name": "타겟 픽세이션",
        "description": "<p>Target Fixation is a Warframe Augment Mod for Zephyr that increases Tail Wind's damage for every enemy hit while airborne.</p>",
        "wiki_link": "http://warframe.wikia.com/wiki/Target_Fixation",
        "drop": [
            {
                "name": "Red Veil",
                "link": null
            },
            {
                "name": "New Loka",
                "link": null
            }
        ]
    },
    "rarity": "rare",
    "mod_max_rank": 3,
    "trading_tax": 8000
}