{
    "_id": "54e0c9eee7798903744178ad",
    "tags": [
        "mod",
        "pve",
        "rare"
    ],
    "icon": "icons/en/Tidal_Impunity.0de8a5606c8a0b092f03f4033ac9cd73.png",
    "thumb": "icons/en/thumbs/Tidal_Impunity.0de8a5606c8a0b092f03f4033ac9cd73.128x128.png",
    "icon_format": "port",
    "url_name": "tidal_impunity",
    "tradable": true,
    "en": {
        "item_name": "Tidal Impunity",
        "description": "<p>Tidal Impunity is a Hydroid Warframe Augment Mod for Tidal Surge that allows Hydroid and all allies contacted by the ability to temporarily gain immunity to Status Effects, as well as removing already active ones.</p>",
        "wiki_link": "http://warframe.wikia.com/wiki/Tidal_Impunity",
        "drop": [
            {
                "name": "Cephalon Suda",
                "link": null
            },
            {
                "name": "New Loka",
                "link": null
            }
        ]
    },
    "ru": {
        "item_name": "Прилив безнаказанности",
        "description": "<p>Прилив Безнаказанности — мод-аугмент для варфрейма Гидроид, улучшающий его способность Приливная Волна. Союзники, попавшие в радиус действия способности, получают иммунитет к негативным статусам. Также способность аннулирует текущие негативные статусы на задетых союзниках. </p>",
        "wiki_link": "http://ru.warframe.wikia.com/wiki/%D0%9F%D1%80%D0%B8%D0%BB%D0%B8%D0%B2_%D0%B1%D0%B5%D0%B7%D0%BD%D0%B0%D0%BA%D0%B0%D0%B7%D0%B0%D0%BD%D0%BD%D0%BE%D1%81%D1%82%D0%B8",
        "icon": "icons/ru/Tidal_Impunity.3377fd72e0268031b2e4bc4342ea0822.png",
        "thumb": "icons/ru/thumbs/Tidal_Impunity.3377fd72e0268031b2e4bc4342ea0822.128x128.png",
        "drop": [
            {
                "name": "Cephalon Suda",
                "link": null
            },
            {
                "name": "New Loka",
                "link": null
            }
        ]
    },
    "ko": {
        "item_name": "타이달 임퓨너티",
        "description": "<p>Tidal Impunity is a Hydroid Warframe Augment Mod for Tidal Surge that allows Hydroid and all allies contacted by the ability to temporarily gain immunity to Status Effects, as well as removing already active ones.</p>",
        "wiki_link": "http://warframe.wikia.com/wiki/Tidal_Impunity",
        "drop": [
            {
                "name": "Cephalon Suda",
                "link": null
            },
            {
                "name": "New Loka",
                "link": null
            }
        ]
    },
    "rarity": "rare",
    "mod_max_rank": 3,
    "trading_tax": 8000
}