{
    "_id": "5ca28670fc2db2035eae059f",
    "tags": [
        "blueprint",
        "prime"
    ],
    "icon": "icons/en/Tipedo_Prime_Set.fd4fdcee6ab035eddce9a802ff091cfd.png",
    "thumb": "icons/en/thumbs/Tipedo_Prime_Set.fd4fdcee6ab035eddce9a802ff091cfd.128x128.png",
    "icon_format": "land",
    "sub_icon": "sub_icons/blueprint_128x128.png",
    "url_name": "tipedo_prime_blueprint",
    "tradable": true,
    "part_of_set": [
        "5ca28670fc2db2035eae05a2",
        "5ca2866ffc2db2035eae059a",
        "5ca28670fc2db2035eae059d",
        "5ca28670fc2db2035eae059f"
    ],
    "set_root": false,
    "en": {
        "item_name": "Tipedo Prime Blueprint",
        "description": "<p>Sever your foes with this lithe and lethal staff. </p>",
        "wiki_link": "https://warframe.fandom.com/wiki/Tipedo_Prime",
        "drop": [
            {
                "name": "Lith P2 Uncommon (25.3%)",
                "link": null
            }
        ]
    },
    "ru": {
        "item_name": "Типедо прайм Чертеж",
        "description": "<p>Sever your foes with this lithe and lethal staff. </p>",
        "wiki_link": "https://warframe.fandom.com/wiki/Tipedo_Prime",
        "drop": [
            {
                "name": "Lith P2 Uncommon (25.3%)",
                "link": null
            }
        ]
    },
    "ko": {
        "item_name": "티페도 프라임 설계도",
        "description": "<p>Sever your foes with this lithe and lethal staff. </p>",
        "wiki_link": "https://warframe.fandom.com/wiki/Tipedo_Prime",
        "drop": [
            {
                "name": "Lith P2 Uncommon (25.3%)",
                "link": null
            }
        ]
    },
    "ducats": 15,
    "trading_tax": 2000
}