{
    "_id": "58358a062c2ada0047b386f7",
    "tags": [
        "blueprint",
        "prime",
        "warframe"
    ],
    "icon": "icons/en/Valkyr_Prime_Set.a5c906d66a11ff70158f0ffad0c628e8.png",
    "thumb": "icons/en/thumbs/Valkyr_Prime_Set.a5c906d66a11ff70158f0ffad0c628e8.128x128.png",
    "icon_format": "port",
    "sub_icon": "sub_icons/neuroptics_128x128.png",
    "url_name": "valkyr_prime_neuroptics",
    "tradable": true,
    "part_of_set": [
        "58358a0e2c2ada0047b386fa",
        "583589fd2c2ada0047b386f6",
        "58358a092c2ada0047b386f8",
        "58358a062c2ada0047b386f7",
        "58358a0c2c2ada0047b386f9"
    ],
    "set_root": false,
    "en": {
        "item_name": "Valkyr Prime Neuroptics",
        "description": "<p>Release date: November 22nd, 2016</p><p>Valkyr Prime is the Prime variant of the Valkyr Warframe featuring higher armor and power values, as well as an additional Madurai Pol polarity.</p>",
        "wiki_link": "http://warframe.wikia.com/wiki/Valkyr/Prime",
        "drop": [
            {
                "name": "Meso C2 Uncommon",
                "link": null
            }
        ]
    },
    "ru": {
        "item_name": "Валькирия Прайм Нейроптика",
        "description": "<p>Варфрейм-берсеркер, ориентированный на быстрое и безжалостное уничтожение врагов. В её арсенале способностей есть всё необходимое, чтобы расправиться с противником как можно быстрей.</p>",
        "wiki_link": "http://ru.warframe.wikia.com/wiki/%D0%92%D0%B0%D0%BB%D1%8C%D0%BA%D0%B8%D1%80%D0%B8%D1%8F/Прайм",
        "drop": [
            {
                "name": "Meso C2 Uncommon",
                "link": null
            }
        ]
    },
    "ko": {
        "item_name": "발키르 프라임 뉴로옵틱스",
        "description": "<p>Release date: November 22nd, 2016</p><p>Valkyr Prime is the Prime variant of the Valkyr Warframe featuring higher armor and power values, as well as an additional Madurai Pol polarity.</p>",
        "wiki_link": "http://warframe.wikia.com/wiki/Valkyr/Prime",
        "drop": [
            {
                "name": "Meso C2 Uncommon",
                "link": null
            }
        ]
    },
    "ducats": 45,
    "trading_tax": 4000
}