{
    "_id": "54a73e65e779893a797fff66",
    "tags": [
        "blueprint",
        "prime"
    ],
    "icon": "icons/en/Vasto_Prime_Set.213e4b3b9b3be0f4facb77fd5242b6a4.png",
    "thumb": "icons/en/thumbs/Vasto_Prime_Set.213e4b3b9b3be0f4facb77fd5242b6a4.128x128.png",
    "icon_format": "land",
    "sub_icon": "sub_icons/blueprint_128x128.png",
    "url_name": "vasto_prime_blueprint",
    "tradable": true,
    "part_of_set": [
        "56783f24cbfa8f0432dd89b0",
        "54a73e65e779893a797fff65",
        "54a73e65e779893a797fff66",
        "54a73e65e779893a797fff67"
    ],
    "set_root": false,
    "en": {
        "item_name": "Vasto Prime Blueprint",
        "description": "<p>The primed version of the Vasto revolver, the Vasto Prime features enhanced damage over the original.</p>",
        "wiki_link": "http://warframe.wikia.com/wiki/Vasto_Prime",
        "drop": [
            {
                "name": "Neo S3 Uncommon",
                "link": null
            }
        ]
    },
    "ru": {
        "item_name": "Васто прайм Чертеж",
        "description": "<p>Этот элегантный скорострельный револьвер - само воплощение высшего мастерства Орокин.</p>",
        "wiki_link": "http://ru.warframe.wikia.com/wiki/%D0%92%D0%B0%D1%81%D1%82%D0%BE_%D0%BF%D1%80%D0%B0%D0%B9%D0%BC/Прайм",
        "drop": [
            {
                "name": "Neo S3 Uncommon",
                "link": null
            }
        ]
    },
    "ko": {
        "item_name": "바스토 프라임 설계도",
        "description": "<p>The primed version of the Vasto revolver, the Vasto Prime features enhanced damage over the original.</p>",
        "wiki_link": "http://warframe.wikia.com/wiki/Vasto_Prime",
        "drop": [
            {
                "name": "Neo S3 Uncommon",
                "link": null
            }
        ]
    },
    "mastery_level": 10,
    "ducats": 45,
    "trading_tax": 2000
}