{
    "_id": "56783f24cbfa8f0432dd89b2",
    "tags": [
        "set",
        "prime",
        "warframe"
    ],
    "icon": "icons/en/Volt_Prime_Set.9481daa3eb02aaec1108cdbeeaeea159.png",
    "thumb": "icons/en/thumbs/Volt_Prime_Set.9481daa3eb02aaec1108cdbeeaeea159.128x128.png",
    "icon_format": "port",
    "url_name": "volt_prime_set",
    "tradable": true,
    "part_of_set": [
        "56783f24cbfa8f0432dd89b2",
        "55244820e779890907ef6805",
        "55158cd9e7798915ee6bd13f",
        "55158cd0e7798915e9d64c1e",
        "55158ce0e7798915f4c95b78"
    ],
    "set_root": true,
    "en": {
        "item_name": "Volt Prime Set",
        "description": "<p>Release Date: March 24th, 2015</p><p>Volt Prime is the primed variant of the Volt Warframe featuring more powerful stats: possessing a higher energy capacity and armor, as well as an additional  polarity.</p>",
        "wiki_link": "http://warframe.wikia.com/wiki/Volt/Prime",
        "drop": []
    },
    "ru": {
        "item_name": "Вольт Прайм Комплект",
        "description": "<p>Вольт Прайм — легкобронированный Варфрейм, использующий электрические навыки, которые заставляют биться толпу врагов в конвульсиях. В арсенале Вольта Прайм также имеется пара вспомогательных способностей, позволяющие устроить себе надёжную защиту, или ускорить себя и своих союзников.</p>",
        "wiki_link": "http://ru.warframe.wikia.com/wiki/%D0%92%D0%BE%D0%BB%D1%8C%D1%82",
        "drop": []
    },
    "ko": {
        "item_name": "볼트 프라임 세트",
        "description": "<p>Release Date: March 24th, 2015</p><p>Volt Prime is the primed variant of the Volt Warframe featuring more powerful stats: possessing a higher energy capacity and armor, as well as an additional  polarity.</p>",
        "wiki_link": "http://warframe.wikia.com/wiki/Volt/Prime",
        "drop": []
    },
    "trading_tax": 4000
}