{
    "_id": "54ca4329e779891a21d036bd",
    "tags": [
        "parts",
        "prime",
        "cerebrum"
    ],
    "icon": "icons/en/Wyrm_Prime_Set.4da3da5cc8eeef554dc3208bbb5a8f26.png",
    "thumb": "icons/en/thumbs/Wyrm_Prime_Set.4da3da5cc8eeef554dc3208bbb5a8f26.128x128.png",
    "icon_format": "port",
    "sub_icon": "sub_icons/cerebrum_128x128.png",
    "url_name": "wyrm_prime_cerebrum",
    "tradable": true,
    "part_of_set": [
        "56783f24cbfa8f0432dd89b3",
        "54ca431ce779891a1adb4901",
        "54ca4330e779891a286a5428",
        "54ca4329e779891a21d036bd",
        "54ca4337e779891a2e3fbc83"
    ],
    "set_root": false,
    "en": {
        "item_name": "Wyrm Prime Cerebrum",
        "description": "<p>Wyrm Prime is the first Prime Sentinel, a version of Wyrm featuring Orokin styling and modified stats.</p>",
        "wiki_link": "http://warframe.wikia.com/wiki/Wyrm_Prime",
        "drop": []
    },
    "ru": {
        "item_name": "Вирм Прайм Мозг",
        "description": "<p>Одновременно и телохранитель, и символ статуса - Страж Вирм Прайм служил последней линией обороны высокопоставленных Тэнно Эры Орокин.</p>",
        "wiki_link": "http://ru.warframe.wikia.com/wiki/%D0%92%D0%B8%D1%80%D0%BC_%D0%9F%D1%80%D0%B0%D0%B9%D0%BC/Прайм",
        "drop": []
    },
    "ko": {
        "item_name": "웜 프라임 세레브럼",
        "description": "<p>Wyrm Prime is the first Prime Sentinel, a version of Wyrm featuring Orokin styling and modified stats.</p>",
        "wiki_link": "http://warframe.wikia.com/wiki/Wyrm_Prime",
        "drop": []
    },
    "ducats": 15,
    "trading_tax": 4000
}