{
    "_id": "5ab1570db2b6a8044d5137c4",
    "tags": [
        "blueprint",
        "warframe",
        "systems"
    ],
    "icon": "icons/en/Zephyr_Prime_Set.4ffc19dd100b3c182beef5f1ef3d337e.png",
    "thumb": "icons/en/thumbs/Zephyr_Prime_Set.4ffc19dd100b3c182beef5f1ef3d337e.128x128.png",
    "icon_format": "land",
    "sub_icon": "sub_icons/systems_128x128.png",
    "url_name": "zephyr_prime_systems",
    "tradable": true,
    "part_of_set": [
        "5ab1570db2b6a8044d5137c5",
        "5ab1570db2b6a8044d5137c1",
        "5ab1570db2b6a8044d5137c2",
        "5ab1570db2b6a8044d5137c3",
        "5ab1570db2b6a8044d5137c4"
    ],
    "set_root": false,
    "en": {
        "item_name": "Zephyr Prime Systems",
        "description": "<p>Release Date: March 20th, 2018</p><p>Zephyr Prime is the Primed variant of Zephyr, featuring higher armor, energy pool and sprint speed. It comes also with two extra polarities.</p>",
        "wiki_link": "http://warframe.wikia.com/wiki/Zephyr/Prime",
        "drop": [
            {
                "name": "Lith Z1 Rare",
                "link": null
            }
        ]
    },
    "ru": {
        "item_name": "Зефир Прайм Система",
        "description": "<p>Релиз: 20 Марта, 2018</p>",
        "wiki_link": "http://ru.warframe.wikia.com/wiki/%D0%97%D0%B5%D1%84%D0%B8%D1%80",
        "drop": [
            {
                "name": "Лит Z1 Редкая",
                "link": null
            }
        ]
    },
    "ko": {
        "item_name": "제피르 프라임 시스템",
        "description": "<p>Release Date: March 20th, 2018</p><p>Zephyr Prime is the Primed variant of Zephyr, featuring higher armor, energy pool and sprint speed. It comes also with two extra polarities.</p>",
        "wiki_link": "http://warframe.wikia.com/wiki/Zephyr/Prime",
        "drop": [
            {
                "name": "Lith Z1 Rare",
                "link": null
            }
        ]
    },
    "mastery_level": 6,
    "ducats": 100,
    "trading_tax": 4000
}