{
    "_id": "5c5ca81696e8d2003834fdae",
    "url_name": "akmagnus",
    "group": "secondary",
    "riven_type": "pistol",
    "icon": "icons/en/Akmagnus.71b5c604b03e3afd601d3d1ec5d116a3.png",
    "thumb": "icons/en/thumbs/Akmagnus.71b5c604b03e3afd601d3d1ec5d116a3.128x128.png",
    "icon_format": "land",
    "en": {
        "item_name": "Akmagnus",
        "wiki_link": "http://warframe.wikia.com/wiki/Akmagnus"
    },
    "ru": {
        "item_name": "Akmagnus",
        "wiki_link": "http://warframe.wikia.com/wiki/Akmagnus"
    },
    "ko": {
        "item_name": "Akmagnus",
        "wiki_link": "http://warframe.wikia.com/wiki/Akmagnus"
    }
}