{
    "_id": "5c5ca81696e8d2003834fdb2",
    "url_name": "akzani",
    "group": "secondary",
    "riven_type": "pistol",
    "icon": "icons/en/Akzani.cdef36c1271e3298d65d24b43646f1cf.png",
    "thumb": "icons/en/thumbs/Akzani.cdef36c1271e3298d65d24b43646f1cf.128x128.png",
    "icon_format": "land",
    "en": {
        "item_name": "Akzani",
        "wiki_link": "http://warframe.wikia.com/wiki/Akzani"
    },
    "ru": {
        "item_name": "Akzani",
        "wiki_link": "http://warframe.wikia.com/wiki/Akzani"
    },
    "ko": {
        "item_name": "Akzani",
        "wiki_link": "http://warframe.wikia.com/wiki/Akzani"
    }
}