{
    "_id": "5c5ca81696e8d2003834fdec",
    "url_name": "ankyros",
    "group": "melee",
    "riven_type": "melee",
    "icon": "icons/en/Ankyros.56404bf846a2eeea24245932f1897a30.png",
    "thumb": "icons/en/thumbs/Ankyros.56404bf846a2eeea24245932f1897a30.128x128.png",
    "icon_format": "land",
    "en": {
        "item_name": "Ankyros",
        "wiki_link": "http://warframe.wikia.com/wiki/Ankyros"
    },
    "ru": {
        "item_name": "Ankyros",
        "wiki_link": "http://warframe.wikia.com/wiki/Ankyros"
    },
    "ko": {
        "item_name": "Ankyros",
        "wiki_link": "http://warframe.wikia.com/wiki/Ankyros"
    }
}