{
    "_id": "5c5ca81696e8d2003834fd62",
    "url_name": "argonak",
    "group": "primary",
    "riven_type": "rifle",
    "icon": "icons/en/Argonak.0e4362cc212e9014437fac5308179bbf.png",
    "thumb": "icons/en/thumbs/Argonak.0e4362cc212e9014437fac5308179bbf.128x128.png",
    "icon_format": "land",
    "en": {
        "item_name": "Argonak",
        "wiki_link": "http://warframe.wikia.com/wiki/Argonak"
    },
    "ru": {
        "item_name": "Argonak",
        "wiki_link": "http://warframe.wikia.com/wiki/Argonak"
    },
    "ko": {
        "item_name": "Argonak",
        "wiki_link": "http://warframe.wikia.com/wiki/Argonak"
    }
}