{
    "_id": "5c5ca81696e8d2003834fdef",
    "url_name": "balla",
    "group": "zaw",
    "riven_type": "zaw",
    "icon": "icons/en/balla.9e49720865f76d3a6b591ad2712a3afb.png",
    "thumb": "icons/en/thumbs/balla.9e49720865f76d3a6b591ad2712a3afb.128x128.png",
    "icon_format": "land",
    "en": {
        "item_name": "Balla",
        "wiki_link": "http://warframe.wikia.com/wiki/Balla"
    },
    "ru": {
        "item_name": "Balla",
        "wiki_link": "http://warframe.wikia.com/wiki/Balla"
    },
    "ko": {
        "item_name": "Balla",
        "wiki_link": "http://warframe.wikia.com/wiki/Balla"
    }
}