{
    "_id": "5c5ca81696e8d2003834fdf0",
    "url_name": "bo",
    "group": "melee",
    "riven_type": "melee",
    "icon": "icons/en/Bo.52ac556f0b623ced5cc7e489a7c6d060.png",
    "thumb": "icons/en/thumbs/Bo.52ac556f0b623ced5cc7e489a7c6d060.128x128.png",
    "icon_format": "land",
    "en": {
        "item_name": "Bo",
        "wiki_link": "http://warframe.wikia.com/wiki/Bo"
    },
    "ru": {
        "item_name": "Bo",
        "wiki_link": "http://warframe.wikia.com/wiki/Bo"
    },
    "ko": {
        "item_name": "Bo",
        "wiki_link": "http://warframe.wikia.com/wiki/Bo"
    }
}