{
    "_id": "5c5ca81696e8d2003834fdb9",
    "url_name": "brakk",
    "group": "secondary",
    "riven_type": "shotgun",
    "icon": "icons/en/Brakk.db24dd1bc4fe5bba11129bbbfc9de5b7.png",
    "thumb": "icons/en/thumbs/Brakk.db24dd1bc4fe5bba11129bbbfc9de5b7.128x128.png",
    "icon_format": "land",
    "en": {
        "item_name": "Brakk",
        "wiki_link": "http://warframe.wikia.com/wiki/Brakk"
    },
    "ru": {
        "item_name": "Brakk",
        "wiki_link": "http://warframe.wikia.com/wiki/Brakk"
    },
    "ko": {
        "item_name": "Brakk",
        "wiki_link": "http://warframe.wikia.com/wiki/Brakk"
    }
}