{
    "_id": "5c5ca81696e8d2003834fdf3",
    "url_name": "broken_war",
    "group": "melee",
    "riven_type": "melee",
    "icon": "icons/en/Broken_War.a42d7af24d80abea602d631293f89b13.png",
    "thumb": "icons/en/thumbs/Broken_War.a42d7af24d80abea602d631293f89b13.128x128.png",
    "icon_format": "land",
    "en": {
        "item_name": "Broken War",
        "wiki_link": "http://warframe.wikia.com/wiki/Broken_War"
    },
    "ru": {
        "item_name": "Broken War",
        "wiki_link": "http://warframe.wikia.com/wiki/Broken_War"
    },
    "ko": {
        "item_name": "Broken War",
        "wiki_link": "http://warframe.wikia.com/wiki/Broken_War"
    }
}