{
    "group": "kitgun",
    "riven_type": "kitgun",
    "icon": "remote://https://vignette.wikia.nocookie.net/warframe/images/7/7d/KitgunChamberCatchmoon.png/revision/latest?cb=20181110154407",
    "icon_format": "land",
    "en": {
        "item_name": "Catchmoon",
        "wiki_link": "https://warframe.fandom.com/wiki/Catchmoon"
    },
    "ru": {
        "item_name": "Catchmoon",
        "wiki_link": "https://warframe.fandom.com/wiki/Catchmoon"
    },
    "ko": {
        "item_name": "Catchmoon",
        "wiki_link": "https://warframe.fandom.com/wiki/Catchmoon"
    }
}