{
    "_id": "5c5ca81696e8d2003834fd6d",
    "url_name": "corinth",
    "group": "primary",
    "riven_type": "shotgun",
    "icon": "icons/en/Corinth.d3c3b9f0691274447741420233159434.png",
    "thumb": "icons/en/thumbs/Corinth.d3c3b9f0691274447741420233159434.128x128.png",
    "icon_format": "land",
    "en": {
        "item_name": "Corinth",
        "wiki_link": "http://warframe.wikia.com/wiki/Corinth"
    },
    "ru": {
        "item_name": "Corinth",
        "wiki_link": "http://warframe.wikia.com/wiki/Corinth"
    },
    "ko": {
        "item_name": "Corinth",
        "wiki_link": "http://warframe.wikia.com/wiki/Corinth"
    }
}