{
    "_id": "5c5ca81696e8d2003834fdf8",
    "url_name": "cronus",
    "group": "melee",
    "riven_type": "melee",
    "icon": "icons/en/Cronus.d4db525b858b592658dd5d02631a3980.png",
    "thumb": "icons/en/thumbs/Cronus.d4db525b858b592658dd5d02631a3980.128x128.png",
    "icon_format": "land",
    "en": {
        "item_name": "Cronus",
        "wiki_link": "http://warframe.wikia.com/wiki/Cronus"
    },
    "ru": {
        "item_name": "Cronus",
        "wiki_link": "http://warframe.wikia.com/wiki/Cronus"
    },
    "ko": {
        "item_name": "Cronus",
        "wiki_link": "http://warframe.wikia.com/wiki/Cronus"
    }
}