{
    "_id": "5c5ca81696e8d2003834fdbf",
    "url_name": "detron",
    "group": "secondary",
    "riven_type": "shotgun",
    "icon": "icons/en/Detron.0d820dd8bfa6d4a9369456594232e0b6.png",
    "thumb": "icons/en/thumbs/Detron.0d820dd8bfa6d4a9369456594232e0b6.128x128.png",
    "icon_format": "land",
    "en": {
        "item_name": "Detron",
        "wiki_link": "http://warframe.wikia.com/wiki/Detron"
    },
    "ru": {
        "item_name": "Detron",
        "wiki_link": "http://warframe.wikia.com/wiki/Detron"
    },
    "ko": {
        "item_name": "Detron",
        "wiki_link": "http://warframe.wikia.com/wiki/Detron"
    }
}