{
    "_id": "5c5ca81696e8d2003834fe00",
    "url_name": "dex_dakra",
    "group": "melee",
    "riven_type": "melee",
    "icon": "icons/en/Dex_Dakra.bfa2fbc9398fd0db61a295f4bcff715d.png",
    "thumb": "icons/en/thumbs/Dex_Dakra.bfa2fbc9398fd0db61a295f4bcff715d.128x128.png",
    "icon_format": "land",
    "en": {
        "item_name": "Dex Dakra",
        "wiki_link": "http://warframe.wikia.com/wiki/Dex_Dakra"
    },
    "ru": {
        "item_name": "Dex Dakra",
        "wiki_link": "http://warframe.wikia.com/wiki/Dex_Dakra"
    },
    "ko": {
        "item_name": "Dex Dakra",
        "wiki_link": "http://warframe.wikia.com/wiki/Dex_Dakra"
    }
}