{
    "_id": "5c5ca81696e8d2003834fe09",
    "url_name": "dual_raza",
    "group": "melee",
    "riven_type": "melee",
    "icon": "icons/en/Dual_Raza.36dfb4b0a9c567d3cb8505501381b62b.png",
    "thumb": "icons/en/thumbs/Dual_Raza.36dfb4b0a9c567d3cb8505501381b62b.128x128.png",
    "icon_format": "land",
    "en": {
        "item_name": "Dual Raza",
        "wiki_link": "http://warframe.wikia.com/wiki/Dual_Raza"
    },
    "ru": {
        "item_name": "Dual Raza",
        "wiki_link": "http://warframe.wikia.com/wiki/Dual_Raza"
    },
    "ko": {
        "item_name": "Dual Raza",
        "wiki_link": "http://warframe.wikia.com/wiki/Dual_Raza"
    }
}