{
    "_id": "5c5ca81696e8d2003834fe04",
    "url_name": "dual_ether",
    "group": "melee",
    "riven_type": "melee",
    "icon": "icons/en/Dual_Ether.76eed372396b220772844d5bcd98dd32.png",
    "thumb": "icons/en/thumbs/Dual_Ether.76eed372396b220772844d5bcd98dd32.128x128.png",
    "icon_format": "land",
    "en": {
        "item_name": "Dual Ether",
        "wiki_link": "http://warframe.wikia.com/wiki/Dual_Ether"
    },
    "ru": {
        "item_name": "Dual Ether",
        "wiki_link": "http://warframe.wikia.com/wiki/Dual_Ether"
    },
    "ko": {
        "item_name": "Dual Ether",
        "wiki_link": "http://warframe.wikia.com/wiki/Dual_Ether"
    }
}