{
    "_id": "5c5ca81696e8d2003834fe03",
    "url_name": "dual_cleavers",
    "group": "melee",
    "riven_type": "melee",
    "icon": "icons/en/Dual_Cleavers.8a35247f1557f4974b6a06c7fe9a5431.png",
    "thumb": "icons/en/thumbs/Dual_Cleavers.8a35247f1557f4974b6a06c7fe9a5431.128x128.png",
    "icon_format": "land",
    "en": {
        "item_name": "Dual Cleavers",
        "wiki_link": "http://warframe.wikia.com/wiki/Dual_Cleavers"
    },
    "ru": {
        "item_name": "Dual Cleavers",
        "wiki_link": "http://warframe.wikia.com/wiki/Dual_Cleavers"
    },
    "ko": {
        "item_name": "Dual Cleavers",
        "wiki_link": "http://warframe.wikia.com/wiki/Dual_Cleavers"
    }
}