{
    "_id": "5c5ca81696e8d2003834fd72",
    "url_name": "ferrox",
    "group": "primary",
    "riven_type": "rifle",
    "icon": "icons/en/Ferrox.7c1a4dd7a7d6a132023bf37416fca797.png",
    "thumb": "icons/en/thumbs/Ferrox.7c1a4dd7a7d6a132023bf37416fca797.128x128.png",
    "icon_format": "land",
    "en": {
        "item_name": "Ferrox",
        "wiki_link": "http://warframe.wikia.com/wiki/Ferrox"
    },
    "ru": {
        "item_name": "Ferrox",
        "wiki_link": "http://warframe.wikia.com/wiki/Ferrox"
    },
    "ko": {
        "item_name": "Ferrox",
        "wiki_link": "http://warframe.wikia.com/wiki/Ferrox"
    }
}