{
    "_id": "5c5ca81696e8d2003834fdc4",
    "url_name": "furis",
    "group": "secondary",
    "riven_type": "pistol",
    "icon": "icons/en/Furis.f2d9baed7db3eb0b5c9659ecee5cebe2.png",
    "thumb": "icons/en/thumbs/Furis.f2d9baed7db3eb0b5c9659ecee5cebe2.128x128.png",
    "icon_format": "land",
    "en": {
        "item_name": "Furis",
        "wiki_link": "http://warframe.wikia.com/wiki/Furis"
    },
    "ru": {
        "item_name": "Furis",
        "wiki_link": "http://warframe.wikia.com/wiki/Furis"
    },
    "ko": {
        "item_name": "Furis",
        "wiki_link": "http://warframe.wikia.com/wiki/Furis"
    }
}