{
    "_id": "5c5ca81696e8d2003834fdc5",
    "url_name": "fusilai",
    "group": "secondary",
    "riven_type": "pistol",
    "icon": "icons/en/Fusilai.6d3e92128a4480a679b19549a23983e4.png",
    "thumb": "icons/en/thumbs/Fusilai.6d3e92128a4480a679b19549a23983e4.128x128.png",
    "icon_format": "land",
    "en": {
        "item_name": "Fusilai",
        "wiki_link": "http://warframe.wikia.com/wiki/Fusilai"
    },
    "ru": {
        "item_name": "Fusilai",
        "wiki_link": "http://warframe.wikia.com/wiki/Fusilai"
    },
    "ko": {
        "item_name": "Fusilai",
        "wiki_link": "http://warframe.wikia.com/wiki/Fusilai"
    }
}