{
    "group": "kitgun",
    "riven_type": "kitgun",
    "icon": "remote://https://vignette.wikia.nocookie.net/warframe/images/d/d1/KitgunChamberGaze.png/revision/latest/scale-to-width-down/350?cb=20181110154438",
    "icon_format": "land",
    "en": {
        "item_name": "Gaze",
        "wiki_link": "https://warframe.fandom.com/wiki/Gaze"
    },
    "ru": {
        "item_name": "Gaze",
        "wiki_link": "https://warframe.fandom.com/wiki/Gaze"
    },
    "ko": {
        "item_name": "Gaze",
        "wiki_link": "https://warframe.fandom.com/wiki/Gaze"
    }
}