{
    "_id": "5c5ca81696e8d2003834fe15",
    "url_name": "glaive",
    "group": "melee",
    "riven_type": "melee",
    "icon": "icons/en/Glaive.615e4802901bc16c296c114b345742df.png",
    "thumb": "icons/en/thumbs/Glaive.615e4802901bc16c296c114b345742df.128x128.png",
    "icon_format": "port",
    "en": {
        "item_name": "Glaive",
        "wiki_link": "http://warframe.wikia.com/wiki/Glaive"
    },
    "ru": {
        "item_name": "Glaive",
        "wiki_link": "http://warframe.wikia.com/wiki/Glaive"
    },
    "ko": {
        "item_name": "Glaive",
        "wiki_link": "http://warframe.wikia.com/wiki/Glaive"
    }
}