{
    "_id": "5c5ca81696e8d2003834fd77",
    "url_name": "grinlok",
    "group": "primary",
    "riven_type": "rifle",
    "icon": "icons/en/Grinlok.952cf4a203a6e1d49a0284ffa51979cf.png",
    "thumb": "icons/en/thumbs/Grinlok.952cf4a203a6e1d49a0284ffa51979cf.128x128.png",
    "icon_format": "land",
    "en": {
        "item_name": "Grinlok",
        "wiki_link": "http://warframe.wikia.com/wiki/Grinlok"
    },
    "ru": {
        "item_name": "Grinlok",
        "wiki_link": "http://warframe.wikia.com/wiki/Grinlok"
    },
    "ko": {
        "item_name": "Grinlok",
        "wiki_link": "http://warframe.wikia.com/wiki/Grinlok"
    }
}