{
    "_id": "5c5ca81696e8d2003834fe17",
    "url_name": "guandao",
    "group": "melee",
    "riven_type": "melee",
    "icon": "icons/en/Guandao.68b20f3b44eb7bf103ed74b7a6219966.png",
    "thumb": "icons/en/thumbs/Guandao.68b20f3b44eb7bf103ed74b7a6219966.128x128.png",
    "icon_format": "land",
    "en": {
        "item_name": "Guandao",
        "wiki_link": "http://warframe.wikia.com/wiki/Guandao"
    },
    "ru": {
        "item_name": "Guandao",
        "wiki_link": "http://warframe.wikia.com/wiki/Guandao"
    },
    "ko": {
        "item_name": "Guandao",
        "wiki_link": "http://warframe.wikia.com/wiki/Guandao"
    }
}