{
    "_id": "5c5ca81696e8d2003834fd78",
    "url_name": "harpak",
    "group": "primary",
    "riven_type": "rifle",
    "icon": "icons/en/Harpak.3233446dc479bb58cd37629d10c15d09.png",
    "thumb": "icons/en/thumbs/Harpak.3233446dc479bb58cd37629d10c15d09.128x128.png",
    "icon_format": "land",
    "en": {
        "item_name": "Harpak",
        "wiki_link": "http://warframe.wikia.com/wiki/Harpak"
    },
    "ru": {
        "item_name": "Harpak",
        "wiki_link": "http://warframe.wikia.com/wiki/Harpak"
    },
    "ko": {
        "item_name": "Harpak",
        "wiki_link": "http://warframe.wikia.com/wiki/Harpak"
    }
}