{
    "_id": "5c5ca81696e8d2003834fe1a",
    "url_name": "hate",
    "group": "melee",
    "riven_type": "melee",
    "icon": "icons/en/Hate.1e4354f5dbd630a1809478ea19ca740d.png",
    "thumb": "icons/en/thumbs/Hate.1e4354f5dbd630a1809478ea19ca740d.128x128.png",
    "icon_format": "land",
    "en": {
        "item_name": "Hate",
        "wiki_link": "http://warframe.wikia.com/wiki/Hate"
    },
    "ru": {
        "item_name": "Hate",
        "wiki_link": "http://warframe.wikia.com/wiki/Hate"
    },
    "ko": {
        "item_name": "Hate",
        "wiki_link": "http://warframe.wikia.com/wiki/Hate"
    }
}