{
    "_id": "5c5ca81696e8d2003834fe1b",
    "url_name": "heat_dagger",
    "group": "melee",
    "riven_type": "melee",
    "icon": "icons/en/Heat_Dagger.1284a42f3ca7d49b6e1dc11a96559bc8.png",
    "thumb": "icons/en/thumbs/Heat_Dagger.1284a42f3ca7d49b6e1dc11a96559bc8.128x128.png",
    "icon_format": "land",
    "en": {
        "item_name": "Heat Dagger",
        "wiki_link": "http://warframe.wikia.com/wiki/Heat_Dagger"
    },
    "ru": {
        "item_name": "Heat Dagger",
        "wiki_link": "http://warframe.wikia.com/wiki/Heat_Dagger"
    },
    "ko": {
        "item_name": "Heat Dagger",
        "wiki_link": "http://warframe.wikia.com/wiki/Heat_Dagger"
    }
}