{
    "_id": "5c5ca81696e8d2003834fd7c",
    "url_name": "ignis",
    "group": "primary",
    "riven_type": "rifle",
    "icon": "icons/en/Ignis.bc03b802b5c108c920c8208339dc5a32.png",
    "thumb": "icons/en/thumbs/Ignis.bc03b802b5c108c920c8208339dc5a32.128x128.png",
    "icon_format": "land",
    "en": {
        "item_name": "Ignis",
        "wiki_link": "http://warframe.wikia.com/wiki/Ignis"
    },
    "ru": {
        "item_name": "Ignis",
        "wiki_link": "http://warframe.wikia.com/wiki/Ignis"
    },
    "ko": {
        "item_name": "Ignis",
        "wiki_link": "http://warframe.wikia.com/wiki/Ignis"
    }
}