{
    "_id": "5c5ca81696e8d2003834fe25",
    "url_name": "kestrel",
    "group": "melee",
    "riven_type": "melee",
    "icon": "icons/en/Kestrel.6486807517934177d97c300326ff0c10.png",
    "thumb": "icons/en/thumbs/Kestrel.6486807517934177d97c300326ff0c10.128x128.png",
    "icon_format": "land",
    "en": {
        "item_name": "Kestrel",
        "wiki_link": "http://warframe.wikia.com/wiki/Kestrel"
    },
    "ru": {
        "item_name": "Kestrel",
        "wiki_link": "http://warframe.wikia.com/wiki/Kestrel"
    },
    "ko": {
        "item_name": "Kestrel",
        "wiki_link": "http://warframe.wikia.com/wiki/Kestrel"
    }
}