{
    "_id": "5c5ca81696e8d2003834fdc9",
    "url_name": "knell",
    "group": "secondary",
    "riven_type": "pistol",
    "icon": "icons/en/Knell.4aad8a8c660cca1bba14b109dcadec2e.png",
    "thumb": "icons/en/thumbs/Knell.4aad8a8c660cca1bba14b109dcadec2e.128x128.png",
    "icon_format": "land",
    "en": {
        "item_name": "Knell",
        "wiki_link": "http://warframe.wikia.com/wiki/Knell"
    },
    "ru": {
        "item_name": "Knell",
        "wiki_link": "http://warframe.wikia.com/wiki/Knell"
    },
    "ko": {
        "item_name": "Knell",
        "wiki_link": "http://warframe.wikia.com/wiki/Knell"
    }
}