{
    "_id": "5c5ca81696e8d2003834fe29",
    "url_name": "kronsh",
    "group": "zaw",
    "riven_type": "zaw",
    "icon": "icons/en/Kronsh.affe607fb84379769f756a2409cbf0b6.png",
    "thumb": "icons/en/thumbs/Kronsh.affe607fb84379769f756a2409cbf0b6.128x128.png",
    "icon_format": "land",
    "en": {
        "item_name": "Kronsh",
        "wiki_link": "http://warframe.wikia.com/wiki/Kronsh"
    },
    "ru": {
        "item_name": "Kronsh",
        "wiki_link": "http://warframe.wikia.com/wiki/Kronsh"
    },
    "ko": {
        "item_name": "Kronsh",
        "wiki_link": "http://warframe.wikia.com/wiki/Kronsh"
    }
}