{
    "_id": "5c5ca81696e8d2003834fe5f",
    "url_name": "laser_rifle",
    "group": "sentinel",
    "riven_type": "rifle",
    "icon": "icons/en/Laser_Rifle.1be6c8b6ae0b5d7067871992fac7cfdd.png",
    "thumb": "icons/en/thumbs/Laser_Rifle.1be6c8b6ae0b5d7067871992fac7cfdd.128x128.png",
    "icon_format": "land",
    "en": {
        "item_name": "Laser Rifle",
        "wiki_link": "http://warframe.wikia.com/wiki/Laser_Rifle"
    },
    "ru": {
        "item_name": "Laser Rifle",
        "wiki_link": "http://warframe.wikia.com/wiki/Laser_Rifle"
    },
    "ko": {
        "item_name": "Laser Rifle",
        "wiki_link": "http://warframe.wikia.com/wiki/Laser_Rifle"
    }
}