{
    "_id": "5c5ca81696e8d2003834fe2b",
    "url_name": "lecta",
    "group": "melee",
    "riven_type": "melee",
    "icon": "icons/en/Lecta.d6de28d017ed55fc6f5ee90db6e2c621.png",
    "thumb": "icons/en/thumbs/Lecta.d6de28d017ed55fc6f5ee90db6e2c621.128x128.png",
    "icon_format": "land",
    "en": {
        "item_name": "Lecta",
        "wiki_link": "http://warframe.wikia.com/wiki/Lecta"
    },
    "ru": {
        "item_name": "Lecta",
        "wiki_link": "http://warframe.wikia.com/wiki/Lecta"
    },
    "ko": {
        "item_name": "Lecta",
        "wiki_link": "http://warframe.wikia.com/wiki/Lecta"
    }
}