{
    "_id": "5c5ca81696e8d2003834fe2d",
    "url_name": "machete",
    "group": "melee",
    "riven_type": "melee",
    "icon": "icons/en/Machete.b871c145d37c3fdde5715fe80524101f.png",
    "thumb": "icons/en/thumbs/Machete.b871c145d37c3fdde5715fe80524101f.128x128.png",
    "icon_format": "land",
    "en": {
        "item_name": "Machete",
        "wiki_link": "http://warframe.wikia.com/wiki/Machete"
    },
    "ru": {
        "item_name": "Machete",
        "wiki_link": "http://warframe.wikia.com/wiki/Machete"
    },
    "ko": {
        "item_name": "Machete",
        "wiki_link": "http://warframe.wikia.com/wiki/Machete"
    }
}