{
    "_id": "5c5ca81696e8d2003834fdd0",
    "url_name": "magnus",
    "group": "secondary",
    "riven_type": "pistol",
    "icon": "icons/en/Magnus.25f6050dc34973f444d1c6ea54487d5e.png",
    "thumb": "icons/en/thumbs/Magnus.25f6050dc34973f444d1c6ea54487d5e.128x128.png",
    "icon_format": "land",
    "en": {
        "item_name": "Magnus",
        "wiki_link": "http://warframe.wikia.com/wiki/Magnus"
    },
    "ru": {
        "item_name": "Magnus",
        "wiki_link": "http://warframe.wikia.com/wiki/Magnus"
    },
    "ko": {
        "item_name": "Magnus",
        "wiki_link": "http://warframe.wikia.com/wiki/Magnus"
    }
}