{
    "_id": "5c5ca81696e8d2003834fe32",
    "url_name": "nami_skyla",
    "group": "melee",
    "riven_type": "melee",
    "icon": "icons/en/Nami_Skyla.29176d53b6ce46afda32cdc292b391ad.png",
    "thumb": "icons/en/thumbs/Nami_Skyla.29176d53b6ce46afda32cdc292b391ad.128x128.png",
    "icon_format": "land",
    "en": {
        "item_name": "Nami Skyla",
        "wiki_link": "http://warframe.wikia.com/wiki/Nami_Skyla"
    },
    "ru": {
        "item_name": "Nami Skyla",
        "wiki_link": "http://warframe.wikia.com/wiki/Nami_Skyla"
    },
    "ko": {
        "item_name": "Nami Skyla",
        "wiki_link": "http://warframe.wikia.com/wiki/Nami_Skyla"
    }
}