{
    "_id": "5c5ca81696e8d2003834fe35",
    "url_name": "ninkondi",
    "group": "melee",
    "riven_type": "melee",
    "icon": "icons/en/Ninkondi.390943b9c551749e19d348e2e8950ae1.png",
    "thumb": "icons/en/thumbs/Ninkondi.390943b9c551749e19d348e2e8950ae1.128x128.png",
    "icon_format": "land",
    "en": {
        "item_name": "Ninkondi",
        "wiki_link": "http://warframe.wikia.com/wiki/Ninkondi"
    },
    "ru": {
        "item_name": "Ninkondi",
        "wiki_link": "http://warframe.wikia.com/wiki/Ninkondi"
    },
    "ko": {
        "item_name": "Ninkondi",
        "wiki_link": "http://warframe.wikia.com/wiki/Ninkondi"
    }
}