{
    "_id": "5c5ca81696e8d2003834fe37",
    "url_name": "ohma",
    "group": "melee",
    "riven_type": "melee",
    "icon": "icons/en/Ohma.9d358c212edf0b764b5a3fe83c75229f.png",
    "thumb": "icons/en/thumbs/Ohma.9d358c212edf0b764b5a3fe83c75229f.128x128.png",
    "icon_format": "land",
    "en": {
        "item_name": "Ohma",
        "wiki_link": "http://warframe.wikia.com/wiki/Ohma"
    },
    "ru": {
        "item_name": "Ohma",
        "wiki_link": "http://warframe.wikia.com/wiki/Ohma"
    },
    "ko": {
        "item_name": "Ohma",
        "wiki_link": "http://warframe.wikia.com/wiki/Ohma"
    }
}