{
    "_id": "5c5ca81696e8d2003834fe38",
    "url_name": "okina",
    "group": "melee",
    "riven_type": "melee",
    "icon": "icons/en/Okina.46be8af0b880aa60168c0988ad64ea19.png",
    "thumb": "icons/en/thumbs/Okina.46be8af0b880aa60168c0988ad64ea19.128x128.png",
    "icon_format": "land",
    "en": {
        "item_name": "Okina",
        "wiki_link": "http://warframe.wikia.com/wiki/Okina"
    },
    "ru": {
        "item_name": "Okina",
        "wiki_link": "http://warframe.wikia.com/wiki/Okina"
    },
    "ko": {
        "item_name": "Okina",
        "wiki_link": "http://warframe.wikia.com/wiki/Okina"
    }
}