{
    "_id": "5c5ca81696e8d2003834fdd3",
    "url_name": "pandero",
    "group": "secondary",
    "riven_type": "pistol",
    "icon": "icons/en/Pandero.6e8f3481da27c3082804f19118fc3dd3.png",
    "thumb": "icons/en/thumbs/Pandero.6e8f3481da27c3082804f19118fc3dd3.128x128.png",
    "icon_format": "land",
    "en": {
        "item_name": "Pandero",
        "wiki_link": "http://warframe.wikia.com/wiki/Pandero"
    },
    "ru": {
        "item_name": "Pandero",
        "wiki_link": "http://warframe.wikia.com/wiki/Pandero"
    },
    "ko": {
        "item_name": "Pandero",
        "wiki_link": "http://warframe.wikia.com/wiki/Pandero"
    }
}