{
    "_id": "5c5ca81696e8d2003834fe3e",
    "url_name": "plague_kripath",
    "group": "zaw",
    "riven_type": "zaw",
    "icon": "icons/en/Plague_Kripath.00191263224f5e5d1ed7957631073fa6.png",
    "thumb": "icons/en/thumbs/Plague_Kripath.00191263224f5e5d1ed7957631073fa6.128x128.png",
    "icon_format": "land",
    "en": {
        "item_name": "Plague Kripath",
        "wiki_link": "http://warframe.wikia.com/wiki/Plague_Kripath"
    },
    "ru": {
        "item_name": "Plague Kripath",
        "wiki_link": "http://warframe.wikia.com/wiki/Plague_Kripath"
    },
    "ko": {
        "item_name": "Plague Kripath",
        "wiki_link": "http://warframe.wikia.com/wiki/Plague_Kripath"
    }
}