{
    "_id": "5c5ca81696e8d2003834fe40",
    "url_name": "prova",
    "group": "melee",
    "riven_type": "melee",
    "icon": "icons/en/Prova.81054da7c6c20e79abd36521923fa925.png",
    "thumb": "icons/en/thumbs/Prova.81054da7c6c20e79abd36521923fa925.128x128.png",
    "icon_format": "land",
    "en": {
        "item_name": "Prova",
        "wiki_link": "http://warframe.wikia.com/wiki/Prova"
    },
    "ru": {
        "item_name": "Prova",
        "wiki_link": "http://warframe.wikia.com/wiki/Prova"
    },
    "ko": {
        "item_name": "Prova",
        "wiki_link": "http://warframe.wikia.com/wiki/Prova"
    }
}