{
    "_id": "5c5ca81696e8d2003834fdd5",
    "url_name": "pyrana",
    "group": "secondary",
    "riven_type": "shotgun",
    "icon": "icons/en/Pyrana.1c8971b381374b98bb3a7f805f1edf92.png",
    "thumb": "icons/en/thumbs/Pyrana.1c8971b381374b98bb3a7f805f1edf92.128x128.png",
    "icon_format": "land",
    "en": {
        "item_name": "Pyrana",
        "wiki_link": "http://warframe.wikia.com/wiki/Pyrana"
    },
    "ru": {
        "item_name": "Pyrana",
        "wiki_link": "http://warframe.wikia.com/wiki/Pyrana"
    },
    "ko": {
        "item_name": "Pyrana",
        "wiki_link": "http://warframe.wikia.com/wiki/Pyrana"
    }
}