{
    "_id": "5c5ca81696e8d2003834fd8f",
    "url_name": "quartakk",
    "group": "primary",
    "riven_type": "rifle",
    "icon": "icons/en/Quartakk.02a3afa49e3624dfdb6b334d47de389b.png",
    "thumb": "icons/en/thumbs/Quartakk.02a3afa49e3624dfdb6b334d47de389b.128x128.png",
    "icon_format": "land",
    "en": {
        "item_name": "Quartakk",
        "wiki_link": "http://warframe.wikia.com/wiki/Quartakk"
    },
    "ru": {
        "item_name": "Quartakk",
        "wiki_link": "http://warframe.wikia.com/wiki/Quartakk"
    },
    "ko": {
        "item_name": "Quartakk",
        "wiki_link": "http://warframe.wikia.com/wiki/Quartakk"
    }
}