{
    "group": "kitgun",
    "riven_type": "kitgun",
    "icon": "remote://https://vignette.wikia.nocookie.net/warframe/images/3/35/KitgunChamberRattleguts.png/revision/latest/scale-to-width-down/350?cb=20181110154514",
    "icon_format": "land",
    "en": {
        "item_name": "Rattleguts",
        "wiki_link": "https://warframe.fandom.com/wiki/Rattleguts"
    },
    "ru": {
        "item_name": "Rattleguts",
        "wiki_link": "https://warframe.fandom.com/wiki/Rattleguts"
    },
    "ko": {
        "item_name": "Rattleguts",
        "wiki_link": "https://warframe.fandom.com/wiki/Rattleguts"
    }
}