{
    "_id": "5c5ca81696e8d2003834fe43",
    "url_name": "redeemer",
    "group": "melee",
    "riven_type": "melee",
    "icon": "icons/en/Redeemer.b39a80a47d3b0df5056bd07b5e277af8.png",
    "thumb": "icons/en/thumbs/Redeemer.b39a80a47d3b0df5056bd07b5e277af8.128x128.png",
    "icon_format": "land",
    "en": {
        "item_name": "Redeemer",
        "wiki_link": "http://warframe.wikia.com/wiki/Redeemer"
    },
    "ru": {
        "item_name": "Redeemer",
        "wiki_link": "http://warframe.wikia.com/wiki/Redeemer"
    },
    "ko": {
        "item_name": "Redeemer",
        "wiki_link": "http://warframe.wikia.com/wiki/Redeemer"
    }
}