{
    "_id": "5c5ca81696e8d2003834fe45",
    "url_name": "sarpa",
    "group": "melee",
    "riven_type": "melee",
    "icon": "icons/en/Sarpa.26a188ac393f3e3364feee09879de347.png",
    "thumb": "icons/en/thumbs/Sarpa.26a188ac393f3e3364feee09879de347.128x128.png",
    "icon_format": "land",
    "en": {
        "item_name": "Sarpa",
        "wiki_link": "http://warframe.wikia.com/wiki/Sarpa"
    },
    "ru": {
        "item_name": "Sarpa",
        "wiki_link": "http://warframe.wikia.com/wiki/Sarpa"
    },
    "ko": {
        "item_name": "Sarpa",
        "wiki_link": "http://warframe.wikia.com/wiki/Sarpa"
    }
}