{
    "_id": "5c5ca81696e8d2003834fe46",
    "url_name": "scindo",
    "group": "melee",
    "riven_type": "melee",
    "icon": "icons/en/Scindo.2aca84d492b20747b85eb9879d2e7932.png",
    "thumb": "icons/en/thumbs/Scindo.2aca84d492b20747b85eb9879d2e7932.128x128.png",
    "icon_format": "port",
    "en": {
        "item_name": "Scindo",
        "wiki_link": "http://warframe.wikia.com/wiki/Scindo"
    },
    "ru": {
        "item_name": "Scindo",
        "wiki_link": "http://warframe.wikia.com/wiki/Scindo"
    },
    "ko": {
        "item_name": "Scindo",
        "wiki_link": "http://warframe.wikia.com/wiki/Scindo"
    }
}