{
    "_id": "5c5ca81696e8d2003834fe47",
    "url_name": "scoliac",
    "group": "melee",
    "riven_type": "melee",
    "icon": "icons/en/Scoliac.6703c0d6787801aa4e743570e345e268.png",
    "thumb": "icons/en/thumbs/Scoliac.6703c0d6787801aa4e743570e345e268.128x128.png",
    "icon_format": "land",
    "en": {
        "item_name": "Scoliac",
        "wiki_link": "http://warframe.wikia.com/wiki/Scoliac"
    },
    "ru": {
        "item_name": "Scoliac",
        "wiki_link": "http://warframe.wikia.com/wiki/Scoliac"
    },
    "ko": {
        "item_name": "Scoliac",
        "wiki_link": "http://warframe.wikia.com/wiki/Scoliac"
    }
}