{
    "_id": "5c5ca81696e8d2003834fe4d",
    "url_name": "sigma_@_octantis",
    "group": "melee",
    "riven_type": "melee",
    "icon": "icons/en/Sigma_&_Octantis.ba55ee8f63accecc063aa87c0d04ad17.png",
    "thumb": "icons/en/thumbs/Sigma_&_Octantis.ba55ee8f63accecc063aa87c0d04ad17.128x128.png",
    "icon_format": "land",
    "en": {
        "item_name": "Sigma & Octantis",
        "wiki_link": "http://warframe.wikia.com/wiki/Sigma_&_Octantis"
    },
    "ru": {
        "item_name": "Sigma & Octantis",
        "wiki_link": "http://warframe.wikia.com/wiki/Sigma_&_Octantis"
    },
    "ko": {
        "item_name": "Sigma & Octantis",
        "wiki_link": "http://warframe.wikia.com/wiki/Sigma_&_Octantis"
    }
}