{
    "_id": "5c5ca81696e8d2003834fe4f",
    "url_name": "skana",
    "group": "melee",
    "riven_type": "melee",
    "icon": "icons/en/Skana.6f14ee5d2c28cba48204852dca4c03e4.png",
    "thumb": "icons/en/thumbs/Skana.6f14ee5d2c28cba48204852dca4c03e4.128x128.png",
    "icon_format": "port",
    "en": {
        "item_name": "Skana",
        "wiki_link": "http://warframe.wikia.com/wiki/Skana"
    },
    "ru": {
        "item_name": "Skana",
        "wiki_link": "http://warframe.wikia.com/wiki/Skana"
    },
    "ko": {
        "item_name": "Skana",
        "wiki_link": "http://warframe.wikia.com/wiki/Skana"
    }
}