{
    "_id": "5c5ca81696e8d2003834fd96",
    "url_name": "stradavar",
    "group": "primary",
    "riven_type": "rifle",
    "icon": "icons/en/Stradavar.9f1f4a8c6342cb3da33c5bef0df6b8b2.png",
    "thumb": "icons/en/thumbs/Stradavar.9f1f4a8c6342cb3da33c5bef0df6b8b2.128x128.png",
    "icon_format": "land",
    "en": {
        "item_name": "Stradavar",
        "wiki_link": "http://warframe.wikia.com/wiki/Stradavar"
    },
    "ru": {
        "item_name": "Stradavar",
        "wiki_link": "http://warframe.wikia.com/wiki/Stradavar"
    },
    "ko": {
        "item_name": "Stradavar",
        "wiki_link": "http://warframe.wikia.com/wiki/Stradavar"
    }
}