{
    "_id": "5c5ca81696e8d2003834fd97",
    "url_name": "strun",
    "group": "primary",
    "riven_type": "shotgun",
    "icon": "icons/en/Strun.e8cc2909f474436bb2573b8ba7ff43b7.png",
    "thumb": "icons/en/thumbs/Strun.e8cc2909f474436bb2573b8ba7ff43b7.128x128.png",
    "icon_format": "land",
    "en": {
        "item_name": "Strun",
        "wiki_link": "http://warframe.wikia.com/wiki/Strun"
    },
    "ru": {
        "item_name": "Strun",
        "wiki_link": "http://warframe.wikia.com/wiki/Strun"
    },
    "ko": {
        "item_name": "Strun",
        "wiki_link": "http://warframe.wikia.com/wiki/Strun"
    }
}