{
    "_id": "5c5ca81696e8d2003834fddc",
    "url_name": "stubba",
    "group": "secondary",
    "riven_type": "pistol",
    "icon": "icons/en/Stubba.6d4ac00860e711de12a9c746113fe987.png",
    "thumb": "icons/en/thumbs/Stubba.6d4ac00860e711de12a9c746113fe987.128x128.png",
    "icon_format": "land",
    "en": {
        "item_name": "Stubba",
        "wiki_link": "http://warframe.wikia.com/wiki/Stubba"
    },
    "ru": {
        "item_name": "Stubba",
        "wiki_link": "http://warframe.wikia.com/wiki/Stubba"
    },
    "ko": {
        "item_name": "Stubba",
        "wiki_link": "http://warframe.wikia.com/wiki/Stubba"
    }
}