{
    "_id": "5c5ca81696e8d2003834fddd",
    "url_name": "stug",
    "group": "secondary",
    "riven_type": "pistol",
    "icon": "icons/en/Stug.e9201ecf1f45772034b2962426d29bfb.png",
    "thumb": "icons/en/thumbs/Stug.e9201ecf1f45772034b2962426d29bfb.128x128.png",
    "icon_format": "land",
    "en": {
        "item_name": "Stug",
        "wiki_link": "http://warframe.wikia.com/wiki/Stug"
    },
    "ru": {
        "item_name": "Stug",
        "wiki_link": "http://warframe.wikia.com/wiki/Stug"
    },
    "ko": {
        "item_name": "Stug",
        "wiki_link": "http://warframe.wikia.com/wiki/Stug"
    }
}