{
    "_id": "5c5ca81696e8d2003834fd9d",
    "url_name": "tiberon",
    "group": "primary",
    "riven_type": "rifle",
    "icon": "icons/en/Tiberon.8c778ff9ac6a2ce76e785fbcb99969aa.png",
    "thumb": "icons/en/thumbs/Tiberon.8c778ff9ac6a2ce76e785fbcb99969aa.128x128.png",
    "icon_format": "land",
    "en": {
        "item_name": "Tiberon",
        "wiki_link": "http://warframe.wikia.com/wiki/Tiberon"
    },
    "ru": {
        "item_name": "Tiberon",
        "wiki_link": "http://warframe.wikia.com/wiki/Tiberon"
    },
    "ko": {
        "item_name": "Tiberon",
        "wiki_link": "http://warframe.wikia.com/wiki/Tiberon"
    }
}