{
    "_id": "5c5ca81696e8d2003834fde2",
    "url_name": "twin_rogga",
    "group": "secondary",
    "riven_type": "shotgun",
    "icon": "icons/en/Twin_Rogga.0b8d505d6436e04c8a99c1ccf99ac3da.png",
    "thumb": "icons/en/thumbs/Twin_Rogga.0b8d505d6436e04c8a99c1ccf99ac3da.128x128.png",
    "icon_format": "land",
    "en": {
        "item_name": "Twin Rogga",
        "wiki_link": "http://warframe.wikia.com/wiki/Twin_Rogga"
    },
    "ru": {
        "item_name": "Twin Rogga",
        "wiki_link": "http://warframe.wikia.com/wiki/Twin_Rogga"
    },
    "ko": {
        "item_name": "Twin Rogga",
        "wiki_link": "http://warframe.wikia.com/wiki/Twin_Rogga"
    }
}