{
    "_id": "5c5ca81696e8d2003834fde4",
    "url_name": "tysis",
    "group": "secondary",
    "riven_type": "pistol",
    "icon": "icons/en/Tysis.ce3461848f5d74b8eb66192ebea1b500.png",
    "thumb": "icons/en/thumbs/Tysis.ce3461848f5d74b8eb66192ebea1b500.128x128.png",
    "icon_format": "land",
    "en": {
        "item_name": "Tysis",
        "wiki_link": "http://warframe.wikia.com/wiki/Tysis"
    },
    "ru": {
        "item_name": "Tysis",
        "wiki_link": "http://warframe.wikia.com/wiki/Tysis"
    },
    "ko": {
        "item_name": "Tysis",
        "wiki_link": "http://warframe.wikia.com/wiki/Tysis"
    }
}