{
    "_id": "5c5ca81696e8d2003834fe59",
    "url_name": "war",
    "group": "melee",
    "riven_type": "melee",
    "icon": "icons/en/War.7273eef3bc28b2a6455ab57cbfb46006.png",
    "thumb": "icons/en/thumbs/War.7273eef3bc28b2a6455ab57cbfb46006.128x128.png",
    "icon_format": "land",
    "en": {
        "item_name": "War",
        "wiki_link": "http://warframe.wikia.com/wiki/War"
    },
    "ru": {
        "item_name": "War",
        "wiki_link": "http://warframe.wikia.com/wiki/War"
    },
    "ko": {
        "item_name": "War",
        "wiki_link": "http://warframe.wikia.com/wiki/War"
    }
}