{
    "_id": "5c5ca81a96e8d2003834fe68",
    "url_name": "channeling_damage",
    "group": "melee",
    "prefix": "Tori",
    "suffix": "Bo",
    "positive_is_negative": false,
    "exclusive_to": [
        "melee",
        "zaw"
    ],
    "en": {
        "effect": "Channeling Damage"
    },
    "ru": {
        "effect": "Channeling Damage"
    },
    "ko": {
        "effect": "Channeling Damage"
    }
}