{
    "_id": "5c5ca81a96e8d2003834fe6a",
    "url_name": "combo_duration",
    "group": "melee",
    "prefix": "Tempi",
    "suffix": "Nem",
    "positive_is_negative": false,
    "exclusive_to": [
        "melee",
        "zaw"
    ],
    "en": {
        "effect": "Combo Duration"
    },
    "ru": {
        "effect": "Combo Duration"
    },
    "ko": {
        "effect": "Combo Duration"
    }
}