{
    "_id": "5c5ca81a96e8d2003834fe64",
    "url_name": "damage_vs_corpus",
    "group": "default",
    "prefix": "Manti",
    "suffix": "Tron",
    "positive_is_negative": false,
    "en": {
        "effect": "Damage vs. Corpus"
    },
    "ru": {
        "effect": "Damage vs. Corpus"
    },
    "ko": {
        "effect": "Damage vs. Corpus"
    }
}