{
    "_id": "5c5ca81a96e8d2003834fe71",
    "url_name": "finisher_damage",
    "group": "melee",
    "prefix": "Exi",
    "suffix": "Cta",
    "positive_is_negative": false,
    "exclusive_to": [
        "melee",
        "zaw"
    ],
    "en": {
        "effect": "Finisher Damage"
    },
    "ru": {
        "effect": "Finisher Damage"
    },
    "ko": {
        "effect": "Finisher Damage"
    }
}