{
    "_id": "5c5ca81a96e8d2003834fe7d",
    "url_name": "status_chance",
    "group": "default",
    "prefix": "Hexa",
    "suffix": "Dex",
    "positive_is_negative": false,
    "en": {
        "effect": "Status Chance"
    },
    "ru": {
        "effect": "Status Chance"
    },
    "ko": {
        "effect": "Status Chance"
    }
}