{
    "_id": "5c5ca81696e8d2003834fdac",
    "url_name": "aklato",
    "group": "secondary",
    "riven_type": "pistol",
    "icon": "icons/en/aklato.fb4fd2557ee8190c747b8a21fc130f86.png",
    "thumb": "icons/en/thumbs/aklato.fb4fd2557ee8190c747b8a21fc130f86.128x128.png",
    "icon_format": "land",
    "en": {
        "item_name": "Aklato",
        "wiki_link": "http://warframe.wikia.com/wiki/Aklato"
    },
    "ru": {
        "item_name": "Aklato",
        "wiki_link": "http://warframe.wikia.com/wiki/Aklato"
    },
    "ko": {
        "item_name": "Aklato",
        "wiki_link": "http://warframe.wikia.com/wiki/Aklato"
    }
}