{
    "_id": "5c5ca81696e8d2003834fdad",
    "url_name": "aklex",
    "group": "secondary",
    "riven_type": "pistol",
    "icon": "icons/en/aklex.800394d7e0f24986229130ea22dfa4e7.png",
    "thumb": "icons/en/thumbs/aklex.800394d7e0f24986229130ea22dfa4e7.128x128.png",
    "icon_format": "land",
    "en": {
        "item_name": "Aklex",
        "wiki_link": "http://warframe.wikia.com/wiki/Aklex"
    },
    "ru": {
        "item_name": "Aklex",
        "wiki_link": "http://warframe.wikia.com/wiki/Aklex"
    },
    "ko": {
        "item_name": "Aklex",
        "wiki_link": "http://warframe.wikia.com/wiki/Aklex"
    }
}