{
    "_id": "5c5ca81696e8d2003834fdaf",
    "url_name": "aksomati",
    "group": "secondary",
    "riven_type": "pistol",
    "icon": "icons/en/aksomati.7f420cc90ae6ef6d8130c9475dc50274.png",
    "thumb": "icons/en/thumbs/aksomati.7f420cc90ae6ef6d8130c9475dc50274.128x128.png",
    "icon_format": "land",
    "en": {
        "item_name": "Aksomati",
        "wiki_link": "http://warframe.wikia.com/wiki/Aksomati"
    },
    "ru": {
        "item_name": "Aksomati",
        "wiki_link": "http://warframe.wikia.com/wiki/Aksomati"
    },
    "ko": {
        "item_name": "Aksomati",
        "wiki_link": "http://warframe.wikia.com/wiki/Aksomati"
    }
}