{
    "_id": "5c5ca81696e8d2003834fd63",
    "url_name": "astilla",
    "group": "primary",
    "riven_type": "shotgun",
    "icon": "icons/en/astilla.a172d60ec9a6cfe760c408f6a66fbbd4.png",
    "thumb": "icons/en/thumbs/astilla.a172d60ec9a6cfe760c408f6a66fbbd4.128x128.png",
    "icon_format": "land",
    "en": {
        "item_name": "Astilla",
        "wiki_link": "http://warframe.wikia.com/wiki/Astilla"
    },
    "ru": {
        "item_name": "Astilla",
        "wiki_link": "http://warframe.wikia.com/wiki/Astilla"
    },
    "ko": {
        "item_name": "Astilla",
        "wiki_link": "http://warframe.wikia.com/wiki/Astilla"
    }
}