{
    "_id": "5c5ca81696e8d2003834fdb5",
    "url_name": "atomos",
    "group": "secondary",
    "riven_type": "pistol",
    "icon": "icons/en/atomos.2f3af350060d4b7ff4adae2b12f97b0a.png",
    "thumb": "icons/en/thumbs/atomos.2f3af350060d4b7ff4adae2b12f97b0a.128x128.png",
    "icon_format": "land",
    "en": {
        "item_name": "Atomos",
        "wiki_link": "http://warframe.wikia.com/wiki/Atomos"
    },
    "ru": {
        "item_name": "Atomos",
        "wiki_link": "http://warframe.wikia.com/wiki/Atomos"
    },
    "ko": {
        "item_name": "Atomos",
        "wiki_link": "http://warframe.wikia.com/wiki/Atomos"
    }
}