{
    "_id": "5c5ca81696e8d2003834fdee",
    "url_name": "atterax",
    "group": "melee",
    "riven_type": "melee",
    "icon": "icons/en/atterax.79855f62aaa825e425eed6f36b687aa5.png",
    "thumb": "icons/en/thumbs/atterax.79855f62aaa825e425eed6f36b687aa5.128x128.png",
    "icon_format": "land",
    "en": {
        "item_name": "Atterax",
        "wiki_link": "http://warframe.wikia.com/wiki/Atterax"
    },
    "ru": {
        "item_name": "Atterax",
        "wiki_link": "http://warframe.wikia.com/wiki/Atterax"
    },
    "ko": {
        "item_name": "Atterax",
        "wiki_link": "http://warframe.wikia.com/wiki/Atterax"
    }
}