{
    "_id": "5c5ca81696e8d2003834fdf2",
    "url_name": "broken_scepter",
    "group": "melee",
    "riven_type": "melee",
    "icon": "icons/en/broken_scepter.9412cd26613aca64d75a63330b444d31.png",
    "thumb": "icons/en/thumbs/broken_scepter.9412cd26613aca64d75a63330b444d31.128x128.png",
    "icon_format": "land",
    "en": {
        "item_name": "Broken Scepter",
        "wiki_link": "http://warframe.wikia.com/wiki/Broken_Scepter"
    },
    "ru": {
        "item_name": "Broken Scepter",
        "wiki_link": "http://warframe.wikia.com/wiki/Broken_Scepter"
    },
    "ko": {
        "item_name": "Broken Scepter",
        "wiki_link": "http://warframe.wikia.com/wiki/Broken_Scepter"
    }
}