{
    "_id": "5c5ca81696e8d2003834fdf5",
    "url_name": "caustacyst",
    "group": "melee",
    "riven_type": "melee",
    "icon": "icons/en/caustacyst.1fb1dcd615381cbf7823f0471311c1fe.png",
    "thumb": "icons/en/thumbs/caustacyst.1fb1dcd615381cbf7823f0471311c1fe.128x128.png",
    "icon_format": "land",
    "en": {
        "item_name": "Caustacyst",
        "wiki_link": "http://warframe.wikia.com/wiki/Caustacyst"
    },
    "ru": {
        "item_name": "Caustacyst",
        "wiki_link": "http://warframe.wikia.com/wiki/Caustacyst"
    },
    "ko": {
        "item_name": "Caustacyst",
        "wiki_link": "http://warframe.wikia.com/wiki/Caustacyst"
    }
}