{
    "_id": "5c5ca81696e8d2003834fd6c",
    "url_name": "convectrix",
    "group": "primary",
    "riven_type": "shotgun",
    "icon": "icons/en/convectrix.5b6ad3c7b9c59e7de5130bac9588315c.png",
    "thumb": "icons/en/thumbs/convectrix.5b6ad3c7b9c59e7de5130bac9588315c.128x128.png",
    "icon_format": "land",
    "en": {
        "item_name": "Convectrix",
        "wiki_link": "http://warframe.wikia.com/wiki/Convectrix"
    },
    "ru": {
        "item_name": "Convectrix",
        "wiki_link": "http://warframe.wikia.com/wiki/Convectrix"
    },
    "ko": {
        "item_name": "Convectrix",
        "wiki_link": "http://warframe.wikia.com/wiki/Convectrix"
    }
}