{
    "_id": "5c5ca81696e8d2003834fdfa",
    "url_name": "dakra_prime",
    "group": "melee",
    "riven_type": "melee",
    "icon": "icons/en/dakra_prime.34da279951b92713480d09bdbf7104b7.png",
    "thumb": "icons/en/thumbs/dakra_prime.34da279951b92713480d09bdbf7104b7.128x128.png",
    "icon_format": "land",
    "en": {
        "item_name": "Dakra Prime",
        "wiki_link": "http://warframe.wikia.com/wiki/Dakra_Prime"
    },
    "ru": {
        "item_name": "Dakra Prime",
        "wiki_link": "http://warframe.wikia.com/wiki/Dakra_Prime"
    },
    "ko": {
        "item_name": "Dakra Prime",
        "wiki_link": "http://warframe.wikia.com/wiki/Dakra_Prime"
    }
}