{
    "_id": "5c5ca81696e8d2003834fdfe",
    "url_name": "dehtat",
    "group": "zaw",
    "riven_type": "zaw",
    "icon": "icons/en/dehtat.9a28bb6c6f0a1608301aea395a8e87c8.png",
    "thumb": "icons/en/thumbs/dehtat.9a28bb6c6f0a1608301aea395a8e87c8.128x128.png",
    "icon_format": "land",
    "en": {
        "item_name": "Dehtat",
        "wiki_link": "http://warframe.wikia.com/wiki/Dehtat"
    },
    "ru": {
        "item_name": "Dehtat",
        "wiki_link": "http://warframe.wikia.com/wiki/Dehtat"
    },
    "ko": {
        "item_name": "Dehtat",
        "wiki_link": "http://warframe.wikia.com/wiki/Dehtat"
    }
}