{
    "_id": "5c5ca81696e8d2003834fe08",
    "url_name": "dual_keres",
    "group": "melee",
    "riven_type": "melee",
    "icon": "icons/en/dual_keres.0a93b2e4eab73c24e0fb4675f59f2781.png",
    "thumb": "icons/en/thumbs/dual_keres.0a93b2e4eab73c24e0fb4675f59f2781.128x128.png",
    "icon_format": "land",
    "en": {
        "item_name": "Dual Keres",
        "wiki_link": "http://warframe.wikia.com/wiki/Dual_Keres"
    },
    "ru": {
        "item_name": "Dual Keres",
        "wiki_link": "http://warframe.wikia.com/wiki/Dual_Keres"
    },
    "ko": {
        "item_name": "Dual Keres",
        "wiki_link": "http://warframe.wikia.com/wiki/Dual_Keres"
    }
}