{
    "_id": "5c5ca81696e8d2003834fe15",
    "url_name": "glaive",
    "group": "melee",
    "riven_type": "melee",
    "icon": "icons/en/glaive.7b1c251b4f1fcc0afe64ce5233a39891.png",
    "thumb": "icons/en/thumbs/glaive.7b1c251b4f1fcc0afe64ce5233a39891.128x128.png",
    "icon_format": "port",
    "en": {
        "item_name": "Glaive",
        "wiki_link": "http://warframe.wikia.com/wiki/Glaive"
    },
    "ru": {
        "item_name": "Glaive",
        "wiki_link": "http://warframe.wikia.com/wiki/Glaive"
    },
    "ko": {
        "item_name": "Glaive",
        "wiki_link": "http://warframe.wikia.com/wiki/Glaive"
    }
}