{
    "_id": "5c5ca81696e8d2003834fdc7",
    "url_name": "hikou",
    "group": "secondary",
    "riven_type": "pistol",
    "icon": "icons/en/hikou.193c15fbaf82f2391dc78cc7d64cf16f.png",
    "thumb": "icons/en/thumbs/hikou.193c15fbaf82f2391dc78cc7d64cf16f.128x128.png",
    "icon_format": "land",
    "en": {
        "item_name": "Hikou",
        "wiki_link": "http://warframe.wikia.com/wiki/Hikou"
    },
    "ru": {
        "item_name": "Hikou",
        "wiki_link": "http://warframe.wikia.com/wiki/Hikou"
    },
    "ko": {
        "item_name": "Hikou",
        "wiki_link": "http://warframe.wikia.com/wiki/Hikou"
    }
}