{
    "_id": "5c5ca81696e8d2003834fe26",
    "url_name": "kogake",
    "group": "melee",
    "riven_type": "melee",
    "icon": "icons/en/kogake.f09fa04d9a65d621c0505649274db68a.png",
    "thumb": "icons/en/thumbs/kogake.f09fa04d9a65d621c0505649274db68a.128x128.png",
    "icon_format": "land",
    "en": {
        "item_name": "Kogake",
        "wiki_link": "http://warframe.wikia.com/wiki/Kogake"
    },
    "ru": {
        "item_name": "Kogake",
        "wiki_link": "http://warframe.wikia.com/wiki/Kogake"
    },
    "ko": {
        "item_name": "Kogake",
        "wiki_link": "http://warframe.wikia.com/wiki/Kogake"
    }
}