{
    "_id": "5c5ca81696e8d2003834fd7f",
    "url_name": "kohm",
    "group": "primary",
    "riven_type": "shotgun",
    "icon": "icons/en/kohm.361a454b487f45e05ef7c884a6a0dad2.png",
    "thumb": "icons/en/thumbs/kohm.361a454b487f45e05ef7c884a6a0dad2.128x128.png",
    "icon_format": "land",
    "en": {
        "item_name": "Kohm",
        "wiki_link": "http://warframe.wikia.com/wiki/Kohm"
    },
    "ru": {
        "item_name": "Kohm",
        "wiki_link": "http://warframe.wikia.com/wiki/Kohm"
    },
    "ko": {
        "item_name": "Kohm",
        "wiki_link": "http://warframe.wikia.com/wiki/Kohm"
    }
}