{
    "_id": "5c5ca81696e8d2003834fd82",
    "url_name": "lenz",
    "group": "primary",
    "riven_type": "rifle",
    "icon": "icons/en/lenz.c503188d5decb7208a86975a77881152.png",
    "thumb": "icons/en/thumbs/lenz.c503188d5decb7208a86975a77881152.128x128.png",
    "icon_format": "port",
    "en": {
        "item_name": "Lenz",
        "wiki_link": "http://warframe.wikia.com/wiki/Lenz"
    },
    "ru": {
        "item_name": "Lenz",
        "wiki_link": "http://warframe.wikia.com/wiki/Lenz"
    },
    "ko": {
        "item_name": "Lenz",
        "wiki_link": "http://warframe.wikia.com/wiki/Lenz"
    }
}