{
    "_id": "5c5ca81696e8d2003834fe2f",
    "url_name": "mewan",
    "group": "zaw",
    "riven_type": "zaw",
    "icon": "icons/en/mewan.96388512f768a99763561d0a410f62c5.png",
    "thumb": "icons/en/thumbs/mewan.96388512f768a99763561d0a410f62c5.128x128.png",
    "icon_format": "land",
    "en": {
        "item_name": "Mewan",
        "wiki_link": "http://warframe.wikia.com/wiki/Mewan"
    },
    "ru": {
        "item_name": "Mewan",
        "wiki_link": "http://warframe.wikia.com/wiki/Mewan"
    },
    "ko": {
        "item_name": "Mewan",
        "wiki_link": "http://warframe.wikia.com/wiki/Mewan"
    }
}