{
    "_id": "5c5ca81696e8d2003834fe30",
    "url_name": "mios",
    "group": "melee",
    "riven_type": "melee",
    "icon": "icons/en/mios.da75e577f209d8954d9b44c80994f32e.png",
    "thumb": "icons/en/thumbs/mios.da75e577f209d8954d9b44c80994f32e.128x128.png",
    "icon_format": "land",
    "en": {
        "item_name": "Mios",
        "wiki_link": "http://warframe.wikia.com/wiki/Mios"
    },
    "ru": {
        "item_name": "Mios",
        "wiki_link": "http://warframe.wikia.com/wiki/Mios"
    },
    "ko": {
        "item_name": "Mios",
        "wiki_link": "http://warframe.wikia.com/wiki/Mios"
    }
}