{
    "_id": "5c5ca81696e8d2003834fe36",
    "url_name": "obex",
    "group": "melee",
    "riven_type": "melee",
    "icon": "icons/en/obex.40b015303d936acebc71e5430dd85367.png",
    "thumb": "icons/en/thumbs/obex.40b015303d936acebc71e5430dd85367.128x128.png",
    "icon_format": "land",
    "en": {
        "item_name": "Obex",
        "wiki_link": "http://warframe.wikia.com/wiki/Obex"
    },
    "ru": {
        "item_name": "Obex",
        "wiki_link": "http://warframe.wikia.com/wiki/Obex"
    },
    "ko": {
        "item_name": "Obex",
        "wiki_link": "http://warframe.wikia.com/wiki/Obex"
    }
}