{
    "_id": "5c5ca81696e8d2003834fdd3",
    "url_name": "pandero",
    "group": "secondary",
    "riven_type": "pistol",
    "icon": "icons/en/pandero.e21b74806853bf80e2b3ca9fc4bdc635.png",
    "thumb": "icons/en/thumbs/pandero.e21b74806853bf80e2b3ca9fc4bdc635.128x128.png",
    "icon_format": "land",
    "en": {
        "item_name": "Pandero",
        "wiki_link": "http://warframe.wikia.com/wiki/Pandero"
    },
    "ru": {
        "item_name": "Pandero",
        "wiki_link": "http://warframe.wikia.com/wiki/Pandero"
    },
    "ko": {
        "item_name": "Pandero",
        "wiki_link": "http://warframe.wikia.com/wiki/Pandero"
    }
}