{
    "_id": "5c5ca81696e8d2003834fd8d",
    "url_name": "phantasma",
    "group": "primary",
    "riven_type": "shotgun",
    "icon": "icons/en/phantasma.f98d17ed4134d5528ed7f21429ef6006.png",
    "thumb": "icons/en/thumbs/phantasma.f98d17ed4134d5528ed7f21429ef6006.128x128.png",
    "icon_format": "land",
    "en": {
        "item_name": "Phantasma",
        "wiki_link": "http://warframe.wikia.com/wiki/Phantasma"
    },
    "ru": {
        "item_name": "Phantasma",
        "wiki_link": "http://warframe.wikia.com/wiki/Phantasma"
    },
    "ko": {
        "item_name": "Phantasma",
        "wiki_link": "http://warframe.wikia.com/wiki/Phantasma"
    }
}