{
    "_id": "5c5ca81696e8d2003834fd8e",
    "url_name": "quanta",
    "group": "primary",
    "riven_type": "rifle",
    "icon": "icons/en/quanta.a1b49d5f5d5c3c46b7f0cd130369559a.png",
    "thumb": "icons/en/thumbs/quanta.a1b49d5f5d5c3c46b7f0cd130369559a.128x128.png",
    "icon_format": "port",
    "en": {
        "item_name": "Quanta",
        "wiki_link": "http://warframe.wikia.com/wiki/Quanta"
    },
    "ru": {
        "item_name": "Quanta",
        "wiki_link": "http://warframe.wikia.com/wiki/Quanta"
    },
    "ko": {
        "item_name": "Quanta",
        "wiki_link": "http://warframe.wikia.com/wiki/Quanta"
    }
}