{
    "_id": "5ced51e0cd3f0b0098a3862d",
    "url_name": "rattleguts",
    "group": "kitgun",
    "riven_type": "kitgun",
    "icon": "icons/en/rattleguts.51473ced4b8099a9fbb25dfad75e8b45.png",
    "thumb": "icons/en/thumbs/rattleguts.51473ced4b8099a9fbb25dfad75e8b45.128x128.png",
    "icon_format": "port",
    "en": {
        "item_name": "Rattleguts",
        "wiki_link": "https://warframe.fandom.com/wiki/Rattleguts"
    },
    "ru": {
        "item_name": "Rattleguts",
        "wiki_link": "https://warframe.fandom.com/wiki/Rattleguts"
    },
    "ko": {
        "item_name": "Rattleguts",
        "wiki_link": "https://warframe.fandom.com/wiki/Rattleguts"
    }
}