{
    "_id": "5c5ca81696e8d2003834fd90",
    "url_name": "rubico",
    "group": "primary",
    "riven_type": "rifle",
    "icon": "icons/en/rubico.19654c8831d70f150f84be3f69b35a15.png",
    "thumb": "icons/en/thumbs/rubico.19654c8831d70f150f84be3f69b35a15.128x128.png",
    "icon_format": "land",
    "en": {
        "item_name": "Rubico",
        "wiki_link": "http://warframe.wikia.com/wiki/Rubico"
    },
    "ru": {
        "item_name": "Rubico",
        "wiki_link": "http://warframe.wikia.com/wiki/Rubico"
    },
    "ko": {
        "item_name": "Rubico",
        "wiki_link": "http://warframe.wikia.com/wiki/Rubico"
    }
}