{
    "_id": "5c5ca81696e8d2003834fe4c",
    "url_name": "sibear",
    "group": "melee",
    "riven_type": "melee",
    "icon": "icons/en/sibear.316a35a05e38b1826e5cf5056b4cb946.png",
    "thumb": "icons/en/thumbs/sibear.316a35a05e38b1826e5cf5056b4cb946.128x128.png",
    "icon_format": "land",
    "en": {
        "item_name": "Sibear",
        "wiki_link": "http://warframe.wikia.com/wiki/Sibear"
    },
    "ru": {
        "item_name": "Sibear",
        "wiki_link": "http://warframe.wikia.com/wiki/Sibear"
    },
    "ko": {
        "item_name": "Sibear",
        "wiki_link": "http://warframe.wikia.com/wiki/Sibear"
    }
}