{
    "_id": "5c5ca81696e8d2003834fd95",
    "url_name": "soma",
    "group": "primary",
    "riven_type": "rifle",
    "icon": "icons/en/soma.cdaf834f3db92d51d4452ce8f9aee19c.png",
    "thumb": "icons/en/thumbs/soma.cdaf834f3db92d51d4452ce8f9aee19c.128x128.png",
    "icon_format": "land",
    "en": {
        "item_name": "Soma",
        "wiki_link": "http://warframe.wikia.com/wiki/Soma"
    },
    "ru": {
        "item_name": "Soma",
        "wiki_link": "http://warframe.wikia.com/wiki/Soma"
    },
    "ko": {
        "item_name": "Soma",
        "wiki_link": "http://warframe.wikia.com/wiki/Soma"
    }
}