{
    "_id": "5c5ca81696e8d2003834fd98",
    "url_name": "supra",
    "group": "primary",
    "riven_type": "rifle",
    "icon": "icons/en/supra.f1e9cbaf71eff60771de3aa57a9596f4.png",
    "thumb": "icons/en/thumbs/supra.f1e9cbaf71eff60771de3aa57a9596f4.128x128.png",
    "icon_format": "land",
    "en": {
        "item_name": "Supra",
        "wiki_link": "http://warframe.wikia.com/wiki/Supra"
    },
    "ru": {
        "item_name": "Supra",
        "wiki_link": "http://warframe.wikia.com/wiki/Supra"
    },
    "ko": {
        "item_name": "Supra",
        "wiki_link": "http://warframe.wikia.com/wiki/Supra"
    }
}