{
    "_id": "5c5ca81696e8d2003834fe51",
    "url_name": "sydon",
    "group": "melee",
    "riven_type": "melee",
    "icon": "icons/en/sydon.85d4c0918503f427164dbc69d27d9443.png",
    "thumb": "icons/en/thumbs/sydon.85d4c0918503f427164dbc69d27d9443.128x128.png",
    "icon_format": "land",
    "en": {
        "item_name": "Sydon",
        "wiki_link": "http://warframe.wikia.com/wiki/Sydon"
    },
    "ru": {
        "item_name": "Sydon",
        "wiki_link": "http://warframe.wikia.com/wiki/Sydon"
    },
    "ko": {
        "item_name": "Sydon",
        "wiki_link": "http://warframe.wikia.com/wiki/Sydon"
    }
}