{
    "_id": "5c5ca81696e8d2003834fe53",
    "url_name": "tipedo",
    "group": "melee",
    "riven_type": "melee",
    "icon": "icons/en/tipedo.3231886049a74dae17e5fa0e2992c54f.png",
    "thumb": "icons/en/thumbs/tipedo.3231886049a74dae17e5fa0e2992c54f.128x128.png",
    "icon_format": "land",
    "en": {
        "item_name": "Tipedo",
        "wiki_link": "http://warframe.wikia.com/wiki/Tipedo"
    },
    "ru": {
        "item_name": "Tipedo",
        "wiki_link": "http://warframe.wikia.com/wiki/Tipedo"
    },
    "ko": {
        "item_name": "Tipedo",
        "wiki_link": "http://warframe.wikia.com/wiki/Tipedo"
    }
}