{
    "_id": "5c5ca81696e8d2003834fe55",
    "url_name": "twin_basolk",
    "group": "melee",
    "riven_type": "melee",
    "icon": "icons/en/twin_basolk.a6e398dafc2dcf1e2b4e2516ae08af06.png",
    "thumb": "icons/en/thumbs/twin_basolk.a6e398dafc2dcf1e2b4e2516ae08af06.128x128.png",
    "icon_format": "port",
    "en": {
        "item_name": "Twin Basolk",
        "wiki_link": "http://warframe.wikia.com/wiki/Twin_Basolk"
    },
    "ru": {
        "item_name": "Twin Basolk",
        "wiki_link": "http://warframe.wikia.com/wiki/Twin_Basolk"
    },
    "ko": {
        "item_name": "Twin Basolk",
        "wiki_link": "http://warframe.wikia.com/wiki/Twin_Basolk"
    }
}