{
    "_id": "5c5ca81696e8d2003834fe57",
    "url_name": "venka",
    "group": "melee",
    "riven_type": "melee",
    "icon": "icons/en/venka.e1ecfa02e0c61e38048695a98868fc3c.png",
    "thumb": "icons/en/thumbs/venka.e1ecfa02e0c61e38048695a98868fc3c.128x128.png",
    "icon_format": "land",
    "en": {
        "item_name": "Venka",
        "wiki_link": "http://warframe.wikia.com/wiki/Venka"
    },
    "ru": {
        "item_name": "Venka",
        "wiki_link": "http://warframe.wikia.com/wiki/Venka"
    },
    "ko": {
        "item_name": "Venka",
        "wiki_link": "http://warframe.wikia.com/wiki/Venka"
    }
}