{
    "_id": "5c5ca81696e8d2003834fe58",
    "url_name": "volnus",
    "group": "melee",
    "riven_type": "melee",
    "icon": "icons/en/volnus.2353fb37d6c473b12f28bfef8c8a95dd.png",
    "thumb": "icons/en/thumbs/volnus.2353fb37d6c473b12f28bfef8c8a95dd.128x128.png",
    "icon_format": "port",
    "en": {
        "item_name": "Volnus",
        "wiki_link": "http://warframe.wikia.com/wiki/Volnus"
    },
    "ru": {
        "item_name": "Volnus",
        "wiki_link": "http://warframe.wikia.com/wiki/Volnus"
    },
    "ko": {
        "item_name": "Volnus",
        "wiki_link": "http://warframe.wikia.com/wiki/Volnus"
    }
}