{
    "_id": "5c5ca81696e8d2003834fda3",
    "url_name": "vulkar",
    "group": "primary",
    "riven_type": "rifle",
    "icon": "icons/en/vulkar.cd244ebd97bf1ef69ed49b756d07665f.png",
    "thumb": "icons/en/thumbs/vulkar.cd244ebd97bf1ef69ed49b756d07665f.128x128.png",
    "icon_format": "land",
    "en": {
        "item_name": "Vulkar",
        "wiki_link": "http://warframe.wikia.com/wiki/Vulkar"
    },
    "ru": {
        "item_name": "Vulkar",
        "wiki_link": "http://warframe.wikia.com/wiki/Vulkar"
    },
    "ko": {
        "item_name": "Vulkar",
        "wiki_link": "http://warframe.wikia.com/wiki/Vulkar"
    }
}