{
    "_id": "5c5ca81696e8d2003834fde7",
    "url_name": "zakti",
    "group": "secondary",
    "riven_type": "pistol",
    "icon": "icons/en/zakti.41680477b8d0d79382d677e328336031.png",
    "thumb": "icons/en/thumbs/zakti.41680477b8d0d79382d677e328336031.128x128.png",
    "icon_format": "port",
    "en": {
        "item_name": "Zakti",
        "wiki_link": "http://warframe.wikia.com/wiki/Zakti"
    },
    "ru": {
        "item_name": "Zakti",
        "wiki_link": "http://warframe.wikia.com/wiki/Zakti"
    },
    "ko": {
        "item_name": "Zakti",
        "wiki_link": "http://warframe.wikia.com/wiki/Zakti"
    }
}