{
    "_id": "5c5ca81696e8d2003834fde8",
    "url_name": "zylok",
    "group": "secondary",
    "riven_type": "pistol",
    "icon": "icons/en/zylok.fa578a9c8fa46de167ff200523b6276c.png",
    "thumb": "icons/en/thumbs/zylok.fa578a9c8fa46de167ff200523b6276c.128x128.png",
    "icon_format": "land",
    "en": {
        "item_name": "Zylok",
        "wiki_link": "http://warframe.wikia.com/wiki/Zylok"
    },
    "ru": {
        "item_name": "Zylok",
        "wiki_link": "http://warframe.wikia.com/wiki/Zylok"
    },
    "ko": {
        "item_name": "Zylok",
        "wiki_link": "http://warframe.wikia.com/wiki/Zylok"
    }
}